TestCfg,EncodeMethod,CodecName,EncodePreset,Class,Name,Res,FPS,BitDepth,QP,POC,FrameType,Level,qindex,FrameSize,PSNR_Y,PSNR_U,PSNR_V,SSIM_Y(dB),MS-SSIM_Y(dB),VMAF_Y,VMAF_Y-NEG,PSNR-HVS,CIEDE2000,CAMBI
STILL,aom,av2,0,F1,animals_00.y4m,4032x3024,25,8,60,0, KEY ,1,60,5819426,48.892511,49.715756,51.022605,50.544582,34.543531,97.007564,96.383545,54.414375,48.009214,0.000000
STILL,aom,av2,0,F1,animals_00.y4m,4032x3024,25,8,85,0, KEY ,1,85,3816944,42.863417,45.946269,48.404571,44.719035,28.450014,96.201383,95.261405,49.746069,43.437487,0.000015
STILL,aom,av2,0,F1,animals_00.y4m,4032x3024,25,8,110,0, KEY ,1,110,2074729,36.837790,42.820743,46.012339,38.499715,22.236088,94.196852,92.767811,43.239966,38.865026,0.000548
STILL,aom,av2,0,F1,animals_00.y4m,4032x3024,25,8,135,0, KEY ,1,135,927650,32.209004,40.264691,43.771832,32.268968,17.612487,88.491381,86.429316,36.404208,35.046671,0.001569
STILL,aom,av2,0,F1,animals_00.y4m,4032x3024,25,8,160,0, KEY ,1,160,431377,28.789066,37.767007,41.599142,26.142727,14.270074,73.566598,71.532504,30.261032,32.022497,0.007563
STILL,aom,av2,0,F1,animals_00.y4m,4032x3024,25,8,185,0, KEY ,1,185,190906,25.395122,35.202051,39.454843,20.145298,10.701188,49.467693,47.699181,24.455503,28.910117,0.020632
STILL,aom,av2,0,F1,animals_03.y4m,4032x3024,25,8,60,0, KEY ,1,60,4025635,48.842893,50.714674,51.076781,46.025059,31.433027,96.615368,95.875887,52.745889,48.208952,0.000009
STILL,aom,av2,0,F1,animals_03.y4m,4032x3024,25,8,85,0, KEY ,1,85,2236745,42.969206,48.436123,48.809145,40.639513,25.382426,95.222622,94.215650,47.876482,44.247653,0.002873
STILL,aom,av2,0,F1,animals_03.y4m,4032x3024,25,8,110,0, KEY ,1,110,952322,37.903793,46.362489,46.884383,34.477283,19.797181,92.211681,90.582430,41.557667,40.602178,0.213457
STILL,aom,av2,0,F1,animals_03.y4m,4032x3024,25,8,135,0, KEY ,1,135,349087,34.334500,44.339797,44.988282,28.567493,15.353704,84.153023,82.059673,35.167405,37.726720,1.008926
STILL,aom,av2,0,F1,animals_03.y4m,4032x3024,25,8,160,0, KEY ,1,160,147806,31.847432,42.558778,42.979866,23.269609,12.320318,67.335549,65.269491,30.255495,35.457498,1.721226
STILL,aom,av2,0,F1,animals_03.y4m,4032x3024,25,8,185,0, KEY ,1,185,65902,29.290475,40.694868,40.601029,18.168635,9.742793,42.440924,41.044501,26.183429,33.028955,1.648548
STILL,aom,av2,0,F1,animals_09.y4m,4032x3024,25,8,60,0, KEY ,1,60,1108211,51.325755,55.736013,56.300117,44.012457,29.421486,96.545582,95.376092,50.852416,54.309575,0.016106
STILL,aom,av2,0,F1,animals_09.y4m,4032x3024,25,8,85,0, KEY ,1,85,556529,47.623056,53.329923,54.050531,38.161408,24.806353,95.375192,93.777266,46.451453,50.136493,0.044488
STILL,aom,av2,0,F1,animals_09.y4m,4032x3024,25,8,110,0, KEY ,1,110,269097,43.893388,51.099933,52.067528,32.235489,20.454290,91.956992,89.855071,41.543060,46.659031,0.153462
STILL,aom,av2,0,F1,animals_09.y4m,4032x3024,25,8,135,0, KEY ,1,135,115777,40.234687,48.597473,49.829349,26.161618,16.374660,82.794993,80.515629,36.790407,43.313694,0.534822
STILL,aom,av2,0,F1,animals_09.y4m,4032x3024,25,8,160,0, KEY ,1,160,46574,37.146075,45.672432,47.031538,20.534880,13.398132,65.336691,63.435143,33.166043,40.314404,0.820895
STILL,aom,av2,0,F1,animals_09.y4m,4032x3024,25,8,185,0, KEY ,1,185,20429,34.516641,41.950788,43.665466,15.913333,11.284085,46.879108,45.411625,30.295837,37.497698,1.158441
STILL,aom,av2,0,F1,buildings_02.y4m,4032x3024,25,8,60,0, KEY ,1,60,2933034,49.095126,52.927974,53.679659,41.821444,29.631051,97.199494,96.636351,50.297256,50.274418,0.855633
STILL,aom,av2,0,F1,buildings_02.y4m,4032x3024,25,8,85,0, KEY ,1,85,1537041,43.929417,50.708378,51.429636,35.969445,24.714444,96.750443,95.875399,46.628088,46.235425,5.843377
STILL,aom,av2,0,F1,buildings_02.y4m,4032x3024,25,8,110,0, KEY ,1,110,812506,40.014209,48.551824,49.340708,32.027867,22.249940,95.362909,94.029966,43.737719,43.347892,11.016841
STILL,aom,av2,0,F1,buildings_02.y4m,4032x3024,25,8,135,0, KEY ,1,135,438928,36.338296,46.448866,47.332073,29.381736,20.568045,91.627138,89.578455,40.367549,40.817339,10.874736
STILL,aom,av2,0,F1,buildings_02.y4m,4032x3024,25,8,160,0, KEY ,1,160,221807,32.487714,43.959706,45.084588,25.996648,18.260065,82.462768,79.710694,35.449678,38.015140,10.550111
STILL,aom,av2,0,F1,buildings_02.y4m,4032x3024,25,8,185,0, KEY ,1,185,100992,28.595232,41.098650,42.309950,21.627550,15.031424,66.352614,63.175224,29.558813,34.828558,7.875410
STILL,aom,av2,0,F1,buildings_03.y4m,4032x3024,25,8,60,0, KEY ,1,60,6246215,48.833344,50.944480,50.760793,49.792072,37.958776,97.086382,96.427517,55.368405,47.310062,0.001460
STILL,aom,av2,0,F1,buildings_03.y4m,4032x3024,25,8,85,0, KEY ,1,85,4316068,42.874024,48.093932,47.781644,43.960600,31.810965,96.351735,95.338077,51.019566,43.103316,0.003934
STILL,aom,av2,0,F1,buildings_03.y4m,4032x3024,25,8,110,0, KEY ,1,110,2688452,37.063680,45.638915,45.248913,37.842831,25.949648,94.469059,92.907328,45.198253,38.922235,0.004001
STILL,aom,av2,0,F1,buildings_03.y4m,4032x3024,25,8,135,0, KEY ,1,135,1439406,31.820338,43.288945,42.796881,31.630413,20.769102,89.208664,86.955302,38.034330,34.843100,0.010063
STILL,aom,av2,0,F1,buildings_03.y4m,4032x3024,25,8,160,0, KEY ,1,160,676031,27.415096,40.924758,40.262666,25.535100,16.073099,74.812541,72.406119,30.449811,31.082184,0.022913
STILL,aom,av2,0,F1,buildings_03.y4m,4032x3024,25,8,185,0, KEY ,1,185,283958,23.592469,38.484555,37.846774,19.367123,11.695664,49.925221,47.843047,23.621137,27.530250,0.040646
STILL,aom,av2,0,F1,church.y4m,6000x4000,25,8,60,0, KEY ,1,60,1965253,51.509992,52.246439,52.310375,45.095525,29.113431,96.416781,95.516757,49.416212,52.030847,0.518425
STILL,aom,av2,0,F1,church.y4m,6000x4000,25,8,85,0, KEY ,1,85,766133,47.958276,49.856240,50.019607,38.834833,25.015926,94.655491,93.413657,45.916207,48.689474,1.574379
STILL,aom,av2,0,F1,church.y4m,6000x4000,25,8,110,0, KEY ,1,110,356026,45.294932,47.622549,48.073366,33.443637,22.040335,90.730991,89.089278,42.768117,46.309489,2.022689
STILL,aom,av2,0,F1,church.y4m,6000x4000,25,8,135,0, KEY ,1,135,169128,42.303197,45.056590,45.869549,28.043350,18.849139,82.227140,80.180386,39.020688,43.767972,2.403623
STILL,aom,av2,0,F1,church.y4m,6000x4000,25,8,160,0, KEY ,1,160,76255,39.083715,42.130397,43.309471,22.831190,15.558303,66.181348,63.914161,35.117575,40.961313,2.886665
STILL,aom,av2,0,F1,church.y4m,6000x4000,25,8,185,0, KEY ,1,185,31400,35.834484,38.861722,40.495895,17.772967,12.425980,43.508010,41.516340,31.428890,37.965393,3.631447
STILL,aom,av2,0,F1,fireworks_01.y4m,4032x3024,25,8,60,0, KEY ,1,60,4339589,49.031236,54.980386,53.225447,41.708735,30.153360,96.399255,95.759412,53.136385,52.081238,0.000007
STILL,aom,av2,0,F1,fireworks_01.y4m,4032x3024,25,8,85,0, KEY ,1,85,2601178,43.039080,52.867871,51.679037,36.136342,24.045270,94.952899,94.003303,48.266782,47.670352,0.000081
STILL,aom,av2,0,F1,fireworks_01.y4m,4032x3024,25,8,110,0, KEY ,1,110,1067205,37.099069,50.539908,49.889370,29.742755,17.489992,91.529329,90.177471,40.967524,42.877614,0.000668
STILL,aom,av2,0,F1,fireworks_01.y4m,4032x3024,25,8,135,0, KEY ,1,135,230621,33.107686,47.906171,47.768246,23.402191,11.560453,83.339981,81.736480,33.979753,39.214016,0.236169
STILL,aom,av2,0,F1,fireworks_01.y4m,4032x3024,25,8,160,0, KEY ,1,160,49730,31.512706,44.814080,44.884824,17.208748,8.669404,67.282664,65.907372,30.375438,37.457807,9.700534
STILL,aom,av2,0,F1,fireworks_01.y4m,4032x3024,25,8,185,0, KEY ,1,185,21936,30.676126,41.129814,41.224510,14.724716,8.073815,52.870651,51.744781,28.772802,36.058960,13.507841
STILL,aom,av2,0,F1,flowerfield.y4m,3696x2448,25,8,60,0, KEY ,1,60,1293058,51.462871,51.538091,51.929194,48.373301,32.271355,96.825468,96.075137,52.810937,53.548935,0.002587
STILL,aom,av2,0,F1,flowerfield.y4m,3696x2448,25,8,85,0, KEY ,1,85,679742,47.455752,47.174186,47.765120,42.101994,27.550321,95.712200,94.605960,47.767987,48.850342,0.004906
STILL,aom,av2,0,F1,flowerfield.y4m,3696x2448,25,8,110,0, KEY ,1,110,353967,43.825513,43.394893,44.245415,36.110895,23.838251,92.686972,91.195444,42.647555,45.310034,0.004934
STILL,aom,av2,0,F1,flowerfield.y4m,3696x2448,25,8,135,0, KEY ,1,135,185755,40.184407,39.820528,40.853514,30.194614,20.163310,85.206992,83.446537,37.421689,41.865688,0.006845
STILL,aom,av2,0,F1,flowerfield.y4m,3696x2448,25,8,160,0, KEY ,1,160,95560,36.406993,36.366751,37.461057,24.442514,16.496438,69.962717,67.939346,32.497988,38.305021,0.009494
STILL,aom,av2,0,F1,flowerfield.y4m,3696x2448,25,8,185,0, KEY ,1,185,46900,32.578719,33.029055,33.966477,19.018228,12.995542,46.942176,45.177320,27.988012,34.628748,0.032928
STILL,aom,av2,0,F1,flowers_08.y4m,4032x3024,25,8,60,0, KEY ,1,60,5326894,48.824533,49.941901,51.297271,50.515336,33.383578,97.089636,96.494387,54.040604,48.877407,0.009033
STILL,aom,av2,0,F1,flowers_08.y4m,4032x3024,25,8,85,0, KEY ,1,85,3331660,42.934959,45.696415,47.858073,44.538679,27.401023,96.379710,95.457326,49.079117,43.997179,0.018276
STILL,aom,av2,0,F1,flowers_08.y4m,4032x3024,25,8,110,0, KEY ,1,110,1866287,37.733690,42.080516,44.592107,38.454144,22.470205,94.418990,93.028310,42.927184,39.743025,0.028355
STILL,aom,av2,0,F1,flowers_08.y4m,4032x3024,25,8,135,0, KEY ,1,135,971892,33.285747,39.005530,41.616154,32.432184,18.527559,89.279368,87.094049,36.649068,36.055457,0.047866
STILL,aom,av2,0,F1,flowers_08.y4m,4032x3024,25,8,160,0, KEY ,1,160,467148,29.283449,35.981396,38.742572,26.512913,14.691793,75.135313,72.896738,30.422197,32.612091,0.081710
STILL,aom,av2,0,F1,flowers_08.y4m,4032x3024,25,8,185,0, KEY ,1,185,211132,25.619773,32.813621,35.841270,20.627981,10.864423,51.923350,50.016540,24.503200,29.250710,0.137339
STILL,aom,av2,0,F1,flowers_12.y4m,4032x3024,25,8,60,0, KEY ,1,60,4145664,48.680023,51.899039,53.156552,51.602619,33.737793,97.092205,96.592736,54.179792,49.144432,0.000141
STILL,aom,av2,0,F1,flowers_12.y4m,4032x3024,25,8,85,0, KEY ,1,85,2386905,43.003555,49.220897,50.822569,45.657551,27.888341,96.385069,95.644557,49.311546,44.542848,0.000148
STILL,aom,av2,0,F1,flowers_12.y4m,4032x3024,25,8,110,0, KEY ,1,110,1193294,38.217585,46.594394,48.308960,39.610838,22.927729,94.576562,93.449911,42.887311,40.557362,0.001035
STILL,aom,av2,0,F1,flowers_12.y4m,4032x3024,25,8,135,0, KEY ,1,135,562346,34.377044,43.847961,45.629636,33.408882,18.940282,89.487311,87.878698,36.369394,37.182840,0.016260
STILL,aom,av2,0,F1,flowers_12.y4m,4032x3024,25,8,160,0, KEY ,1,160,278974,31.098347,41.047240,42.912114,27.351973,15.405741,77.808358,75.688278,30.547539,34.143311,0.028264
STILL,aom,av2,0,F1,flowers_12.y4m,4032x3024,25,8,185,0, KEY ,1,185,135749,27.672050,38.177094,40.127762,21.343031,11.688388,57.422931,55.600227,25.238425,30.957463,0.066312
STILL,aom,av2,0,F1,food_02.y4m,4032x3024,25,8,60,0, KEY ,1,60,3128260,48.658275,53.255583,54.287869,45.554030,29.967224,97.013324,96.333304,52.349545,50.788703,0.000396
STILL,aom,av2,0,F1,food_02.y4m,4032x3024,25,8,85,0, KEY ,1,85,1492266,43.302665,50.641657,52.151507,39.315784,23.870166,96.334115,95.294288,47.039478,46.041407,0.003425
STILL,aom,av2,0,F1,food_02.y4m,4032x3024,25,8,110,0, KEY ,1,110,640144,39.255165,48.048653,50.004781,33.017351,18.712187,93.988525,92.590860,40.725765,42.424337,0.018589
STILL,aom,av2,0,F1,food_02.y4m,4032x3024,25,8,135,0, KEY ,1,135,254519,36.069025,45.356991,47.706221,27.747019,15.355355,87.698725,85.856970,35.693791,39.523950,0.121420
STILL,aom,av2,0,F1,food_02.y4m,4032x3024,25,8,160,0, KEY ,1,160,111293,33.461252,42.424637,44.968052,22.738101,12.904324,74.687622,72.455962,31.721355,37.080973,0.246587
STILL,aom,av2,0,F1,food_02.y4m,4032x3024,25,8,185,0, KEY ,1,185,46819,30.634987,38.966140,41.736422,17.613092,10.273051,55.686462,53.568196,27.742576,34.404991,0.898819
STILL,aom,av2,0,F1,fountain.y4m,6406x4270,25,8,60,0, KEY ,1,60,7464923,48.954198,52.048407,52.523987,49.172239,30.189757,96.652920,95.744961,52.076185,51.420694,0.000066
STILL,aom,av2,0,F1,fountain.y4m,6406x4270,25,8,85,0, KEY ,1,85,3965198,43.428989,49.373672,49.993864,43.399245,24.331502,95.219427,94.058654,47.303569,46.501986,0.000406
STILL,aom,av2,0,F1,fountain.y4m,6406x4270,25,8,110,0, KEY ,1,110,1524879,38.544192,46.713049,47.364315,37.364513,18.822143,92.064154,90.532078,41.318166,42.063367,0.001365
STILL,aom,av2,0,F1,fountain.y4m,6406x4270,25,8,135,0, KEY ,1,135,473014,35.384479,43.811066,44.480059,31.586923,15.310004,84.928512,82.898317,36.330320,39.017801,0.410876
STILL,aom,av2,0,F1,fountain.y4m,6406x4270,25,8,160,0, KEY ,1,160,213130,33.485456,40.647987,41.262745,26.263234,13.401803,70.619268,68.342568,32.404339,36.992760,0.565453
STILL,aom,av2,0,F1,fountain.y4m,6406x4270,25,8,185,0, KEY ,1,185,93265,31.064299,37.216741,37.832613,21.137365,11.022898,48.312048,46.186522,28.278540,34.541258,0.498933
STILL,aom,av2,0,F1,lady.y4m,4480x6720,25,8,60,0, KEY ,1,60,5619892,48.885011,55.912046,55.617142,45.638544,27.857422,96.339649,95.534545,50.042423,50.367569,0.100586
STILL,aom,av2,0,F1,lady.y4m,4480x6720,25,8,85,0, KEY ,1,85,1959347,43.451317,54.044672,53.556418,39.002317,21.638104,94.902978,93.879018,45.031259,45.406543,0.855123
STILL,aom,av2,0,F1,lady.y4m,4480x6720,25,8,110,0, KEY ,1,110,400537,40.527219,52.061631,51.366300,33.295737,18.030661,92.127058,90.664547,41.175244,42.618894,5.640442
STILL,aom,av2,0,F1,lady.y4m,4480x6720,25,8,135,0, KEY ,1,135,160483,39.178226,49.820821,49.122105,28.853678,16.391577,84.362586,82.581260,38.494588,41.310142,5.685844
STILL,aom,av2,0,F1,lady.y4m,4480x6720,25,8,160,0, KEY ,1,160,65690,37.537446,47.227292,46.686591,23.950045,14.543080,68.987814,67.282110,35.577218,39.755114,5.396306
STILL,aom,av2,0,F1,lady.y4m,4480x6720,25,8,185,0, KEY ,1,185,25779,35.572631,43.971097,43.528139,18.834872,12.500701,47.394349,46.101856,32.607057,37.659192,5.624345
STILL,aom,av2,0,F1,landscape_05.y4m,4032x3024,25,8,60,0, KEY ,1,60,4382940,48.855758,51.116488,51.937268,48.147868,32.075098,96.951699,96.338671,53.459349,49.790204,0.000001
STILL,aom,av2,0,F1,landscape_05.y4m,4032x3024,25,8,85,0, KEY ,1,85,2627747,43.181110,47.672763,48.897005,42.312837,26.213772,96.072086,95.163455,48.482213,44.822736,0.000057
STILL,aom,av2,0,F1,landscape_05.y4m,4032x3024,25,8,110,0, KEY ,1,110,1338136,38.105721,44.468943,45.835036,36.415211,20.756512,93.872720,92.531403,42.119207,40.433465,0.013007
STILL,aom,av2,0,F1,landscape_05.y4m,4032x3024,25,8,135,0, KEY ,1,135,640108,34.227879,41.417798,42.861581,30.664781,17.005494,87.466312,85.672186,36.098046,36.997491,0.046474
STILL,aom,av2,0,F1,landscape_05.y4m,4032x3024,25,8,160,0, KEY ,1,160,312074,30.808327,38.383518,39.982637,24.781324,13.770857,72.654789,70.688324,30.565454,33.964103,0.103147
STILL,aom,av2,0,F1,landscape_05.y4m,4032x3024,25,8,185,0, KEY ,1,185,140334,27.246375,35.424077,36.925411,19.145642,10.419476,49.375533,47.712509,25.196611,30.830638,0.284653
STILL,aom,av2,0,F1,landscape_15.y4m,4032x3024,25,8,60,0, KEY ,1,60,2897521,49.576982,53.396131,54.009631,44.274524,30.478431,97.018686,96.300404,51.279420,50.613544,0.971157
STILL,aom,av2,0,F1,landscape_15.y4m,4032x3024,25,8,85,0, KEY ,1,85,1683922,44.422348,51.132484,51.734902,38.320229,25.441817,96.219260,95.175544,47.233143,46.415291,2.810882
STILL,aom,av2,0,F1,landscape_15.y4m,4032x3024,25,8,110,0, KEY ,1,110,869870,39.710854,48.849784,49.534311,33.858708,21.234397,93.925121,92.506456,42.584337,42.782524,3.383838
STILL,aom,av2,0,F1,landscape_15.y4m,4032x3024,25,8,135,0, KEY ,1,135,409023,35.690169,46.478316,47.424391,28.906483,17.623431,87.908637,85.948616,37.342825,39.557341,3.340410
STILL,aom,av2,0,F1,landscape_15.y4m,4032x3024,25,8,160,0, KEY ,1,160,189442,32.213205,43.783477,45.259714,24.098932,14.403343,74.375812,72.173063,32.051035,36.563543,3.379959
STILL,aom,av2,0,F1,landscape_15.y4m,4032x3024,25,8,185,0, KEY ,1,185,80931,28.828994,41.015858,42.580844,19.316669,11.364116,52.735679,50.735553,26.950804,33.625286,3.327325
STILL,aom,av2,0,F1,landscape_16.y4m,4032x3024,25,8,60,0, KEY ,1,60,1593161,50.525590,57.058187,57.950221,42.581089,29.689097,96.915128,96.092730,51.418456,52.960999,0.000003
STILL,aom,av2,0,F1,landscape_16.y4m,4032x3024,25,8,85,0, KEY ,1,85,891567,46.437675,54.861063,55.640772,36.669722,24.812145,96.070906,94.842618,46.843339,48.738545,0.000021
STILL,aom,av2,0,F1,landscape_16.y4m,4032x3024,25,8,110,0, KEY ,1,110,480352,42.303417,52.823166,53.599515,30.832701,20.262093,93.793551,91.947042,41.628681,45.121971,0.000380
STILL,aom,av2,0,F1,landscape_16.y4m,4032x3024,25,8,135,0, KEY ,1,135,238781,38.305553,50.637597,51.375829,25.529826,16.289797,86.882449,84.662564,36.562917,41.722413,0.016367
STILL,aom,av2,0,F1,landscape_16.y4m,4032x3024,25,8,160,0, KEY ,1,160,114186,34.644422,48.308426,49.286588,21.301999,13.247996,71.048418,68.804825,32.024877,38.404922,0.145463
STILL,aom,av2,0,F1,landscape_16.y4m,4032x3024,25,8,185,0, KEY ,1,185,49492,31.148407,45.383259,46.796081,16.622450,10.297107,48.298908,46.861306,27.684681,34.817135,0.594578
STILL,aom,av2,0,F1,landscape_18.y4m,4032x3024,25,8,60,0, KEY ,1,60,2637622,49.671856,54.337510,55.884291,41.071172,29.950130,96.941471,96.176676,50.350987,51.136230,1.142877
STILL,aom,av2,0,F1,landscape_18.y4m,4032x3024,25,8,85,0, KEY ,1,85,1518355,44.650647,52.247614,54.080957,35.803798,25.683269,95.962076,94.887962,47.378305,47.232069,1.290935
STILL,aom,av2,0,F1,landscape_18.y4m,4032x3024,25,8,110,0, KEY ,1,110,676998,39.554218,50.234891,52.332608,31.597381,21.099415,93.428914,91.948388,43.216831,43.455574,1.293862
STILL,aom,av2,0,F1,landscape_18.y4m,4032x3024,25,8,135,0, KEY ,1,135,263852,35.969499,48.340431,50.438615,27.405340,17.152907,86.946267,84.868865,37.839009,40.541473,1.336007
STILL,aom,av2,0,F1,landscape_18.y4m,4032x3024,25,8,160,0, KEY ,1,160,109880,33.181531,46.152356,48.170874,22.461833,14.046381,71.250389,69.117022,33.004905,38.034668,1.303412
STILL,aom,av2,0,F1,landscape_18.y4m,4032x3024,25,8,185,0, KEY ,1,185,42184,30.340387,43.577163,45.436514,17.449978,11.229859,49.335998,47.330547,28.627259,35.454498,1.672585
STILL,aom,av2,0,F1,landscape_25.y4m,4032x3024,25,8,60,0, KEY ,1,60,5138097,48.910249,49.238626,50.938237,42.208287,31.342372,96.537687,95.664079,53.108907,47.071021,0.006043
STILL,aom,av2,0,F1,landscape_25.y4m,4032x3024,25,8,85,0, KEY ,1,85,3184811,42.988313,45.778342,48.888464,36.547611,25.244405,94.947143,93.798965,48.438822,42.888985,0.006606
STILL,aom,av2,0,F1,landscape_25.y4m,4032x3024,25,8,110,0, KEY ,1,110,1590291,37.124264,44.148910,47.607218,30.438488,19.095764,91.869469,90.031101,41.879949,39.344170,0.014546
STILL,aom,av2,0,F1,landscape_25.y4m,4032x3024,25,8,135,0, KEY ,1,135,545699,32.373569,42.904176,46.451004,24.480260,13.122388,82.315113,80.190598,34.471700,35.986516,0.322203
STILL,aom,av2,0,F1,landscape_25.y4m,4032x3024,25,8,160,0, KEY ,1,160,116347,29.195833,41.761914,45.117121,18.694082,8.312460,63.953895,62.028238,28.547800,33.417674,3.569012
STILL,aom,av2,0,F1,landscape_25.y4m,4032x3024,25,8,185,0, KEY ,1,185,30961,27.827761,40.093608,43.116129,14.629747,6.544089,44.614981,43.494687,25.963414,32.017262,6.950162
STILL,aom,av2,0,F1,landscape_26.y4m,4032x3024,25,8,60,0, KEY ,1,60,3088139,49.236798,53.209209,53.335086,43.525636,29.937378,96.888030,95.988712,50.983117,50.194165,0.514600
STILL,aom,av2,0,F1,landscape_26.y4m,4032x3024,25,8,85,0, KEY ,1,85,1680956,43.817457,51.399495,51.665188,37.740090,24.708611,95.856490,94.593036,47.050944,46.034784,0.653138
STILL,aom,av2,0,F1,landscape_26.y4m,4032x3024,25,8,110,0, KEY ,1,110,751214,39.075397,49.715686,50.047496,32.728969,20.335854,93.118990,91.330068,42.367704,42.351763,0.676465
STILL,aom,av2,0,F1,landscape_26.y4m,4032x3024,25,8,135,0, KEY ,1,135,309722,35.629038,47.864868,48.317837,27.681261,16.853474,85.454951,83.254460,37.266061,39.548173,0.709161
STILL,aom,av2,0,F1,landscape_26.y4m,4032x3024,25,8,160,0, KEY ,1,160,134951,32.721836,45.727990,46.308279,22.618204,13.756311,69.512909,67.142546,32.418411,37.063212,0.727282
STILL,aom,av2,0,F1,landscape_26.y4m,4032x3024,25,8,185,0, KEY ,1,185,52687,29.647632,43.067594,43.498182,17.447446,10.528017,45.612849,43.578198,27.719956,34.313416,0.778279
STILL,aom,av2,0,F1,landscape_28.y4m,4032x3024,25,8,60,0, KEY ,1,60,3372930,49.088844,51.188106,52.978607,40.335484,29.665663,97.080581,96.490746,51.134074,50.333908,0.356967
STILL,aom,av2,0,F1,landscape_28.y4m,4032x3024,25,8,85,0, KEY ,1,85,1837071,43.716754,48.243589,50.179752,34.445467,24.054887,96.365417,95.475470,46.822519,46.461229,1.588245
STILL,aom,av2,0,F1,landscape_28.y4m,4032x3024,25,8,110,0, KEY ,1,110,916469,39.264060,45.576342,47.444208,30.340521,19.320722,94.414145,93.155062,41.449323,43.058688,4.518525
STILL,aom,av2,0,F1,landscape_28.y4m,4032x3024,25,8,135,0, KEY ,1,135,425403,35.452084,43.059600,44.917502,27.232088,16.562226,89.206006,87.377660,36.983092,40.030286,9.781745
STILL,aom,av2,0,F1,landscape_28.y4m,4032x3024,25,8,160,0, KEY ,1,160,195010,32.117717,40.688877,42.625185,23.835294,14.518098,77.061834,74.784668,32.360941,37.210089,10.102017
STILL,aom,av2,0,F1,landscape_28.y4m,4032x3024,25,8,185,0, KEY ,1,185,85184,28.865392,38.362258,39.972697,18.559534,11.947629,56.097334,54.020565,27.316290,34.372827,8.706742
STILL,aom,av2,0,F1,lodge.y4m,6000x4000,25,8,60,0, KEY ,1,60,6876124,48.826746,51.251383,51.646426,45.695815,29.933723,96.589231,95.617679,51.421892,49.628766,0.000012
STILL,aom,av2,0,F1,lodge.y4m,6000x4000,25,8,85,0, KEY ,1,85,3707267,43.687206,47.685739,48.502487,39.779752,24.514295,95.036568,93.748662,47.027069,44.938508,0.009910
STILL,aom,av2,0,F1,lodge.y4m,6000x4000,25,8,110,0, KEY ,1,110,1753863,39.287896,44.258741,45.655017,34.393189,19.863402,91.445818,89.796945,41.880073,41.029294,0.394033
STILL,aom,av2,0,F1,lodge.y4m,6000x4000,25,8,135,0, KEY ,1,135,835352,35.652145,41.181003,42.924240,28.953220,16.524266,82.680586,80.672479,36.550902,37.896717,0.756672
STILL,aom,av2,0,F1,lodge.y4m,6000x4000,25,8,160,0, KEY ,1,160,361503,31.962436,38.390909,40.490629,23.450793,13.073740,63.058463,61.171601,30.931606,34.814779,1.030181
STILL,aom,av2,0,F1,lodge.y4m,6000x4000,25,8,185,0, KEY ,1,185,124882,28.494299,35.978660,38.545865,18.005425,9.647130,33.825026,32.490754,25.843477,31.865779,1.201655
STILL,aom,av2,0,F1,party.y4m,6720x4480,25,8,60,0, KEY ,1,60,5099909,48.759134,56.889876,57.177909,44.891210,27.463607,96.769791,96.126852,49.696389,50.696219,0.000018
STILL,aom,av2,0,F1,party.y4m,6720x4480,25,8,85,0, KEY ,1,85,1409910,43.407763,55.263852,55.579842,38.337848,21.175185,96.343430,95.452768,44.587437,45.517341,0.435499
STILL,aom,av2,0,F1,party.y4m,6720x4480,25,8,110,0, KEY ,1,110,236815,41.117793,53.336891,53.695380,32.117562,17.967387,94.920456,93.650831,41.087619,43.224881,7.191711
STILL,aom,av2,0,F1,party.y4m,6720x4480,25,8,135,0, KEY ,1,135,90382,40.226157,51.032888,51.492367,27.349582,16.827970,91.061354,89.371039,39.437766,42.311581,9.436607
STILL,aom,av2,0,F1,party.y4m,6720x4480,25,8,160,0, KEY ,1,160,42792,39.140151,47.801926,48.205312,23.428903,15.990930,82.580097,80.590414,37.643213,41.008244,10.314844
STILL,aom,av2,0,F1,party.y4m,6720x4480,25,8,185,0, KEY ,1,185,20027,37.426644,43.815250,44.864684,19.988913,14.919822,67.869096,65.772968,34.947290,39.154087,10.585569
STILL,aom,av2,0,F1,river.y4m,5184x3456,25,8,60,0, KEY ,1,60,2584085,48.799821,53.098735,53.821943,46.358882,28.192128,95.823906,94.821049,50.025618,48.520582,0.000034
STILL,aom,av2,0,F1,river.y4m,5184x3456,25,8,85,0, KEY ,1,85,702357,44.349284,50.421225,51.573801,40.074992,22.543816,93.963159,92.482875,45.181792,44.669567,0.177758
STILL,aom,av2,0,F1,river.y4m,5184x3456,25,8,110,0, KEY ,1,110,283527,42.729762,47.710886,49.395277,33.974153,20.171896,90.067457,88.144165,41.817011,42.902442,0.448365
STILL,aom,av2,0,F1,river.y4m,5184x3456,25,8,135,0, KEY ,1,135,139203,40.863088,44.761500,47.305153,28.309693,17.964060,81.292350,79.150577,38.378217,41.047242,0.715510
STILL,aom,av2,0,F1,river.y4m,5184x3456,25,8,160,0, KEY ,1,160,67264,38.271787,41.919460,45.128578,23.204968,15.418678,64.489175,62.572768,34.659518,38.754701,0.888360
STILL,aom,av2,0,F1,river.y4m,5184x3456,25,8,185,0, KEY ,1,185,30150,35.138567,39.155240,43.396891,18.482798,12.611132,40.683111,39.286684,30.937513,36.130113,1.002779
STILL,aom,av2,0,F1,santa.y4m,5616x3744,25,8,60,0, KEY ,1,60,2669724,48.932464,54.092155,53.493826,45.657551,27.829716,96.288929,95.422249,49.527927,51.248489,0.304235
STILL,aom,av2,0,F1,santa.y4m,5616x3744,25,8,85,0, KEY ,1,85,687307,44.664258,51.956572,51.354412,38.998204,22.537085,94.689041,93.514897,45.083963,47.225784,2.460114
STILL,aom,av2,0,F1,santa.y4m,5616x3744,25,8,110,0, KEY ,1,110,258925,43.090817,49.930118,49.071529,34.231790,20.562249,90.899448,89.396858,42.486001,45.504639,3.050632
STILL,aom,av2,0,F1,santa.y4m,5616x3744,25,8,135,0, KEY ,1,135,125248,41.430217,47.491026,46.330191,29.461035,18.628782,83.081461,81.175289,39.545650,43.704103,3.063208
STILL,aom,av2,0,F1,santa.y4m,5616x3744,25,8,160,0, KEY ,1,160,59264,39.164117,44.534975,43.151663,24.348573,16.245731,68.003772,65.788939,36.109414,41.311814,3.167027
STILL,aom,av2,0,F1,santa.y4m,5616x3744,25,8,185,0, KEY ,1,185,27364,36.498604,41.095234,39.710303,19.422541,13.751755,45.225473,42.997678,32.627744,38.387946,3.315960
STILL,aom,av2,0,F1,seafood.y4m,5184x3456,25,8,60,0, KEY ,1,60,4630022,48.726985,52.547792,52.676245,47.949676,29.798367,96.633322,95.801205,51.672988,49.082073,0.000000
STILL,aom,av2,0,F1,seafood.y4m,5184x3456,25,8,85,0, KEY ,1,85,2122262,43.130105,49.572231,49.890803,41.543126,23.539489,95.296263,94.110736,46.470834,44.437255,0.086591
STILL,aom,av2,0,F1,seafood.y4m,5184x3456,25,8,110,0, KEY ,1,110,746735,39.290911,46.684615,47.115929,35.401438,19.032459,92.090825,90.506030,41.137402,41.075045,1.137760
STILL,aom,av2,0,F1,seafood.y4m,5184x3456,25,8,135,0, KEY ,1,135,345423,36.859466,43.769925,44.280105,30.254311,16.842575,84.633185,82.625144,36.940955,38.789151,1.338081
STILL,aom,av2,0,F1,seafood.y4m,5184x3456,25,8,160,0, KEY ,1,160,157642,34.066301,40.962593,41.507453,25.085078,14.182418,69.112193,66.894878,32.236957,36.317085,1.356033
STILL,aom,av2,0,F1,seafood.y4m,5184x3456,25,8,185,0, KEY ,1,185,65116,31.025784,38.200985,38.612124,19.859238,11.177648,44.233613,42.462703,27.775389,33.593692,1.403437
STILL,aom,av2,0,F1,snow_00.y4m,4032x3024,25,8,60,0, KEY ,1,60,3772418,48.760196,53.606250,54.206670,43.871315,29.317656,96.879779,96.110292,51.959187,50.626401,0.000000
STILL,aom,av2,0,F1,snow_00.y4m,4032x3024,25,8,85,0, KEY ,1,85,2037918,42.843283,50.914450,51.656766,37.551924,22.995619,96.060354,94.997448,46.602132,45.773473,0.000007
STILL,aom,av2,0,F1,snow_00.y4m,4032x3024,25,8,110,0, KEY ,1,110,732335,37.667921,48.860876,49.713308,31.415758,16.887606,93.881340,92.460312,40.145249,41.607509,0.000263
STILL,aom,av2,0,F1,snow_00.y4m,4032x3024,25,8,135,0, KEY ,1,135,225121,34.874708,46.957852,48.018251,26.770067,13.981771,87.628716,85.762159,36.078817,39.223410,0.033279
STILL,aom,av2,0,F1,snow_00.y4m,4032x3024,25,8,160,0, KEY ,1,160,102809,33.011139,44.900919,46.220472,22.323343,12.575040,73.779250,71.928419,32.739651,37.569103,0.049395
STILL,aom,av2,0,F1,snow_00.y4m,4032x3024,25,8,185,0, KEY ,1,185,46087,30.651216,42.424087,44.294191,17.787500,10.856338,52.888461,51.277829,28.791355,35.569811,0.063637
STILL,aom,av2,0,F1,trees.y4m,4928x3264,25,8,60,0, KEY ,1,60,3445369,49.154002,52.494340,52.505318,47.115023,31.365865,96.846669,96.076835,52.704532,48.127080,0.000269
STILL,aom,av2,0,F1,trees.y4m,4928x3264,25,8,85,0, KEY ,1,85,1819036,44.703889,49.439480,49.432508,41.168319,26.275719,95.974831,94.676295,47.904369,44.340623,0.001544
STILL,aom,av2,0,F1,trees.y4m,4928x3264,25,8,110,0, KEY ,1,110,955206,40.859185,46.301312,46.513166,35.170646,21.620967,93.302945,91.409832,42.139688,41.111368,0.005443
STILL,aom,av2,0,F1,trees.y4m,4928x3264,25,8,135,0, KEY ,1,135,492996,37.016192,43.147839,43.877023,28.991221,17.119372,85.836259,83.591366,36.213810,37.894283,0.024927
STILL,aom,av2,0,F1,trees.y4m,4928x3264,25,8,160,0, KEY ,1,160,237828,33.161794,40.245631,41.791589,22.832383,12.987254,69.215225,67.077497,30.798620,34.690107,0.097995
STILL,aom,av2,0,F1,trees.y4m,4928x3264,25,8,185,0, KEY ,1,185,101547,29.415051,37.702293,40.061209,16.924867,9.472725,45.532332,43.989333,26.056322,31.673172,0.480238
STILL,aom,av2,0,F1,underwater_01.y4m,4032x3024,25,8,60,0, KEY ,1,60,3572057,48.757591,50.734458,51.438729,48.233194,31.263965,96.568007,95.704101,53.256667,48.876457,0.000844
STILL,aom,av2,0,F1,underwater_01.y4m,4032x3024,25,8,85,0, KEY ,1,85,1759853,43.003477,47.985569,48.843019,42.139960,25.209850,94.812597,93.741174,47.787836,44.411365,0.012556
STILL,aom,av2,0,F1,underwater_01.y4m,4032x3024,25,8,110,0, KEY ,1,110,696554,38.743250,45.032346,46.084095,35.842385,20.364459,91.102243,89.529570,41.309361,40.775483,0.024353
STILL,aom,av2,0,F1,underwater_01.y4m,4032x3024,25,8,135,0, KEY ,1,135,300465,35.973305,41.656956,43.103732,29.728628,17.014241,81.707546,79.814859,35.775478,38.055706,0.040453
STILL,aom,av2,0,F1,underwater_01.y4m,4032x3024,25,8,160,0, KEY ,1,160,143829,33.387703,38.063529,39.883607,23.708028,13.767068,62.201772,60.523688,30.961367,35.359204,0.065834
STILL,aom,av2,0,F1,underwater_01.y4m,4032x3024,25,8,185,0, KEY ,1,185,62779,30.293988,34.438751,36.839260,17.737752,10.256800,34.405729,33.371579,26.481133,32.330637,0.176071
STILL,aom,av2,0,F2,Adventure_with_the_Windmills.y4m,896x1110,24,8,60,0, KEY ,1,60,581677,48.974895,52.098342,53.282322,39.694474,36.915647,97.065545,96.211591,53.984670,47.968861,0.003050
STILL,aom,av2,0,F2,Adventure_with_the_Windmills.y4m,896x1110,24,8,85,0, KEY ,1,85,440948,43.214880,51.558766,52.406310,33.633647,31.195916,96.173823,94.948802,51.654524,44.538853,0.001737
STILL,aom,av2,0,F2,Adventure_with_the_Windmills.y4m,896x1110,24,8,110,0, KEY ,1,110,313555,37.251291,50.303335,51.292385,27.355774,25.028197,93.744989,92.142944,46.541455,39.948248,0.013177
STILL,aom,av2,0,F2,Adventure_with_the_Windmills.y4m,896x1110,24,8,135,0, KEY ,1,135,199086,31.433088,48.291319,50.530906,21.102991,19.010516,87.029880,85.169728,38.433112,34.856657,0.001180
STILL,aom,av2,0,F2,Adventure_with_the_Windmills.y4m,896x1110,24,8,160,0, KEY ,1,160,102011,25.784697,47.983061,49.906755,15.118085,13.485091,70.898653,68.844120,30.305655,29.801005,0.002075
STILL,aom,av2,0,F2,Adventure_with_the_Windmills.y4m,896x1110,24,8,185,0, KEY ,1,185,30945,20.719156,43.650069,47.467613,10.089885,8.593142,41.129708,39.785206,23.205197,24.643788,0.000860
STILL,aom,av2,0,F2,Agapanthus_Postbloom2.y4m,1208x948,24,8,60,0, KEY ,1,60,143382,49.501428,50.413208,50.168558,34.216043,29.988165,96.978521,96.316546,50.180038,48.376460,2.740156
STILL,aom,av2,0,F2,Agapanthus_Postbloom2.y4m,1208x948,24,8,85,0, KEY ,1,85,75387,46.749713,47.639050,48.471893,30.559279,27.566808,95.882352,94.885994,47.593808,45.853590,3.537524
STILL,aom,av2,0,F2,Agapanthus_Postbloom2.y4m,1208x948,24,8,110,0, KEY ,1,110,43245,43.696651,44.476301,46.693496,27.071414,25.074441,93.365456,91.992137,44.137928,43.250534,3.367048
STILL,aom,av2,0,F2,Agapanthus_Postbloom2.y4m,1208x948,24,8,135,0, KEY ,1,135,24240,39.922205,41.041093,44.557793,22.930231,21.764276,87.230390,85.273400,39.284812,40.172445,3.169537
STILL,aom,av2,0,F2,Agapanthus_Postbloom2.y4m,1208x948,24,8,160,0, KEY ,1,160,13042,35.902996,37.436697,42.257857,18.674370,18.091513,74.217959,71.986696,34.024515,36.644917,2.927541
STILL,aom,av2,0,F2,Agapanthus_Postbloom2.y4m,1208x948,24,8,185,0, KEY ,1,185,6468,31.727075,33.593236,39.783623,14.258518,14.149358,52.854570,50.142156,28.607108,32.970592,2.465390
STILL,aom,av2,0,F2,Baruch.y4m,968x1188,24,8,60,0, KEY ,1,60,637931,48.958854,51.866500,53.231085,37.794271,37.170554,96.977337,95.923580,53.334565,47.284920,0.000021
STILL,aom,av2,0,F2,Baruch.y4m,968x1188,24,8,85,0, KEY ,1,85,481235,43.312776,51.249177,52.634613,31.884904,31.948211,95.835833,94.390732,51.502228,44.088035,0.000187
STILL,aom,av2,0,F2,Baruch.y4m,968x1188,24,8,110,0, KEY ,1,110,340506,37.397496,50.716308,52.072392,26.027547,26.192000,93.539080,91.305217,47.775326,39.968612,0.000052
STILL,aom,av2,0,F2,Baruch.y4m,968x1188,24,8,135,0, KEY ,1,135,213994,31.626938,50.092824,51.096439,19.965352,20.130684,85.779115,83.148386,39.941871,35.203061,0.000030
STILL,aom,av2,0,F2,Baruch.y4m,968x1188,24,8,160,0, KEY ,1,160,109249,26.035598,49.860874,50.735089,13.962720,14.259541,67.798277,65.085522,31.142604,30.184600,0.000000
STILL,aom,av2,0,F2,Baruch.y4m,968x1188,24,8,185,0, KEY ,1,185,34742,21.119023,47.782611,49.026188,8.528959,8.786753,41.165023,39.218053,23.624209,25.346005,0.000006
STILL,aom,av2,0,F2,Berlin-Fernsehturm.y4m,1290x856,24,8,60,0, KEY ,1,60,113434,50.001622,51.234285,50.845211,29.273096,28.406196,96.855895,96.008242,48.655606,46.623197,1.879568
STILL,aom,av2,0,F2,Berlin-Fernsehturm.y4m,1290x856,24,8,85,0, KEY ,1,85,54320,46.923923,49.680273,48.728207,24.855829,24.838139,95.464824,94.385255,45.893697,44.710432,7.488226
STILL,aom,av2,0,F2,Berlin-Fernsehturm.y4m,1290x856,24,8,110,0, KEY ,1,110,27199,43.724439,48.012888,46.597079,21.460819,21.766479,92.598045,91.045803,42.908741,43.024975,8.414859
STILL,aom,av2,0,F2,Berlin-Fernsehturm.y4m,1290x856,24,8,135,0, KEY ,1,135,12872,40.279614,45.842251,44.232181,18.339684,18.758351,85.677650,83.713041,39.201906,41.047656,8.981863
STILL,aom,av2,0,F2,Berlin-Fernsehturm.y4m,1290x856,24,8,160,0, KEY ,1,160,5649,36.825014,43.368137,41.910576,15.257230,15.800560,71.961180,69.499861,35.175432,38.825356,7.790687
STILL,aom,av2,0,F2,Berlin-Fernsehturm.y4m,1290x856,24,8,185,0, KEY ,1,185,2161,33.557214,40.438009,39.542687,12.175446,12.806179,48.297857,46.600804,31.013644,36.097241,8.632974
STILL,aom,av2,0,F2,Big_Easy_chair.y4m,1196x1008,24,8,60,0, KEY ,1,60,124206,49.111047,48.675967,49.052906,32.165883,27.969147,96.868481,96.067575,48.759070,47.421732,0.006635
STILL,aom,av2,0,F2,Big_Easy_chair.y4m,1196x1008,24,8,85,0, KEY ,1,85,25942,46.137467,46.324213,47.486195,26.037826,23.468375,96.048346,94.867860,44.808934,44.892551,2.260960
STILL,aom,av2,0,F2,Big_Easy_chair.y4m,1196x1008,24,8,110,0, KEY ,1,110,10676,44.704929,45.585447,46.788270,22.590432,21.334275,93.732130,92.142802,42.516853,43.885977,4.572162
STILL,aom,av2,0,F2,Big_Easy_chair.y4m,1196x1008,24,8,135,0, KEY ,1,135,5436,43.086890,44.472959,45.695214,20.171044,19.638468,88.842063,86.818309,40.344788,42.728262,5.148049
STILL,aom,av2,0,F2,Big_Easy_chair.y4m,1196x1008,24,8,160,0, KEY ,1,160,2952,40.795318,42.706800,44.055246,17.677787,17.684027,80.379676,77.259833,37.509541,41.010323,5.644953
STILL,aom,av2,0,F2,Big_Easy_chair.y4m,1196x1008,24,8,185,0, KEY ,1,185,1573,37.694531,40.163405,41.290209,14.989985,15.304208,63.980136,60.489337,33.869003,38.460796,5.585454
STILL,aom,av2,0,F2,Butterfly.y4m,1420x918,24,8,60,0, KEY ,1,60,224903,49.098322,49.156981,50.521276,31.865768,28.085550,96.878088,96.147481,48.890722,45.879238,0.853555
STILL,aom,av2,0,F2,Butterfly.y4m,1420x918,24,8,85,0, KEY ,1,85,73921,44.501482,46.196828,48.057570,26.709946,23.404852,96.053048,94.973371,45.532452,42.981670,11.489723
STILL,aom,av2,0,F2,Butterfly.y4m,1420x918,24,8,110,0, KEY ,1,110,25209,41.969074,44.643524,46.200005,23.200747,20.482461,93.630417,92.103794,42.268645,41.483871,11.522618
STILL,aom,av2,0,F2,Butterfly.y4m,1420x918,24,8,135,0, KEY ,1,135,11437,40.132046,42.839879,44.064783,20.948625,19.039848,88.183760,86.116560,39.643047,40.317747,11.522394
STILL,aom,av2,0,F2,Butterfly.y4m,1420x918,24,8,160,0, KEY ,1,160,5761,37.991327,40.843296,41.773517,18.706979,17.521473,77.245814,75.033248,36.352490,38.773960,10.248654
STILL,aom,av2,0,F2,Butterfly.y4m,1420x918,24,8,185,0, KEY ,1,185,2904,35.021829,38.083063,39.233539,15.873593,15.315628,58.054017,55.631461,31.981406,36.666951,9.144418
STILL,aom,av2,0,F2,Cecret_Lake_Panorama.y4m,1586x752,24,8,60,0, KEY ,1,60,573009,49.541430,49.544832,49.427857,34.049128,32.822777,96.875352,95.991749,52.896370,47.012743,0.012867
STILL,aom,av2,0,F2,Cecret_Lake_Panorama.y4m,1586x752,24,8,85,0, KEY ,1,85,388045,44.029758,44.900813,45.065649,28.757728,27.999479,95.766616,94.542312,48.837096,42.282743,0.028201
STILL,aom,av2,0,F2,Cecret_Lake_Panorama.y4m,1586x752,24,8,110,0, KEY ,1,110,246581,38.307272,41.332419,42.294006,23.792188,23.315138,92.622598,91.183247,43.544109,38.158034,0.067346
STILL,aom,av2,0,F2,Cecret_Lake_Panorama.y4m,1586x752,24,8,135,0, KEY ,1,135,132366,32.401329,38.834050,40.275440,18.693163,18.352856,84.595900,82.860525,36.968298,33.978378,0.079013
STILL,aom,av2,0,F2,Cecret_Lake_Panorama.y4m,1586x752,24,8,160,0, KEY ,1,160,45273,27.180527,36.877514,38.445605,13.528494,13.225892,66.295711,64.455819,29.962824,29.983540,0.075753
STILL,aom,av2,0,F2,Cecret_Lake_Panorama.y4m,1586x752,24,8,185,0, KEY ,1,185,11996,24.110415,34.620378,36.624571,8.810929,8.930724,35.994714,34.495866,23.883966,27.115283,0.158837
STILL,aom,av2,0,F2,Claudette.y4m,900x1100,24,8,60,0, KEY ,1,60,418875,49.264467,50.164556,50.423087,37.047607,32.739003,96.715699,95.798429,53.071690,45.766674,0.020240
STILL,aom,av2,0,F2,Claudette.y4m,900x1100,24,8,85,0, KEY ,1,85,281851,43.514768,48.254791,48.696258,30.894282,27.103198,95.355454,94.036470,48.829022,42.493308,0.099769
STILL,aom,av2,0,F2,Claudette.y4m,900x1100,24,8,110,0, KEY ,1,110,171349,37.878676,46.648019,47.292463,24.902561,21.579995,91.435022,89.933031,42.882544,38.872671,0.126279
STILL,aom,av2,0,F2,Claudette.y4m,900x1100,24,8,135,0, KEY ,1,135,87902,32.564779,44.862093,45.766999,19.152473,16.522055,81.475670,79.826386,36.077565,34.810414,0.148525
STILL,aom,av2,0,F2,Claudette.y4m,900x1100,24,8,160,0, KEY ,1,160,28715,27.738609,42.224709,43.866927,13.937529,11.869139,60.238195,58.509021,29.578250,30.747839,0.180076
STILL,aom,av2,0,F2,Claudette.y4m,900x1100,24,8,185,0, KEY ,1,185,7390,24.942281,40.392750,41.971940,9.260681,8.031870,29.593552,28.395303,24.160163,28.110745,0.820425
STILL,aom,av2,0,F2,Collage_Oppeln.y4m,904x1280,24,8,60,0, KEY ,1,60,342298,49.532360,49.802854,50.375543,36.180162,31.848076,97.001732,96.295480,51.716384,46.924950,0.026151
STILL,aom,av2,0,F2,Collage_Oppeln.y4m,904x1280,24,8,85,0, KEY ,1,85,207769,44.619878,46.296717,47.175586,31.305633,27.659297,96.138998,95.103910,48.271791,43.133549,0.099344
STILL,aom,av2,0,F2,Collage_Oppeln.y4m,904x1280,24,8,110,0, KEY ,1,110,118766,39.689313,43.262050,44.224736,26.460578,23.367339,93.828118,92.377003,43.403892,39.758792,0.137096
STILL,aom,av2,0,F2,Collage_Oppeln.y4m,904x1280,24,8,135,0, KEY ,1,135,60297,34.967480,40.488791,41.373540,21.597605,19.054307,87.937084,86.061541,37.446686,36.391387,0.178368
STILL,aom,av2,0,F2,Collage_Oppeln.y4m,904x1280,24,8,160,0, KEY ,1,160,26835,30.751958,37.938523,38.780046,16.918764,15.006568,74.337873,72.216360,31.495331,33.159239,0.185934
STILL,aom,av2,0,F2,Collage_Oppeln.y4m,904x1280,24,8,185,0, KEY ,1,185,10225,27.096380,35.355080,36.148023,12.399627,11.174766,51.884998,49.787722,25.903749,30.017298,0.131793
STILL,aom,av2,0,F2,Corona_Arch.y4m,1272x922,24,8,60,0, KEY ,1,60,379960,49.137309,49.188789,49.538308,33.744413,29.774579,96.784168,95.848956,50.858824,50.354851,0.000117
STILL,aom,av2,0,F2,Corona_Arch.y4m,1272x922,24,8,85,0, KEY ,1,85,201622,43.711597,46.698178,45.601213,27.411754,24.195525,95.649188,94.379253,46.360565,45.580732,1.948158
STILL,aom,av2,0,F2,Corona_Arch.y4m,1272x922,24,8,110,0, KEY ,1,110,102081,39.060936,44.820147,42.219160,23.552652,20.818898,92.383861,90.741000,42.575517,42.002726,5.239957
STILL,aom,av2,0,F2,Corona_Arch.y4m,1272x922,24,8,135,0, KEY ,1,135,41891,34.761491,42.799666,39.428069,19.636808,17.023767,83.855691,82.041279,36.970999,38.754876,5.469143
STILL,aom,av2,0,F2,Corona_Arch.y4m,1272x922,24,8,160,0, KEY ,1,160,14914,31.408284,40.304642,36.981608,15.216109,13.252456,65.878746,63.921801,31.282022,36.035749,5.431439
STILL,aom,av2,0,F2,Corona_Arch.y4m,1272x922,24,8,185,0, KEY ,1,185,4875,28.792870,37.422557,34.027015,11.100129,10.039199,37.804276,36.399120,26.703435,33.620967,5.699711
STILL,aom,av2,0,F2,Correfocs_Festa_Major_del_Clot.y4m,1306x870,24,8,60,0, KEY ,1,60,243810,49.203377,50.077450,49.760030,30.906704,29.422241,96.609350,95.641608,50.456177,49.241221,0.302879
STILL,aom,av2,0,F2,Correfocs_Festa_Major_del_Clot.y4m,1306x870,24,8,85,0, KEY ,1,85,124259,44.994129,47.439564,46.374087,25.555332,24.838230,94.819862,93.579860,46.432635,45.733055,1.418716
STILL,aom,av2,0,F2,Correfocs_Festa_Major_del_Clot.y4m,1306x870,24,8,110,0, KEY ,1,110,67289,41.313882,45.052295,43.256830,21.411492,21.272350,90.605984,88.995491,42.274581,42.878006,1.731119
STILL,aom,av2,0,F2,Correfocs_Festa_Major_del_Clot.y4m,1306x870,24,8,135,0, KEY ,1,135,35021,37.323781,42.895348,40.177074,17.305973,17.591042,81.898268,79.637137,37.460891,39.896579,1.846215
STILL,aom,av2,0,F2,Correfocs_Festa_Major_del_Clot.y4m,1306x870,24,8,160,0, KEY ,1,160,15598,33.224733,40.426023,36.995378,13.087980,13.690840,63.469083,61.295090,32.284166,36.704016,1.456235
STILL,aom,av2,0,F2,Correfocs_Festa_Major_del_Clot.y4m,1306x870,24,8,185,0, KEY ,1,185,4596,29.157280,37.807239,33.624412,8.544135,9.405653,34.431953,33.084398,27.005927,33.411211,1.872483
STILL,aom,av2,0,F2,Crepuscular_rays_at_Sunset_near_Waterberg_Plateau.y4m,1402x934,24,8,60,0, KEY ,1,60,404878,49.395132,49.692728,49.731947,34.551210,30.490587,96.135612,94.934520,51.917911,47.512848,0.179727
STILL,aom,av2,0,F2,Crepuscular_rays_at_Sunset_near_Waterberg_Plateau.y4m,1402x934,24,8,85,0, KEY ,1,85,237274,44.366851,46.381577,46.237211,28.958512,25.716375,93.739815,92.220969,47.725762,43.486643,0.460387
STILL,aom,av2,0,F2,Crepuscular_rays_at_Sunset_near_Waterberg_Plateau.y4m,1402x934,24,8,110,0, KEY ,1,110,120169,38.999746,43.859434,43.522053,23.437520,20.609846,87.853945,86.195159,42.133727,39.810641,0.495354
STILL,aom,av2,0,F2,Crepuscular_rays_at_Sunset_near_Waterberg_Plateau.y4m,1402x934,24,8,135,0, KEY ,1,135,40766,34.188919,41.615386,41.074079,17.648798,15.216762,74.262580,72.461952,35.675815,36.285032,0.578796
STILL,aom,av2,0,F2,Crepuscular_rays_at_Sunset_near_Waterberg_Plateau.y4m,1402x934,24,8,160,0, KEY ,1,160,10624,31.209979,39.300271,38.843131,12.500397,11.005957,47.436839,45.713770,30.477740,33.660548,0.609719
STILL,aom,av2,0,F2,Crepuscular_rays_at_Sunset_near_Waterberg_Plateau.y4m,1402x934,24,8,185,0, KEY ,1,185,3114,29.433740,36.636183,36.270078,8.710983,8.258688,15.951744,15.277439,27.051795,31.596890,1.171009
STILL,aom,av2,0,F2,Esquibien_Jean_Perrot.y4m,818x1228,24,8,60,0, KEY ,1,60,387987,49.290436,50.271014,50.371443,32.533049,31.363733,96.917042,96.089029,51.814047,46.811708,0.558507
STILL,aom,av2,0,F2,Esquibien_Jean_Perrot.y4m,818x1228,24,8,85,0, KEY ,1,85,245399,43.687517,47.779850,47.696371,26.873794,26.056093,96.031356,94.823522,47.941634,43.190750,0.787055
STILL,aom,av2,0,F2,Esquibien_Jean_Perrot.y4m,818x1228,24,8,110,0, KEY ,1,110,137426,37.916372,46.272012,46.124347,21.986485,21.135704,93.320736,91.758600,42.984631,39.519476,0.670516
STILL,aom,av2,0,F2,Esquibien_Jean_Perrot.y4m,818x1228,24,8,135,0, KEY ,1,135,51967,32.587415,44.759146,44.529622,16.310584,15.502507,86.799318,84.712331,36.209045,35.526491,0.438400
STILL,aom,av2,0,F2,Esquibien_Jean_Perrot.y4m,818x1228,24,8,160,0, KEY ,1,160,15792,29.400433,42.868262,42.819762,11.786280,11.456938,71.542484,69.169696,30.287861,32.751010,0.419773
STILL,aom,av2,0,F2,Esquibien_Jean_Perrot.y4m,818x1228,24,8,185,0, KEY ,1,185,5948,27.347921,40.343101,40.434005,9.244678,9.427161,50.961134,48.225140,26.416308,30.763434,0.915644
STILL,aom,av2,0,F2,Florac-Le_Vibron-Source_du_Pecher.y4m,1080x874,24,8,60,0, KEY ,1,60,478152,49.319522,48.680092,48.618996,34.240715,32.936688,96.963179,96.194570,53.555224,45.497356,0.004052
STILL,aom,av2,0,F2,Florac-Le_Vibron-Source_du_Pecher.y4m,1080x874,24,8,85,0, KEY ,1,85,299217,43.311167,44.140434,43.854021,28.291489,27.132512,96.045970,94.890643,48.738974,40.693493,0.240935
STILL,aom,av2,0,F2,Florac-Le_Vibron-Source_du_Pecher.y4m,1080x874,24,8,110,0, KEY ,1,110,168706,37.509497,41.248274,41.183317,22.364018,21.347167,93.293478,91.859460,42.634726,37.159058,0.363341
STILL,aom,av2,0,F2,Florac-Le_Vibron-Source_du_Pecher.y4m,1080x874,24,8,135,0, KEY ,1,135,82417,32.421441,39.253886,39.526215,16.913839,16.360684,86.328603,84.289133,35.980154,33.806271,0.524742
STILL,aom,av2,0,F2,Florac-Le_Vibron-Source_du_Pecher.y4m,1080x874,24,8,160,0, KEY ,1,160,31218,28.048822,37.428186,38.060307,11.943497,11.844241,69.985448,67.739967,29.631345,30.588504,0.434062
STILL,aom,av2,0,F2,Florac-Le_Vibron-Source_du_Pecher.y4m,1080x874,24,8,185,0, KEY ,1,185,9040,24.834351,35.177700,36.356744,7.827423,8.220001,43.890205,42.354950,24.382778,28.002336,0.780441
STILL,aom,av2,0,F2,Fontaine_Place_Stanislas.y4m,1390x820,24,8,60,0, KEY ,1,60,287677,49.602963,49.187950,50.543047,31.174760,30.134887,96.975592,96.197862,50.466027,46.023489,5.642206
STILL,aom,av2,0,F2,Fontaine_Place_Stanislas.y4m,1390x820,24,8,85,0, KEY ,1,85,170229,45.007774,46.143943,47.840436,27.036996,26.181687,95.874734,94.775161,47.508131,43.072055,6.573001
STILL,aom,av2,0,F2,Fontaine_Place_Stanislas.y4m,1390x820,24,8,110,0, KEY ,1,110,97105,40.416849,43.229155,45.608540,22.482094,22.052596,92.921535,91.472521,43.036012,40.336034,6.626773
STILL,aom,av2,0,F2,Fontaine_Place_Stanislas.y4m,1390x820,24,8,135,0, KEY ,1,135,51334,35.853521,40.687565,43.706218,18.053938,18.114768,85.896202,83.996167,37.840369,37.513985,6.924648
STILL,aom,av2,0,F2,Fontaine_Place_Stanislas.y4m,1390x820,24,8,160,0, KEY ,1,160,22327,31.368192,38.364857,41.737330,14.338903,14.614774,70.596820,68.521958,32.421295,34.454845,7.143877
STILL,aom,av2,0,F2,Fontaine_Place_Stanislas.y4m,1390x820,24,8,185,0, KEY ,1,185,7398,27.662571,35.806088,39.018157,10.703401,11.179548,45.756790,43.966272,26.855289,31.487623,6.439440
STILL,aom,av2,0,F2,Genmaicha_Tea.y4m,1260x840,24,8,60,0, KEY ,1,60,103040,50.495399,51.959587,51.737241,31.440934,30.759385,96.968720,96.254349,48.389323,49.524018,0.000167
STILL,aom,av2,0,F2,Genmaicha_Tea.y4m,1260x840,24,8,85,0, KEY ,1,85,59627,47.789964,50.032968,49.736536,29.243636,28.862831,96.173015,95.168809,47.231499,47.720327,0.001487
STILL,aom,av2,0,F2,Genmaicha_Tea.y4m,1260x840,24,8,110,0, KEY ,1,110,35005,44.082147,48.119722,47.779215,26.842653,26.693593,93.925044,92.631837,45.466063,45.896904,0.001706
STILL,aom,av2,0,F2,Genmaicha_Tea.y4m,1260x840,24,8,135,0, KEY ,1,135,18701,39.806028,45.985389,45.585361,23.919556,23.899404,89.293415,87.399096,41.739216,43.638664,0.001872
STILL,aom,av2,0,F2,Genmaicha_Tea.y4m,1260x840,24,8,160,0, KEY ,1,160,8758,35.609443,43.795452,42.862055,20.506252,20.565250,78.156532,76.013922,36.239966,40.997490,0.007362
STILL,aom,av2,0,F2,Genmaicha_Tea.y4m,1260x840,24,8,185,0, KEY ,1,185,3600,31.847431,40.646078,40.017668,16.662849,16.823824,58.158705,55.530033,30.565732,37.475317,0.000507
STILL,aom,av2,0,F2,Homestead_in_Montana.y4m,1326x826,24,8,60,0, KEY ,1,60,212842,49.333877,49.848513,50.258193,31.524332,30.157344,96.760500,95.835263,50.984316,49.006341,0.203556
STILL,aom,av2,0,F2,Homestead_in_Montana.y4m,1326x826,24,8,85,0, KEY ,1,85,113273,45.594545,46.662862,46.526032,27.939356,26.984587,95.611351,94.217022,47.983606,45.652429,0.514099
STILL,aom,av2,0,F2,Homestead_in_Montana.y4m,1326x826,24,8,110,0, KEY ,1,110,60272,41.716224,43.688854,43.084957,23.956221,23.476846,92.474731,90.613540,43.288195,42.573653,0.545652
STILL,aom,av2,0,F2,Homestead_in_Montana.y4m,1326x826,24,8,135,0, KEY ,1,135,29812,37.674964,40.688430,39.945094,19.342401,19.432758,84.755697,82.374964,37.427947,39.423910,0.516959
STILL,aom,av2,0,F2,Homestead_in_Montana.y4m,1326x826,24,8,160,0, KEY ,1,160,13962,33.885126,37.838080,36.932633,14.889143,15.431290,68.139232,65.624980,31.813393,36.217119,0.709084
STILL,aom,av2,0,F2,Homestead_in_Montana.y4m,1326x826,24,8,185,0, KEY ,1,185,5779,30.301004,34.898794,33.699676,10.740064,11.558930,41.404496,39.470610,26.830425,32.998413,0.915320
STILL,aom,av2,0,F2,Madeira_151_Funchal_Mercado_dos_Lavradores.y4m,1228x816,24,8,60,0, KEY ,1,60,329530,49.175524,48.883639,48.898571,35.060522,32.508837,96.921719,96.211364,53.809311,47.907551,0.294870
STILL,aom,av2,0,F2,Madeira_151_Funchal_Mercado_dos_Lavradores.y4m,1228x816,24,8,85,0, KEY ,1,85,179988,44.054137,44.669349,45.052380,29.304962,27.304597,95.829156,94.802120,48.799833,43.443271,0.390826
STILL,aom,av2,0,F2,Madeira_151_Funchal_Mercado_dos_Lavradores.y4m,1228x816,24,8,110,0, KEY ,1,110,94198,39.678847,41.017466,41.785567,23.941954,22.702599,92.928949,91.568102,42.542623,39.774220,0.357101
STILL,aom,av2,0,F2,Madeira_151_Funchal_Mercado_dos_Lavradores.y4m,1228x816,24,8,135,0, KEY ,1,135,45878,35.572728,37.688870,38.710020,18.900310,18.340267,85.740729,84.062486,36.043243,36.323604,0.361219
STILL,aom,av2,0,F2,Madeira_151_Funchal_Mercado_dos_Lavradores.y4m,1228x816,24,8,160,0, KEY ,1,160,21310,31.866111,34.589912,35.723950,14.275542,14.382936,69.824765,68.153736,30.249231,33.083911,0.665084
STILL,aom,av2,0,F2,Madeira_151_Funchal_Mercado_dos_Lavradores.y4m,1228x816,24,8,185,0, KEY ,1,185,8911,28.318965,31.481605,32.683627,10.087539,10.687286,44.430683,42.787731,25.164484,29.867274,0.854049
STILL,aom,av2,0,F2,Madeira_159_Funchal_Mercado_dos_Lavradores.y4m,1228x816,24,8,60,0, KEY ,1,60,503599,49.243300,48.961715,48.791554,36.444794,34.212274,97.096989,96.431592,54.147474,45.968127,0.002882
STILL,aom,av2,0,F2,Madeira_159_Funchal_Mercado_dos_Lavradores.y4m,1228x816,24,8,85,0, KEY ,1,85,324278,43.422157,44.606298,43.874667,30.568711,28.618454,96.309849,95.315683,49.601155,41.353935,0.056579
STILL,aom,av2,0,F2,Madeira_159_Funchal_Mercado_dos_Lavradores.y4m,1228x816,24,8,110,0, KEY ,1,110,187524,37.793666,40.730958,39.802966,24.690965,23.021060,94.114635,92.758501,43.322436,37.228882,0.087160
STILL,aom,av2,0,F2,Madeira_159_Funchal_Mercado_dos_Lavradores.y4m,1228x816,24,8,135,0, KEY ,1,135,92812,32.756622,37.271278,36.642068,19.179540,18.019654,88.339724,86.422236,36.489237,33.444612,0.128596
STILL,aom,av2,0,F2,Madeira_159_Funchal_Mercado_dos_Lavradores.y4m,1228x816,24,8,160,0, KEY ,1,160,40150,28.512834,34.288003,34.131013,14.916808,14.342658,74.597079,72.462763,30.424354,30.210355,0.370032
STILL,aom,av2,0,F2,Madeira_159_Funchal_Mercado_dos_Lavradores.y4m,1228x816,24,8,185,0, KEY ,1,185,14866,24.919941,31.687278,31.803084,10.999233,10.899689,51.965404,49.970396,24.633051,27.214233,0.623967
STILL,aom,av2,0,F2,MagicKindom.y4m,1000x1000,24,8,60,0, KEY ,1,60,571271,49.285450,48.410961,48.515473,39.010554,34.795765,96.949170,96.187752,54.849054,48.390676,0.000002
STILL,aom,av2,0,F2,MagicKindom.y4m,1000x1000,24,8,85,0, KEY ,1,85,369316,43.098238,43.677134,43.692224,32.655354,28.431270,96.011601,94.876885,49.564249,42.864153,0.000000
STILL,aom,av2,0,F2,MagicKindom.y4m,1000x1000,24,8,110,0, KEY ,1,110,220740,37.222505,41.052939,40.957391,26.321435,22.707325,93.256716,91.733665,43.369783,38.389397,0.543156
STILL,aom,av2,0,F2,MagicKindom.y4m,1000x1000,24,8,135,0, KEY ,1,135,110667,31.684755,38.947476,38.865710,20.912161,17.745153,86.082305,84.204018,36.584228,34.023965,0.755935
STILL,aom,av2,0,F2,MagicKindom.y4m,1000x1000,24,8,160,0, KEY ,1,160,40580,27.126088,36.949703,37.074444,15.628391,12.857153,69.503868,67.444103,29.507666,30.225888,0.756891
STILL,aom,av2,0,F2,MagicKindom.y4m,1000x1000,24,8,185,0, KEY ,1,185,12226,23.907054,34.898897,35.383825,10.444710,8.622511,41.213323,39.866377,23.394831,27.288581,0.601104
STILL,aom,av2,0,F2,Michigan_Stadium.y4m,1400x934,24,8,60,0, KEY ,1,60,679013,49.304839,49.171889,49.400663,38.203994,33.390046,97.120909,96.426558,53.496109,47.554311,0.032984
STILL,aom,av2,0,F2,Michigan_Stadium.y4m,1400x934,24,8,85,0, KEY ,1,85,473099,44.019667,44.329057,44.602382,33.147362,29.078850,96.336240,95.311142,49.687537,42.728785,0.070037
STILL,aom,av2,0,F2,Michigan_Stadium.y4m,1400x934,24,8,110,0, KEY ,1,110,311210,38.664436,39.235579,39.953235,28.154125,24.985709,94.273068,92.827498,44.359117,38.188290,0.125740
STILL,aom,av2,0,F2,Michigan_Stadium.y4m,1400x934,24,8,135,0, KEY ,1,135,183578,33.121748,34.304585,36.581654,23.060868,20.671184,88.628186,86.626091,37.859811,33.847343,0.167662
STILL,aom,av2,0,F2,Michigan_Stadium.y4m,1400x934,24,8,160,0, KEY ,1,160,88123,27.560472,30.662546,34.087092,17.887004,16.109568,74.292581,72.116674,30.885024,29.692173,0.169310
STILL,aom,av2,0,F2,Michigan_Stadium.y4m,1400x934,24,8,185,0, KEY ,1,185,29141,22.911416,28.284396,32.000169,12.475658,11.085187,47.486361,45.731909,23.789737,26.010373,0.195077
STILL,aom,av2,0,F2,OperaLamps.y4m,1296x864,24,8,60,0, KEY ,1,60,461445,49.339349,48.951606,48.968299,36.127843,33.998910,96.902709,96.124236,54.235701,45.881299,0.705468
STILL,aom,av2,0,F2,OperaLamps.y4m,1296x864,24,8,85,0, KEY ,1,85,285112,44.204903,43.859972,43.971579,31.061245,29.430788,95.735680,94.620262,50.058149,41.003633,1.160123
STILL,aom,av2,0,F2,OperaLamps.y4m,1296x864,24,8,110,0, KEY ,1,110,162072,39.300074,39.407343,39.778733,26.005513,24.815953,92.864340,91.345001,43.889650,36.923323,1.132310
STILL,aom,av2,0,F2,OperaLamps.y4m,1296x864,24,8,135,0, KEY ,1,135,82224,34.398605,35.663213,36.455326,20.633189,19.940509,85.841731,83.825694,36.653407,33.248622,1.035989
STILL,aom,av2,0,F2,OperaLamps.y4m,1296x864,24,8,160,0, KEY ,1,160,37389,30.000052,32.702519,33.963059,15.536489,15.221492,68.603199,66.669682,29.959424,29.963537,0.822679
STILL,aom,av2,0,F2,OperaLamps.y4m,1296x864,24,8,185,0, KEY ,1,185,14001,25.961127,29.985922,31.926722,10.237811,10.462294,40.029280,38.431430,23.799910,26.781122,0.792794
STILL,aom,av2,0,F2,Orion_Nebula.y4m,1200x840,24,8,60,0, KEY ,1,60,144980,49.193604,50.061094,50.611845,30.350612,28.625470,96.034211,94.829075,50.414376,47.908919,0.000141
STILL,aom,av2,0,F2,Orion_Nebula.y4m,1200x840,24,8,85,0, KEY ,1,85,53532,45.269074,47.875681,48.213674,24.079352,23.293833,93.750932,92.235701,45.402719,44.860504,0.012154
STILL,aom,av2,0,F2,Orion_Nebula.y4m,1200x840,24,8,110,0, KEY ,1,110,22213,42.571423,45.845598,45.875639,19.283048,19.488305,87.642671,86.096387,40.729618,42.577190,0.061146
STILL,aom,av2,0,F2,Orion_Nebula.y4m,1200x840,24,8,135,0, KEY ,1,135,9471,39.953133,43.798752,43.421748,15.313879,16.149558,75.127833,73.387509,36.648829,40.307074,0.330127
STILL,aom,av2,0,F2,Orion_Nebula.y4m,1200x840,24,8,160,0, KEY ,1,160,3997,37.286145,41.766824,40.610826,12.107688,13.223397,53.293577,51.831158,33.254093,38.063091,0.984295
STILL,aom,av2,0,F2,Orion_Nebula.y4m,1200x840,24,8,185,0, KEY ,1,185,1578,34.596163,39.333718,38.030708,9.635475,10.705192,25.859955,25.155924,30.243991,35.556772,2.241411
STILL,aom,av2,0,F2,Saint_Catherine-Caravaggio.y4m,876x1140,24,8,60,0, KEY ,1,60,303839,49.216593,49.791101,50.330458,31.371159,29.886376,96.980382,96.319476,51.189515,46.574842,0.000003
STILL,aom,av2,0,F2,Saint_Catherine-Caravaggio.y4m,876x1140,24,8,85,0, KEY ,1,85,144837,42.996506,47.873425,48.132056,24.679849,23.335610,96.181267,95.187043,46.167903,43.362112,0.953772
STILL,aom,av2,0,F2,Saint_Catherine-Caravaggio.y4m,876x1140,24,8,110,0, KEY ,1,110,53775,38.628652,46.129919,46.109851,19.543625,18.712171,93.639388,92.327375,41.019473,40.586912,4.103301
STILL,aom,av2,0,F2,Saint_Catherine-Caravaggio.y4m,876x1140,24,8,135,0, KEY ,1,135,20772,35.782009,44.003407,43.874712,15.970991,15.729063,86.900419,85.068022,36.598236,38.435432,5.168304
STILL,aom,av2,0,F2,Saint_Catherine-Caravaggio.y4m,876x1140,24,8,160,0, KEY ,1,160,9324,33.409199,41.491990,41.428151,13.161630,13.450357,73.226825,71.302752,32.725108,36.353780,6.375633
STILL,aom,av2,0,F2,Saint_Catherine-Caravaggio.y4m,876x1140,24,8,185,0, KEY ,1,185,3847,30.618495,38.345555,38.744015,10.477288,11.095722,53.634223,51.419411,28.652394,33.893085,5.975299
STILL,aom,av2,0,F2,Streptopelia_orientalis.y4m,1404x936,24,8,60,0, KEY ,1,60,248400,48.760255,49.820972,50.666810,37.097739,30.785562,96.883370,96.145415,52.177115,47.615918,0.008625
STILL,aom,av2,0,F2,Streptopelia_orientalis.y4m,1404x936,24,8,85,0, KEY ,1,85,120373,45.244665,46.404335,47.832971,31.497207,26.963431,95.606036,94.542065,47.765079,44.367262,0.015620
STILL,aom,av2,0,F2,Streptopelia_orientalis.y4m,1404x936,24,8,110,0, KEY ,1,110,63010,41.978937,42.994852,44.923887,26.547845,23.489704,92.660632,91.137583,42.674987,41.445552,0.013957
STILL,aom,av2,0,F2,Streptopelia_orientalis.y4m,1404x936,24,8,135,0, KEY ,1,135,32473,38.516696,39.609386,41.885357,21.659220,19.789531,85.564018,83.523226,37.200126,38.298884,0.012615
STILL,aom,av2,0,F2,Streptopelia_orientalis.y4m,1404x936,24,8,160,0, KEY ,1,160,16380,34.910435,36.229221,38.875801,16.930328,15.999671,69.448980,67.484117,32.032895,34.922809,0.015818
STILL,aom,av2,0,F2,Streptopelia_orientalis.y4m,1404x936,24,8,185,0, KEY ,1,185,7634,31.104850,33.001763,35.899120,12.314980,12.102888,44.867221,42.954729,27.208672,31.431576,0.039103
STILL,aom,av2,0,F2,Swallowtail.y4m,1300x900,24,8,60,0, KEY ,1,60,308262,48.998114,50.043836,50.796897,35.643288,30.219932,96.989408,96.285918,51.458250,49.646669,0.003374
STILL,aom,av2,0,F2,Swallowtail.y4m,1300x900,24,8,85,0, KEY ,1,85,130235,43.434896,47.024711,47.786816,29.062183,24.168965,96.184275,95.053313,46.453192,45.089202,0.077279
STILL,aom,av2,0,F2,Swallowtail.y4m,1300x900,24,8,110,0, KEY ,1,110,66302,40.565498,44.026553,44.944235,25.110782,21.662779,93.504986,92.024918,42.650014,42.514122,0.226319
STILL,aom,av2,0,F2,Swallowtail.y4m,1300x900,24,8,135,0, KEY ,1,135,34206,37.329335,40.978060,41.862275,21.217856,18.898526,87.156050,85.093959,37.723677,39.783658,0.242390
STILL,aom,av2,0,F2,Swallowtail.y4m,1300x900,24,8,160,0, KEY ,1,160,17144,33.862784,37.780755,38.667511,17.444527,16.024315,73.662109,71.531632,32.494438,36.719140,0.261352
STILL,aom,av2,0,F2,Swallowtail.y4m,1300x900,24,8,185,0, KEY ,1,185,7852,30.232136,34.316578,35.120340,13.532503,12.896869,52.021361,50.043060,27.317793,33.248424,0.485208
STILL,aom,av2,0,F2,Washington_Monument.y4m,1204x904,24,8,60,0, KEY ,1,60,289936,49.606347,50.609747,50.476518,34.712134,30.611953,96.769397,95.741601,51.482149,47.480452,0.368143
STILL,aom,av2,0,F2,Washington_Monument.y4m,1204x904,24,8,85,0, KEY ,1,85,178608,44.784959,48.648694,48.304034,28.777804,25.720369,95.527473,94.120646,47.418285,44.451303,0.519043
STILL,aom,av2,0,F2,Washington_Monument.y4m,1204x904,24,8,110,0, KEY ,1,110,104761,39.880748,46.640216,46.705464,23.261483,21.079752,92.059139,90.357636,42.349087,41.461824,0.486126
STILL,aom,av2,0,F2,Washington_Monument.y4m,1204x904,24,8,135,0, KEY ,1,135,50706,34.863077,44.363013,44.951992,18.190065,16.493879,82.809440,81.006562,36.763555,38.031332,0.390831
STILL,aom,av2,0,F2,Washington_Monument.y4m,1204x904,24,8,160,0, KEY ,1,160,18189,30.542070,41.910971,42.995730,13.940305,12.789533,63.746337,61.981463,31.582388,34.640087,0.373668
STILL,aom,av2,0,F2,Washington_Monument.y4m,1204x904,24,8,185,0, KEY ,1,185,5008,27.525846,38.990298,40.852912,10.321929,9.708065,35.913323,34.651548,26.951489,31.759572,0.310918
STILL,aom,av2,0,F2,Wasserfassstelle_von_1898_im_Schanerloch.y4m,816x1150,24,8,60,0, KEY ,1,60,391563,49.260166,49.773195,49.994072,34.940991,32.972715,96.955729,96.150538,53.071635,47.420283,0.001097
STILL,aom,av2,0,F2,Wasserfassstelle_von_1898_im_Schanerloch.y4m,816x1150,24,8,85,0, KEY ,1,85,255153,43.586179,47.327913,47.919704,28.903265,27.312714,95.922915,94.775455,48.861753,43.562048,0.010795
STILL,aom,av2,0,F2,Wasserfassstelle_von_1898_im_Schanerloch.y4m,816x1150,24,8,110,0, KEY ,1,110,156471,38.165560,45.732488,46.596827,23.146614,22.111500,92.936637,91.482415,43.224663,39.857166,0.014756
STILL,aom,av2,0,F2,Wasserfassstelle_von_1898_im_Schanerloch.y4m,816x1150,24,8,135,0, KEY ,1,135,82399,32.953269,44.304140,45.047452,17.779840,17.352605,85.544300,83.692888,36.706823,35.881125,0.069073
STILL,aom,av2,0,F2,Wasserfassstelle_von_1898_im_Schanerloch.y4m,816x1150,24,8,160,0, KEY ,1,160,33085,28.293683,42.369782,42.877941,12.997256,13.056044,68.104186,66.119707,30.260352,32.009382,0.182519
STILL,aom,av2,0,F2,Wasserfassstelle_von_1898_im_Schanerloch.y4m,816x1150,24,8,185,0, KEY ,1,185,10345,24.823670,39.339688,39.619146,8.786100,9.210875,40.471347,38.933400,24.376001,28.596842,0.305476
STILL,aom,av2,0,F2,Zoo_de_la_Barben.y4m,1296x864,24,8,60,0, KEY ,1,60,145396,48.712465,50.166645,50.257357,29.501003,28.019508,96.704536,95.838586,48.676917,44.902718,0.497659
STILL,aom,av2,0,F2,Zoo_de_la_Barben.y4m,1296x864,24,8,85,0, KEY ,1,85,58554,45.706633,48.289588,48.269776,26.003450,25.063784,95.619362,94.330476,46.545213,43.289306,9.379412
STILL,aom,av2,0,F2,Zoo_de_la_Barben.y4m,1296x864,24,8,110,0, KEY ,1,110,28016,42.902894,46.235720,46.089881,23.331490,22.722489,92.571247,90.835167,43.835022,41.893042,9.027128
STILL,aom,av2,0,F2,Zoo_de_la_Barben.y4m,1296x864,24,8,135,0, KEY ,1,135,12010,39.724434,43.848226,43.704526,19.520871,19.489402,85.799718,83.572344,39.382349,40.242164,8.529207
STILL,aom,av2,0,F2,Zoo_de_la_Barben.y4m,1296x864,24,8,160,0, KEY ,1,160,4866,36.758176,41.403634,41.272867,15.688001,16.165597,71.197485,68.589254,34.754079,38.310846,7.664679
STILL,aom,av2,0,F2,Zoo_de_la_Barben.y4m,1296x864,24,8,185,0, KEY ,1,185,2013,33.981253,39.046081,38.588977,12.207259,12.937748,48.376184,46.447028,30.673017,35.670341,7.728374
