TestCfg,EncodeMethod,CodecName,EncodePreset,Class,Name,Res,FPS,BitDepth,QP,POC,FrameType,Level,qindex,FrameSize,PSNR_Y,PSNR_U,PSNR_V,SSIM_Y(dB),MS-SSIM_Y(dB),VMAF_Y,VMAF_Y-NEG,PSNR-HVS,CIEDE2000,CAMBI
STILL,aom,av2,0,F1,animals_00.y4m,4032x3024,25,8,60,0, KEY ,1,60,5807141,48.795130,50.012799,51.252050,50.428763,34.509897,97.006307,96.365669,54.491488,48.119527,0.000000
STILL,aom,av2,0,F1,animals_00.y4m,4032x3024,25,8,85,0, KEY ,1,85,3820725,42.844199,46.243597,48.605369,44.612919,28.459222,96.288356,95.289369,49.780452,43.518036,0.000033
STILL,aom,av2,0,F1,animals_00.y4m,4032x3024,25,8,110,0, KEY ,1,110,2073093,36.844205,43.124889,46.261712,38.564330,22.282656,94.274014,92.809612,43.333357,38.934335,0.000446
STILL,aom,av2,0,F1,animals_00.y4m,4032x3024,25,8,135,0, KEY ,1,135,918048,32.254598,40.476685,43.933987,32.346476,17.686350,88.502388,86.529684,36.537846,35.118925,0.003196
STILL,aom,av2,0,F1,animals_00.y4m,4032x3024,25,8,160,0, KEY ,1,160,425926,28.866321,37.892839,41.711654,26.309909,14.362625,73.986405,71.989940,30.411290,32.118630,0.008240
STILL,aom,av2,0,F1,animals_00.y4m,4032x3024,25,8,185,0, KEY ,1,185,188491,25.498259,35.397637,39.543927,20.365567,10.801094,50.261046,48.456047,24.609910,29.041093,0.021868
STILL,aom,av2,0,F1,animals_03.y4m,4032x3024,25,8,60,0, KEY ,1,60,4037235,48.818376,50.904708,51.266266,46.004378,31.427432,96.623594,95.872055,52.806288,48.321152,0.000007
STILL,aom,av2,0,F1,animals_03.y4m,4032x3024,25,8,85,0, KEY ,1,85,2250755,42.987171,48.586196,48.927560,40.693839,25.435023,95.217573,94.204399,47.937238,44.310475,0.003144
STILL,aom,av2,0,F1,animals_03.y4m,4032x3024,25,8,110,0, KEY ,1,110,959024,37.967244,46.442834,46.966219,34.671720,19.902115,92.253688,90.665150,41.683591,40.664079,0.195944
STILL,aom,av2,0,F1,animals_03.y4m,4032x3024,25,8,135,0, KEY ,1,135,349373,34.396332,44.413565,44.977719,28.675667,15.450931,84.496588,82.400287,35.306885,37.783946,1.052606
STILL,aom,av2,0,F1,animals_03.y4m,4032x3024,25,8,160,0, KEY ,1,160,147727,31.917457,42.713646,43.092293,23.426623,12.382537,67.621515,65.701923,30.383586,35.546410,1.887058
STILL,aom,av2,0,F1,animals_03.y4m,4032x3024,25,8,185,0, KEY ,1,185,65217,29.365813,40.989152,41.060787,18.314150,9.800341,43.705822,42.244355,26.295203,33.159810,1.838318
STILL,aom,av2,0,F1,animals_09.y4m,4032x3024,25,8,60,0, KEY ,1,60,1099619,51.384048,55.820909,56.395553,44.058345,29.471749,96.494499,95.425322,50.888613,54.392355,0.016033
STILL,aom,av2,0,F1,animals_09.y4m,4032x3024,25,8,85,0, KEY ,1,85,550440,47.672479,53.397688,54.108288,38.248732,24.865976,95.328847,93.827164,46.512827,50.199225,0.047804
STILL,aom,av2,0,F1,animals_09.y4m,4032x3024,25,8,110,0, KEY ,1,110,268506,43.996919,51.145879,52.113905,32.391587,20.579376,92.057422,90.066220,41.685116,46.752509,0.181040
STILL,aom,av2,0,F1,animals_09.y4m,4032x3024,25,8,135,0, KEY ,1,135,114826,40.327585,48.743363,49.917060,26.346698,16.480343,82.940168,80.816598,36.915639,43.399875,0.570672
STILL,aom,av2,0,F1,animals_09.y4m,4032x3024,25,8,160,0, KEY ,1,160,46159,37.240591,45.958680,47.255316,20.635346,13.456770,66.124949,64.278833,33.272483,40.394729,0.820048
STILL,aom,av2,0,F1,animals_09.y4m,4032x3024,25,8,185,0, KEY ,1,185,20007,34.595592,42.816319,43.933950,15.950097,11.319135,47.420732,45.996379,30.394280,37.750419,1.284063
STILL,aom,av2,0,F1,buildings_02.y4m,4032x3024,25,8,60,0, KEY ,1,60,2897230,49.058476,53.050231,53.820100,41.689594,29.611515,97.222422,96.630587,50.290432,50.336403,0.854863
STILL,aom,av2,0,F1,buildings_02.y4m,4032x3024,25,8,85,0, KEY ,1,85,1506955,43.909773,50.799502,51.514031,35.831466,24.722933,96.897928,95.911548,46.622042,46.259784,6.052290
STILL,aom,av2,0,F1,buildings_02.y4m,4032x3024,25,8,110,0, KEY ,1,110,783269,39.995841,48.679197,49.458852,31.946467,22.259097,95.484665,94.068479,43.756787,43.378402,11.129694
STILL,aom,av2,0,F1,buildings_02.y4m,4032x3024,25,8,135,0, KEY ,1,135,402852,36.334539,46.576776,47.515096,29.361354,20.611767,91.476946,89.506077,40.425139,40.849864,10.987332
STILL,aom,av2,0,F1,buildings_02.y4m,4032x3024,25,8,160,0, KEY ,1,160,193725,32.565918,44.214389,45.159496,26.197059,18.441008,82.663933,79.974736,35.646928,38.133544,10.813137
STILL,aom,av2,0,F1,buildings_02.y4m,4032x3024,25,8,185,0, KEY ,1,185,84092,28.786896,41.569050,42.646965,21.816879,15.316093,67.018892,63.942904,29.861596,35.170435,8.138960
STILL,aom,av2,0,F1,buildings_03.y4m,4032x3024,25,8,60,0, KEY ,1,60,6248147,48.673663,51.126340,51.004232,49.718669,37.887799,97.080474,96.401124,55.418197,47.393538,0.001806
STILL,aom,av2,0,F1,buildings_03.y4m,4032x3024,25,8,85,0, KEY ,1,85,4313426,42.787059,48.176084,48.026372,43.765308,31.790432,96.407033,95.317768,51.034312,43.134641,0.003908
STILL,aom,av2,0,F1,buildings_03.y4m,4032x3024,25,8,110,0, KEY ,1,110,2694099,37.037914,45.738104,45.409869,37.808313,26.020067,94.572612,92.897374,45.257796,38.946067,0.005905
STILL,aom,av2,0,F1,buildings_03.y4m,4032x3024,25,8,135,0, KEY ,1,135,1425648,31.823880,43.300493,42.849216,31.767056,20.860450,88.941195,86.893602,38.109838,34.851747,0.009522
STILL,aom,av2,0,F1,buildings_03.y4m,4032x3024,25,8,160,0, KEY ,1,160,672118,27.470714,40.885936,40.266103,25.569215,16.152226,75.148852,72.824536,30.561762,31.124399,0.036166
STILL,aom,av2,0,F1,buildings_03.y4m,4032x3024,25,8,185,0, KEY ,1,185,283325,23.689959,38.568753,37.932009,19.555270,11.780966,50.712678,48.651398,23.747974,27.617628,0.050232
STILL,aom,av2,0,F1,church.y4m,6000x4000,25,8,60,0, KEY ,1,60,1951383,51.530185,52.370853,52.427663,45.129127,29.160541,96.423868,95.527070,49.468024,52.146324,0.493169
STILL,aom,av2,0,F1,church.y4m,6000x4000,25,8,85,0, KEY ,1,85,757228,48.001480,49.949779,50.095698,38.864627,25.081363,94.769337,93.477116,45.976761,48.763416,1.576641
STILL,aom,av2,0,F1,church.y4m,6000x4000,25,8,110,0, KEY ,1,110,348868,45.355960,47.699578,48.179544,33.508183,22.100254,90.926513,89.261490,42.839412,46.383072,2.091029
STILL,aom,av2,0,F1,church.y4m,6000x4000,25,8,135,0, KEY ,1,135,163687,42.390018,45.186104,46.032164,28.237332,18.934471,82.455878,80.396895,39.122974,43.883007,2.478594
STILL,aom,av2,0,F1,church.y4m,6000x4000,25,8,160,0, KEY ,1,160,73824,39.206978,42.389020,43.630867,22.949843,15.667463,66.519509,64.489911,35.272186,41.161569,3.283576
STILL,aom,av2,0,F1,church.y4m,6000x4000,25,8,185,0, KEY ,1,185,30501,35.949853,39.326265,40.939644,17.878150,12.504686,44.658661,42.716384,31.589848,38.299592,3.931641
STILL,aom,av2,0,F1,fireworks_01.y4m,4032x3024,25,8,60,0, KEY ,1,60,4329904,49.003071,55.111298,53.435804,41.704900,30.101594,96.446957,95.779536,53.165668,52.165847,0.000010
STILL,aom,av2,0,F1,fireworks_01.y4m,4032x3024,25,8,85,0, KEY ,1,85,2597273,43.059899,53.000816,51.830878,35.950046,24.026182,94.980425,94.010697,48.228246,47.718026,0.000124
STILL,aom,av2,0,F1,fireworks_01.y4m,4032x3024,25,8,110,0, KEY ,1,110,1067333,37.146808,50.612467,50.047933,29.849701,17.574707,91.612964,90.244054,41.071204,42.935751,0.001394
STILL,aom,av2,0,F1,fireworks_01.y4m,4032x3024,25,8,135,0, KEY ,1,135,229596,33.147655,47.912404,47.695173,23.477462,11.631447,83.298575,81.713400,34.075857,39.217388,0.225622
STILL,aom,av2,0,F1,fireworks_01.y4m,4032x3024,25,8,160,0, KEY ,1,160,48875,31.535398,44.788216,44.928252,17.288787,8.693622,67.698124,66.356033,30.415387,37.474335,9.721196
STILL,aom,av2,0,F1,fireworks_01.y4m,4032x3024,25,8,185,0, KEY ,1,185,21208,30.703750,41.899468,41.700122,14.771923,8.082882,53.033407,51.977769,28.841532,36.323449,14.706250
STILL,aom,av2,0,F1,flowerfield.y4m,3696x2448,25,8,60,0, KEY ,1,60,1284354,51.563387,51.554942,51.961636,48.373301,32.392511,96.858206,96.089322,52.894031,53.622074,0.002610
STILL,aom,av2,0,F1,flowerfield.y4m,3696x2448,25,8,85,0, KEY ,1,85,678686,47.547922,47.260292,47.858409,42.165457,27.640387,95.759083,94.628019,47.869190,48.945601,0.005120
STILL,aom,av2,0,F1,flowerfield.y4m,3696x2448,25,8,110,0, KEY ,1,110,352217,43.954693,43.481623,44.373650,36.364482,23.965492,93.072398,91.402867,42.807836,45.421684,0.006679
STILL,aom,av2,0,F1,flowerfield.y4m,3696x2448,25,8,135,0, KEY ,1,135,183416,40.338441,39.917822,40.968016,30.387813,20.310885,85.851153,83.912301,37.591938,41.987412,0.008123
STILL,aom,av2,0,F1,flowerfield.y4m,3696x2448,25,8,160,0, KEY ,1,160,94380,36.569892,36.499288,37.584651,24.588949,16.621214,70.650788,68.678610,32.665042,38.438473,0.012153
STILL,aom,av2,0,F1,flowerfield.y4m,3696x2448,25,8,185,0, KEY ,1,185,46413,32.749334,33.243306,34.139568,19.183421,13.137962,47.724355,45.951302,28.175363,34.854128,0.032679
STILL,aom,av2,0,F1,flowers_08.y4m,4032x3024,25,8,60,0, KEY ,1,60,5331115,48.741127,50.236961,51.543479,50.371992,33.380250,97.085569,96.471308,54.072344,48.986936,0.008634
STILL,aom,av2,0,F1,flowers_08.y4m,4032x3024,25,8,85,0, KEY ,1,85,3328698,42.890607,45.904275,48.059621,44.494736,27.427530,96.355081,95.420964,49.126638,44.041734,0.016994
STILL,aom,av2,0,F1,flowers_08.y4m,4032x3024,25,8,110,0, KEY ,1,110,1859876,37.757434,42.306654,44.849022,38.530980,22.582651,94.676776,93.115887,43.065133,39.824594,0.032467
STILL,aom,av2,0,F1,flowers_08.y4m,4032x3024,25,8,135,0, KEY ,1,135,959442,33.360170,39.175325,41.839524,32.555370,18.682532,89.386931,87.232950,36.836235,36.148115,0.048756
STILL,aom,av2,0,F1,flowers_08.y4m,4032x3024,25,8,160,0, KEY ,1,160,461661,29.389920,36.126660,38.863921,26.675136,14.822597,75.674234,73.422588,30.602552,32.729446,0.100124
STILL,aom,av2,0,F1,flowers_08.y4m,4032x3024,25,8,185,0, KEY ,1,185,207841,25.718089,32.901005,35.922810,20.697667,10.905866,52.574672,50.739030,24.638041,29.353704,0.175122
STILL,aom,av2,0,F1,flowers_12.y4m,4032x3024,25,8,60,0, KEY ,1,60,4158103,48.639023,52.112726,53.343283,51.491729,33.744952,97.088202,96.580059,54.245720,49.249996,0.000126
STILL,aom,av2,0,F1,flowers_12.y4m,4032x3024,25,8,85,0, KEY ,1,85,2393328,43.014359,49.388725,50.978377,45.812672,27.960050,96.515092,95.685208,49.400457,44.618030,0.000163
STILL,aom,av2,0,F1,flowers_12.y4m,4032x3024,25,8,110,0, KEY ,1,110,1192959,38.276170,46.785035,48.448493,39.774833,23.041587,95.109854,93.699298,43.057050,40.649765,0.000788
STILL,aom,av2,0,F1,flowers_12.y4m,4032x3024,25,8,135,0, KEY ,1,135,557042,34.472998,43.981480,45.797230,33.624692,19.097520,90.393794,88.478605,36.593767,37.294006,0.014296
STILL,aom,av2,0,F1,flowers_12.y4m,4032x3024,25,8,160,0, KEY ,1,160,275857,31.202351,41.214324,43.121045,27.580747,15.497469,78.418021,76.277339,30.722136,34.271377,0.041453
STILL,aom,av2,0,F1,flowers_12.y4m,4032x3024,25,8,185,0, KEY ,1,185,133753,27.799167,38.564519,40.263952,21.512545,11.805617,58.253345,56.300300,25.407245,31.140182,0.076200
STILL,aom,av2,0,F1,food_02.y4m,4032x3024,25,8,60,0, KEY ,1,60,3110981,48.637886,53.487503,54.495790,45.526220,29.953373,97.037747,96.332450,52.389413,50.872787,0.000424
STILL,aom,av2,0,F1,food_02.y4m,4032x3024,25,8,85,0, KEY ,1,85,1486132,43.396528,50.875498,52.348337,39.396129,24.001890,96.372527,95.314592,47.162915,46.180514,0.005108
STILL,aom,av2,0,F1,food_02.y4m,4032x3024,25,8,110,0, KEY ,1,110,636568,39.331555,48.331318,50.219388,33.100595,18.809056,94.434496,92.863761,40.846335,42.530145,0.024093
STILL,aom,av2,0,F1,food_02.y4m,4032x3024,25,8,135,0, KEY ,1,135,250081,36.137470,45.621698,47.856914,27.913181,15.439688,88.341878,86.265305,35.815694,39.616799,0.139461
STILL,aom,av2,0,F1,food_02.y4m,4032x3024,25,8,160,0, KEY ,1,160,107949,33.525347,42.658482,45.181568,22.893487,12.958547,74.743626,72.629273,31.815508,37.186631,0.309353
STILL,aom,av2,0,F1,food_02.y4m,4032x3024,25,8,185,0, KEY ,1,185,45679,30.742343,39.494664,42.192368,17.703797,10.314462,55.857390,53.925003,27.870137,34.558839,1.114517
STILL,aom,av2,0,F1,fountain.y4m,6406x4270,25,8,60,0, KEY ,1,60,7430963,48.975579,52.257166,52.804389,49.193685,30.229699,96.652293,95.739822,52.147239,51.545019,0.000060
STILL,aom,av2,0,F1,fountain.y4m,6406x4270,25,8,85,0, KEY ,1,85,3957410,43.477047,49.587198,50.327408,43.359789,24.375272,95.194316,94.061036,47.352611,46.606389,0.000606
STILL,aom,av2,0,F1,fountain.y4m,6406x4270,25,8,110,0, KEY ,1,110,1508582,38.574228,46.930979,47.766821,37.382894,18.864526,92.076733,90.578985,41.389150,42.141558,0.001273
STILL,aom,av2,0,F1,fountain.y4m,6406x4270,25,8,135,0, KEY ,1,135,458398,35.422447,44.066276,44.943417,31.599251,15.354455,85.152455,83.098440,36.438378,39.109505,0.376461
STILL,aom,av2,0,F1,fountain.y4m,6406x4270,25,8,160,0, KEY ,1,160,204387,33.546535,40.992357,41.800598,26.391577,13.473709,70.968956,68.723200,32.550176,37.135052,0.617795
STILL,aom,av2,0,F1,fountain.y4m,6406x4270,25,8,185,0, KEY ,1,185,90319,31.169163,37.493873,38.374347,21.197585,11.105131,49.227991,47.105429,28.448413,34.712314,0.513490
STILL,aom,av2,0,F1,lady.y4m,4480x6720,25,8,60,0, KEY ,1,60,5595052,48.907871,56.119648,55.768191,45.657551,27.883626,96.330773,95.536183,50.081103,50.471636,0.089701
STILL,aom,av2,0,F1,lady.y4m,4480x6720,25,8,85,0, KEY ,1,85,1959386,43.487538,54.159841,53.655925,39.035359,21.715252,94.942613,93.916539,45.120857,45.465225,0.883489
STILL,aom,av2,0,F1,lady.y4m,4480x6720,25,8,110,0, KEY ,1,110,395127,40.551727,52.280300,51.597836,33.254467,18.066573,92.236646,90.779276,41.241943,42.678560,5.671331
STILL,aom,av2,0,F1,lady.y4m,4480x6720,25,8,135,0, KEY ,1,135,158918,39.234102,50.227658,49.555669,28.925441,16.462849,84.681582,83.011304,38.624931,41.434327,5.670347
STILL,aom,av2,0,F1,lady.y4m,4480x6720,25,8,160,0, KEY ,1,160,64067,37.603491,47.500306,47.036473,24.218641,14.607106,69.692087,68.079017,35.697624,39.833099,5.755925
STILL,aom,av2,0,F1,lady.y4m,4480x6720,25,8,185,0, KEY ,1,185,25234,35.666437,44.444892,43.914349,19.148684,12.572955,48.179493,46.895916,32.749803,37.931097,5.982377
STILL,aom,av2,0,F1,landscape_05.y4m,4032x3024,25,8,60,0, KEY ,1,60,4398016,48.844688,51.324826,52.164486,48.267799,32.137071,96.940527,96.322412,53.556457,49.887038,0.000002
STILL,aom,av2,0,F1,landscape_05.y4m,4032x3024,25,8,85,0, KEY ,1,85,2636017,43.198104,47.906911,49.147551,42.370536,26.268780,96.168073,95.203683,48.549655,44.912669,0.000034
STILL,aom,av2,0,F1,landscape_05.y4m,4032x3024,25,8,110,0, KEY ,1,110,1334013,38.150448,44.737094,46.124696,36.448220,20.860196,94.167796,92.675162,42.256323,40.536390,0.010692
STILL,aom,av2,0,F1,landscape_05.y4m,4032x3024,25,8,135,0, KEY ,1,135,630955,34.292666,41.710308,43.116001,30.839919,17.103558,87.841006,85.981364,36.259999,37.109266,0.059147
STILL,aom,av2,0,F1,landscape_05.y4m,4032x3024,25,8,160,0, KEY ,1,160,306592,30.896826,38.707523,40.365292,24.986532,13.848889,73.128471,71.218316,30.727496,34.130952,0.125649
STILL,aom,av2,0,F1,landscape_05.y4m,4032x3024,25,8,185,0, KEY ,1,185,138213,27.371860,35.877344,37.342043,19.210034,10.492253,50.091936,48.488107,25.391875,31.018927,0.312788
STILL,aom,av2,0,F1,landscape_15.y4m,4032x3024,25,8,60,0, KEY ,1,60,2899092,49.549540,53.598084,54.167785,44.365515,30.506500,96.998780,96.279257,51.332778,50.724824,0.882456
STILL,aom,av2,0,F1,landscape_15.y4m,4032x3024,25,8,85,0, KEY ,1,85,1689694,44.434464,51.341842,51.933514,38.286950,25.490880,96.227267,95.172042,47.297334,46.530215,2.817880
STILL,aom,av2,0,F1,landscape_15.y4m,4032x3024,25,8,110,0, KEY ,1,110,869061,39.746338,49.150543,49.848492,33.945163,21.315515,94.269577,92.651570,42.691815,42.923829,3.410991
STILL,aom,av2,0,F1,landscape_15.y4m,4032x3024,25,8,135,0, KEY ,1,135,404993,35.757506,46.912155,47.823909,29.237768,17.720540,88.152194,86.185326,37.483303,39.739716,3.395695
STILL,aom,av2,0,F1,landscape_15.y4m,4032x3024,25,8,160,0, KEY ,1,160,187290,32.311717,44.433174,45.521926,24.384868,14.524381,74.675966,72.559458,32.215211,36.810605,3.490485
STILL,aom,av2,0,F1,landscape_15.y4m,4032x3024,25,8,185,0, KEY ,1,185,79899,28.938953,41.663715,42.814219,19.456144,11.449089,53.229222,51.272479,27.107620,33.844279,3.576461
STILL,aom,av2,0,F1,landscape_16.y4m,4032x3024,25,8,60,0, KEY ,1,60,1594888,50.649251,57.097305,57.973916,42.714436,29.780799,96.909525,96.092318,51.462479,53.070263,0.000002
STILL,aom,av2,0,F1,landscape_16.y4m,4032x3024,25,8,85,0, KEY ,1,85,895458,46.571760,54.870448,55.686220,36.847661,24.918562,96.081334,94.906742,46.944234,48.844373,0.000020
STILL,aom,av2,0,F1,landscape_16.y4m,4032x3024,25,8,110,0, KEY ,1,110,482545,42.449236,52.820095,53.643933,30.985235,20.381910,93.927723,92.138380,41.764871,45.245633,0.000631
STILL,aom,av2,0,F1,landscape_16.y4m,4032x3024,25,8,135,0, KEY ,1,135,237803,38.410108,50.657324,51.571193,25.608212,16.365643,87.136314,84.970684,36.674718,41.825192,0.020597
STILL,aom,av2,0,F1,landscape_16.y4m,4032x3024,25,8,160,0, KEY ,1,160,113505,34.731978,48.270939,49.202424,21.409988,13.327024,71.522147,69.334622,32.135812,38.424781,0.181349
STILL,aom,av2,0,F1,landscape_16.y4m,4032x3024,25,8,185,0, KEY ,1,185,49126,31.250415,45.551100,47.049891,16.770990,10.368915,48.829331,47.470501,27.813383,35.421679,0.732071
STILL,aom,av2,0,F1,landscape_18.y4m,4032x3024,25,8,60,0, KEY ,1,60,2624905,49.621370,54.478249,55.998968,41.074486,29.949479,96.931487,96.153950,50.367428,51.176415,1.142292
STILL,aom,av2,0,F1,landscape_18.y4m,4032x3024,25,8,85,0, KEY ,1,85,1515114,44.639694,52.421035,54.184182,35.795925,25.686324,95.908384,94.821969,47.379479,47.270262,1.305067
STILL,aom,av2,0,F1,landscape_18.y4m,4032x3024,25,8,110,0, KEY ,1,110,673155,39.570850,50.472557,52.413099,31.736060,21.162354,93.537864,91.951247,43.267537,43.508205,1.310104
STILL,aom,av2,0,F1,landscape_18.y4m,4032x3024,25,8,135,0, KEY ,1,135,260045,36.004627,48.659568,50.684598,27.678682,17.222120,86.747608,84.807843,37.930979,40.631543,1.321103
STILL,aom,av2,0,F1,landscape_18.y4m,4032x3024,25,8,160,0, KEY ,1,160,108437,33.249629,46.773639,48.391830,22.863403,14.138774,71.707173,69.546660,33.115458,38.174998,1.452463
STILL,aom,av2,0,F1,landscape_18.y4m,4032x3024,25,8,185,0, KEY ,1,185,41611,30.468964,44.471661,46.031239,17.740213,11.328904,50.061971,48.101962,28.804557,35.687320,1.729435
STILL,aom,av2,0,F1,landscape_25.y4m,4032x3024,25,8,60,0, KEY ,1,60,5117455,48.851457,49.510609,51.179582,42.027042,31.315779,96.516037,95.641959,53.228265,47.260664,0.005634
STILL,aom,av2,0,F1,landscape_25.y4m,4032x3024,25,8,85,0, KEY ,1,85,3173632,42.985176,45.928706,49.088841,36.568704,25.232817,94.974358,93.785940,48.461627,42.978505,0.007310
STILL,aom,av2,0,F1,landscape_25.y4m,4032x3024,25,8,110,0, KEY ,1,110,1584823,37.163055,44.350701,47.842416,30.374531,19.114569,92.008042,90.073052,41.885839,39.450953,0.021607
STILL,aom,av2,0,F1,landscape_25.y4m,4032x3024,25,8,135,0, KEY ,1,135,546159,32.438646,43.056964,46.514979,24.450513,13.207511,82.494519,80.354199,34.583034,36.078646,0.404779
STILL,aom,av2,0,F1,landscape_25.y4m,4032x3024,25,8,160,0, KEY ,1,160,115697,29.223152,41.747458,45.081514,18.728154,8.359323,63.867749,62.110081,28.608492,33.444167,3.804136
STILL,aom,av2,0,F1,landscape_25.y4m,4032x3024,25,8,185,0, KEY ,1,185,30459,27.854255,40.415207,43.263691,14.595075,6.557162,44.408229,43.294413,26.013256,32.086112,7.241291
STILL,aom,av2,0,F1,landscape_26.y4m,4032x3024,25,8,60,0, KEY ,1,60,3076755,49.197058,53.346080,53.471207,43.508183,29.932606,96.885985,95.966933,51.007898,50.241767,0.512718
STILL,aom,av2,0,F1,landscape_26.y4m,4032x3024,25,8,85,0, KEY ,1,85,1677957,43.822183,51.556779,51.743444,37.723201,24.734219,95.832669,94.561715,47.084564,46.076619,0.669459
STILL,aom,av2,0,F1,landscape_26.y4m,4032x3024,25,8,110,0, KEY ,1,110,746723,39.113937,49.938028,50.176373,32.691283,20.402702,93.194432,91.379621,42.451625,42.429257,0.679603
STILL,aom,av2,0,F1,landscape_26.y4m,4032x3024,25,8,135,0, KEY ,1,135,301694,35.683129,48.136255,48.412812,27.855926,16.929202,85.768992,83.531323,37.361300,39.636979,0.716820
STILL,aom,av2,0,F1,landscape_26.y4m,4032x3024,25,8,160,0, KEY ,1,160,130025,32.804614,46.105031,46.232545,22.742236,13.855488,69.679892,67.422144,32.560634,37.178163,0.783617
STILL,aom,av2,0,F1,landscape_26.y4m,4032x3024,25,8,185,0, KEY ,1,185,51240,29.765370,43.425362,43.921156,17.508900,10.614427,46.006189,44.012385,27.873838,34.461210,0.851411
STILL,aom,av2,0,F1,landscape_28.y4m,4032x3024,25,8,60,0, KEY ,1,60,3365000,49.037600,51.522114,53.273798,40.360726,29.676158,97.074646,96.473416,51.219301,50.573430,0.317407
STILL,aom,av2,0,F1,landscape_28.y4m,4032x3024,25,8,85,0, KEY ,1,85,1832778,43.707089,48.456571,50.358148,34.305805,24.124390,96.366359,95.458182,46.902362,46.552294,1.704194
STILL,aom,av2,0,F1,landscape_28.y4m,4032x3024,25,8,110,0, KEY ,1,110,911945,39.279911,45.809134,47.715355,30.317067,19.383171,94.640238,93.254615,41.534901,43.136083,4.877578
STILL,aom,av2,0,F1,landscape_28.y4m,4032x3024,25,8,135,0, KEY ,1,135,418804,35.489186,43.330169,45.279835,27.219242,16.626971,89.452570,87.588600,37.086268,40.129349,10.029899
STILL,aom,av2,0,F1,landscape_28.y4m,4032x3024,25,8,160,0, KEY ,1,160,190731,32.173983,40.937011,42.788942,23.918599,14.579064,77.229172,74.991954,32.465333,37.292963,10.288301
STILL,aom,av2,0,F1,landscape_28.y4m,4032x3024,25,8,185,0, KEY ,1,185,83887,28.958432,38.762033,40.581860,18.899747,12.027403,56.594649,54.454924,27.456182,34.517902,9.120358
STILL,aom,av2,0,F1,lodge.y4m,6000x4000,25,8,60,0, KEY ,1,60,6895948,48.841233,51.607081,51.951315,45.705434,29.993703,96.552354,95.599870,51.483717,49.802509,0.000011
STILL,aom,av2,0,F1,lodge.y4m,6000x4000,25,8,85,0, KEY ,1,85,3720526,43.721196,48.036015,48.718184,39.772376,24.589353,95.012100,93.768531,47.112590,45.073862,0.009938
STILL,aom,av2,0,F1,lodge.y4m,6000x4000,25,8,110,0, KEY ,1,110,1741520,39.342593,44.719472,45.786966,34.541624,19.929420,91.586334,89.946501,41.982616,41.183076,0.422105
STILL,aom,av2,0,F1,lodge.y4m,6000x4000,25,8,135,0, KEY ,1,135,829016,35.742944,41.591672,43.137058,29.052807,16.617030,83.041719,81.011248,36.708483,38.069988,0.816069
STILL,aom,av2,0,F1,lodge.y4m,6000x4000,25,8,160,0, KEY ,1,160,358240,32.064905,38.735699,40.804033,23.610997,13.175153,63.628465,61.776052,31.093372,34.973496,1.132067
STILL,aom,av2,0,F1,lodge.y4m,6000x4000,25,8,185,0, KEY ,1,185,124429,28.597426,36.308491,38.814926,18.032015,9.725806,34.355803,33.184882,25.991243,32.009821,1.473162
STILL,aom,av2,0,F1,party.y4m,6720x4480,25,8,60,0, KEY ,1,60,5071132,48.769915,57.052142,57.321672,44.931311,27.467985,96.781536,96.123571,49.711004,50.745380,0.000007
STILL,aom,av2,0,F1,party.y4m,6720x4480,25,8,85,0, KEY ,1,85,1412778,43.447369,55.367681,55.678167,38.401873,21.248668,96.372063,95.467221,44.667137,45.565839,0.397688
STILL,aom,av2,0,F1,party.y4m,6720x4480,25,8,110,0, KEY ,1,110,231704,41.132163,53.563705,53.903452,32.173135,17.987087,94.968625,93.722008,41.116512,43.260823,7.112201
STILL,aom,av2,0,F1,party.y4m,6720x4480,25,8,135,0, KEY ,1,135,86868,40.252112,51.401075,51.789425,27.478593,16.849818,90.999248,89.387656,39.487379,42.379480,9.519202
STILL,aom,av2,0,F1,party.y4m,6720x4480,25,8,160,0, KEY ,1,160,41300,39.211461,48.108073,48.437100,23.543218,16.034148,83.026290,81.045487,37.744858,41.064663,10.442598
STILL,aom,av2,0,F1,party.y4m,6720x4480,25,8,185,0, KEY ,1,185,19650,37.566272,44.632353,45.431812,20.033526,14.974084,69.719112,67.413912,35.176540,39.537906,10.707133
STILL,aom,av2,0,F1,river.y4m,5184x3456,25,8,60,0, KEY ,1,60,2578523,48.815724,53.262812,54.052701,46.403887,28.235143,95.802650,94.819162,50.076996,48.603434,0.000038
STILL,aom,av2,0,F1,river.y4m,5184x3456,25,8,85,0, KEY ,1,85,696542,44.391036,50.593980,51.909605,40.144014,22.607341,94.002130,92.534488,45.266785,44.756431,0.185011
STILL,aom,av2,0,F1,river.y4m,5184x3456,25,8,110,0, KEY ,1,110,278694,42.784163,47.864666,50.077806,34.118734,20.231983,90.343712,88.369969,41.940784,42.996509,0.450735
STILL,aom,av2,0,F1,river.y4m,5184x3456,25,8,135,0, KEY ,1,135,137258,40.952900,44.962403,48.151125,28.445268,18.054790,81.746003,79.598556,38.546850,41.161368,0.720975
STILL,aom,av2,0,F1,river.y4m,5184x3456,25,8,160,0, KEY ,1,160,66321,38.373156,42.131476,46.164949,23.341201,15.502283,65.471784,63.509659,34.811461,38.859338,0.938875
STILL,aom,av2,0,F1,river.y4m,5184x3456,25,8,185,0, KEY ,1,185,29631,35.257824,39.550550,44.070545,18.580280,12.692712,41.640411,40.210939,31.088588,36.405675,1.355120
STILL,aom,av2,0,F1,santa.y4m,5616x3744,25,8,60,0, KEY ,1,60,2658930,48.960527,54.241811,53.649883,45.657551,27.892777,96.296062,95.421832,49.591515,51.335615,0.267106
STILL,aom,av2,0,F1,santa.y4m,5616x3744,25,8,85,0, KEY ,1,85,681186,44.695308,52.063641,51.465793,38.987939,22.582600,94.737503,93.567896,45.150439,47.270615,2.386510
STILL,aom,av2,0,F1,santa.y4m,5616x3744,25,8,110,0, KEY ,1,110,254748,43.128050,50.056080,49.173345,34.264146,20.608368,91.324560,89.679896,42.555213,45.555061,3.048346
STILL,aom,av2,0,F1,santa.y4m,5616x3744,25,8,135,0, KEY ,1,135,121963,41.489521,47.771305,46.479835,29.522749,18.696551,83.306867,81.447147,39.654805,43.820667,3.086056
STILL,aom,av2,0,F1,santa.y4m,5616x3744,25,8,160,0, KEY ,1,160,57662,39.257553,44.964781,43.344071,24.473293,16.333521,68.455105,66.403657,36.258343,41.487229,3.347736
STILL,aom,av2,0,F1,santa.y4m,5616x3744,25,8,185,0, KEY ,1,185,26634,36.636200,41.698186,39.899136,19.557420,13.869564,45.936586,43.949651,32.824768,38.661299,3.557392
STILL,aom,av2,0,F1,seafood.y4m,5184x3456,25,8,60,0, KEY ,1,60,4624359,48.741525,52.794385,52.953134,47.917506,29.820692,96.623956,95.794728,51.713324,49.224545,0.000000
STILL,aom,av2,0,F1,seafood.y4m,5184x3456,25,8,85,0, KEY ,1,85,2109426,43.154262,49.822062,50.218720,41.606365,23.594500,95.236211,94.103308,46.537726,44.541316,0.083783
STILL,aom,av2,0,F1,seafood.y4m,5184x3456,25,8,110,0, KEY ,1,110,734528,39.332441,46.992096,47.692075,35.443844,19.070691,92.193275,90.614635,41.227181,41.223917,1.172331
STILL,aom,av2,0,F1,seafood.y4m,5184x3456,25,8,135,0, KEY ,1,135,337116,36.928942,44.179297,45.053235,30.302611,16.908637,84.984366,82.954694,37.089970,39.013706,1.348589
STILL,aom,av2,0,F1,seafood.y4m,5184x3456,25,8,160,0, KEY ,1,160,153150,34.156024,41.295302,42.231209,25.207325,14.264366,69.789479,67.512098,32.398448,36.546117,1.553054
STILL,aom,av2,0,F1,seafood.y4m,5184x3456,25,8,185,0, KEY ,1,185,63395,31.128476,38.400788,39.351697,20.002853,11.281219,45.411011,43.450995,27.924940,33.761231,1.569477
STILL,aom,av2,0,F1,snow_00.y4m,4032x3024,25,8,60,0, KEY ,1,60,3777688,48.771445,53.834948,54.428628,43.871315,29.338316,96.867686,96.096761,51.992291,50.755340,0.000000
STILL,aom,av2,0,F1,snow_00.y4m,4032x3024,25,8,85,0, KEY ,1,85,2044785,42.884901,51.024671,51.834654,37.584456,23.030742,95.999046,94.951233,46.621550,45.841925,0.000016
STILL,aom,av2,0,F1,snow_00.y4m,4032x3024,25,8,110,0, KEY ,1,110,732656,37.697215,48.923799,49.887602,31.438410,16.930553,93.822054,92.455716,40.194986,41.645679,0.000270
STILL,aom,av2,0,F1,snow_00.y4m,4032x3024,25,8,135,0, KEY ,1,135,222873,34.908213,47.075934,48.405610,26.813473,14.017401,87.802241,85.966128,36.164259,39.285805,0.033988
STILL,aom,av2,0,F1,snow_00.y4m,4032x3024,25,8,160,0, KEY ,1,160,101029,33.053640,45.116315,46.531011,22.467861,12.614630,74.154529,72.277229,32.831654,37.613039,0.049160
STILL,aom,av2,0,F1,snow_00.y4m,4032x3024,25,8,185,0, KEY ,1,185,45597,30.740463,43.124592,44.328229,17.887912,10.904972,53.688503,52.020101,28.934516,35.732034,0.077672
STILL,aom,av2,0,F1,trees.y4m,4928x3264,25,8,60,0, KEY ,1,60,3433782,49.144269,52.690734,52.675828,47.101721,31.381284,96.846411,96.067219,52.759781,48.246351,0.000232
STILL,aom,av2,0,F1,trees.y4m,4928x3264,25,8,85,0, KEY ,1,85,1806080,44.783490,49.642670,49.601772,41.387162,26.389162,95.950815,94.696276,48.015450,44.451951,0.001229
STILL,aom,av2,0,F1,trees.y4m,4928x3264,25,8,110,0, KEY ,1,110,946492,40.953581,46.628559,46.786219,35.357664,21.743199,93.405298,91.543383,42.295824,41.233981,0.005964
STILL,aom,av2,0,F1,trees.y4m,4928x3264,25,8,135,0, KEY ,1,135,483770,37.120550,43.591843,44.318536,29.179090,17.241070,86.138622,83.890658,36.373497,38.026985,0.027125
STILL,aom,av2,0,F1,trees.y4m,4928x3264,25,8,160,0, KEY ,1,160,234228,33.287003,40.825073,42.387971,23.021553,13.104501,69.780245,67.650532,30.986357,34.861426,0.109955
STILL,aom,av2,0,F1,trees.y4m,4928x3264,25,8,185,0, KEY ,1,185,100331,29.525800,38.378386,40.293272,17.031804,9.521345,46.072951,44.584417,26.192262,31.818412,0.497443
STILL,aom,av2,0,F1,underwater_01.y4m,4032x3024,25,8,60,0, KEY ,1,60,3575923,48.740977,50.944935,51.691615,48.198862,31.252454,96.559319,95.679190,53.333635,49.001861,0.000823
STILL,aom,av2,0,F1,underwater_01.y4m,4032x3024,25,8,85,0, KEY ,1,85,1761375,43.026303,48.211749,49.150815,42.260247,25.282361,94.799786,93.727914,47.911531,44.517375,0.014417
STILL,aom,av2,0,F1,underwater_01.y4m,4032x3024,25,8,110,0, KEY ,1,110,695251,38.807067,45.362586,46.561920,35.998193,20.455171,91.394059,89.763281,41.509510,40.923372,0.027427
STILL,aom,av2,0,F1,underwater_01.y4m,4032x3024,25,8,135,0, KEY ,1,135,296702,36.050482,42.226609,43.859227,29.912669,17.117617,82.107882,80.235677,36.007936,38.281036,0.052485
STILL,aom,av2,0,F1,underwater_01.y4m,4032x3024,25,8,160,0, KEY ,1,160,141074,33.502158,38.841926,41.089916,23.875609,13.888233,63.213348,61.527290,31.225318,35.699756,0.080217
STILL,aom,av2,0,F1,underwater_01.y4m,4032x3024,25,8,185,0, KEY ,1,185,62226,30.425965,35.590940,38.374145,17.870676,10.378245,35.617808,34.592364,26.760641,32.774473,0.188159
STILL,aom,av2,0,F2,Adventure_with_the_Windmills.y4m,896x1110,24,8,60,0, KEY ,1,60,575618,48.918772,52.292168,53.701549,39.728384,36.867925,97.028402,96.194054,54.293972,48.108299,0.001983
STILL,aom,av2,0,F2,Adventure_with_the_Windmills.y4m,896x1110,24,8,85,0, KEY ,1,85,434496,43.201380,51.977072,53.270499,33.669654,31.140530,96.192476,94.959788,52.094924,44.703320,0.001197
STILL,aom,av2,0,F2,Adventure_with_the_Windmills.y4m,896x1110,24,8,110,0, KEY ,1,110,309613,37.250814,51.409112,52.334494,27.354366,25.044728,93.735690,92.177000,46.845435,40.177034,0.014452
STILL,aom,av2,0,F2,Adventure_with_the_Windmills.y4m,896x1110,24,8,135,0, KEY ,1,135,196677,31.470436,50.324964,51.278121,21.086304,19.045802,86.958999,85.133650,38.549207,35.121229,0.000904
STILL,aom,av2,0,F2,Adventure_with_the_Windmills.y4m,896x1110,24,8,160,0, KEY ,1,160,101240,25.853508,48.383326,51.032706,15.152311,13.535380,70.625001,68.744741,30.363606,29.876690,0.003083
STILL,aom,av2,0,F2,Adventure_with_the_Windmills.y4m,896x1110,24,8,185,0, KEY ,1,185,30853,20.821242,48.346752,46.846046,10.164210,8.672129,42.007193,40.628622,23.390248,24.948798,0.003272
STILL,aom,av2,0,F2,Agapanthus_Postbloom2.y4m,1208x948,24,8,60,0, KEY ,1,60,142377,49.517311,50.609279,50.317818,34.310692,30.063740,96.987854,96.310478,50.279768,48.490479,2.629194
STILL,aom,av2,0,F2,Agapanthus_Postbloom2.y4m,1208x948,24,8,85,0, KEY ,1,85,73921,46.802738,47.823543,48.556913,30.624842,27.620626,95.988271,94.948929,47.671511,45.949544,3.573144
STILL,aom,av2,0,F2,Agapanthus_Postbloom2.y4m,1208x948,24,8,110,0, KEY ,1,110,42121,43.776237,44.699296,46.791140,27.127697,25.133946,93.719863,92.190869,44.239759,43.398937,3.451778
STILL,aom,av2,0,F2,Agapanthus_Postbloom2.y4m,1208x948,24,8,135,0, KEY ,1,135,23466,40.062654,41.253983,44.626110,23.099062,21.917106,87.800361,85.744586,39.469858,40.400664,3.220308
STILL,aom,av2,0,F2,Agapanthus_Postbloom2.y4m,1208x948,24,8,160,0, KEY ,1,160,12701,36.093467,37.818924,42.318846,18.817448,18.253870,75.296198,72.837589,34.266543,37.039504,2.966616
STILL,aom,av2,0,F2,Agapanthus_Postbloom2.y4m,1208x948,24,8,185,0, KEY ,1,185,6431,32.011214,34.114020,40.222294,14.424587,14.325547,53.496068,51.199178,28.968744,33.350468,2.303637
STILL,aom,av2,0,F2,Baruch.y4m,968x1188,24,8,60,0, KEY ,1,60,627725,48.879026,52.302484,53.651240,37.650259,37.065725,96.973852,95.886602,53.631499,47.563232,0.000014
STILL,aom,av2,0,F2,Baruch.y4m,968x1188,24,8,85,0, KEY ,1,85,471441,43.266931,52.001063,53.208656,31.913766,31.949186,95.864211,94.401782,51.944644,44.365690,0.000415
STILL,aom,av2,0,F2,Baruch.y4m,968x1188,24,8,110,0, KEY ,1,110,333777,37.416284,51.323275,52.487068,26.074993,26.284961,92.943156,91.040844,48.156656,40.099725,0.000071
STILL,aom,av2,0,F2,Baruch.y4m,968x1188,24,8,135,0, KEY ,1,135,210677,31.695104,50.335330,51.202412,20.074729,20.283822,85.376776,82.992138,40.118986,35.307342,0.000015
STILL,aom,av2,0,F2,Baruch.y4m,968x1188,24,8,160,0, KEY ,1,160,107944,26.119342,50.979259,48.509101,14.066736,14.390852,68.160765,65.507248,31.231162,30.309453,0.000014
STILL,aom,av2,0,F2,Baruch.y4m,968x1188,24,8,185,0, KEY ,1,185,33836,21.175944,50.178728,47.487648,8.530967,8.829853,41.370715,39.583461,23.682689,25.510393,0.000007
STILL,aom,av2,0,F2,Berlin-Fernsehturm.y4m,1290x856,24,8,60,0, KEY ,1,60,111462,50.029593,51.317139,50.975317,29.391401,28.507888,96.785953,95.954261,48.727408,46.686370,1.706254
STILL,aom,av2,0,F2,Berlin-Fernsehturm.y4m,1290x856,24,8,85,0, KEY ,1,85,52629,46.943726,49.841998,48.950874,24.929458,24.899902,95.558625,94.359419,45.960712,44.789694,7.434398
STILL,aom,av2,0,F2,Berlin-Fernsehturm.y4m,1290x856,24,8,110,0, KEY ,1,110,26239,43.801029,48.186217,46.920159,21.564561,21.878766,92.678770,91.116640,42.983233,43.109479,8.655537
STILL,aom,av2,0,F2,Berlin-Fernsehturm.y4m,1290x856,24,8,135,0, KEY ,1,135,12406,40.392640,46.095527,44.657330,18.481137,18.930848,85.668052,83.690630,39.375189,41.193406,8.520995
STILL,aom,av2,0,F2,Berlin-Fernsehturm.y4m,1290x856,24,8,160,0, KEY ,1,160,5370,36.940174,43.751435,42.161433,15.356411,15.874823,71.073796,69.292472,35.301279,39.060660,8.665771
STILL,aom,av2,0,F2,Berlin-Fernsehturm.y4m,1290x856,24,8,185,0, KEY ,1,185,2089,33.709328,41.181597,39.770895,12.328402,12.941836,49.771251,47.682901,31.220462,36.551232,8.652375
STILL,aom,av2,0,F2,Big_Easy_chair.y4m,1196x1008,24,8,60,0, KEY ,1,60,123699,49.171770,48.860092,49.152539,32.239389,28.072321,96.886449,96.073536,48.846473,47.543054,0.003597
STILL,aom,av2,0,F2,Big_Easy_chair.y4m,1196x1008,24,8,85,0, KEY ,1,85,25388,46.191179,46.394109,47.529277,26.128267,23.546446,96.013565,94.911816,44.887381,44.939344,2.207298
STILL,aom,av2,0,F2,Big_Easy_chair.y4m,1196x1008,24,8,110,0, KEY ,1,110,10086,44.746115,45.706949,46.862642,22.658312,21.380354,94.087133,92.460982,42.571601,43.952285,4.771087
STILL,aom,av2,0,F2,Big_Easy_chair.y4m,1196x1008,24,8,135,0, KEY ,1,135,5080,43.167651,44.745489,45.818857,20.244112,19.702537,89.033684,86.931373,40.426471,42.825279,5.541930
STILL,aom,av2,0,F2,Big_Easy_chair.y4m,1196x1008,24,8,160,0, KEY ,1,160,2735,41.025254,43.063852,44.302639,17.846629,17.851488,79.669604,77.160092,37.801614,41.265063,6.037167
STILL,aom,av2,0,F2,Big_Easy_chair.y4m,1196x1008,24,8,185,0, KEY ,1,185,1483,37.988112,40.717925,42.192530,15.096714,15.443122,65.068372,61.637897,34.257477,38.926648,6.014454
STILL,aom,av2,0,F2,Butterfly.y4m,1420x918,24,8,60,0, KEY ,1,60,223194,49.108253,49.351051,50.733469,31.999470,28.142275,96.900464,96.126124,48.935756,45.986646,0.698044
STILL,aom,av2,0,F2,Butterfly.y4m,1420x918,24,8,85,0, KEY ,1,85,73142,44.559855,46.398101,48.304975,26.818945,23.491829,96.134677,95.017319,45.639553,43.098682,11.461712
STILL,aom,av2,0,F2,Butterfly.y4m,1420x918,24,8,110,0, KEY ,1,110,23784,41.999809,45.015895,46.702383,23.332438,20.535629,93.795014,92.262180,42.367465,41.625212,11.485189
STILL,aom,av2,0,F2,Butterfly.y4m,1420x918,24,8,135,0, KEY ,1,135,10648,40.215996,43.453212,44.915838,20.986600,19.078664,88.054983,86.129689,39.797449,40.546134,11.351175
STILL,aom,av2,0,F2,Butterfly.y4m,1420x918,24,8,160,0, KEY ,1,160,5482,38.125207,41.582008,42.877705,18.809510,17.614473,77.876755,75.501039,36.621104,39.034526,10.865207
STILL,aom,av2,0,F2,Butterfly.y4m,1420x918,24,8,185,0, KEY ,1,185,2861,35.419397,38.716785,39.643509,16.118545,15.561475,60.917089,58.384318,32.514791,36.770791,8.359368
STILL,aom,av2,0,F2,Cecret_Lake_Panorama.y4m,1586x752,24,8,60,0, KEY ,1,60,569669,49.459397,49.891185,49.750932,34.052418,32.827176,96.870100,95.969649,52.949176,47.207746,0.015802
STILL,aom,av2,0,F2,Cecret_Lake_Panorama.y4m,1586x752,24,8,85,0, KEY ,1,85,385029,43.965776,45.124321,45.458841,28.776437,28.014551,95.732396,94.502683,48.896050,42.392878,0.032164
STILL,aom,av2,0,F2,Cecret_Lake_Panorama.y4m,1586x752,24,8,110,0, KEY ,1,110,244525,38.284387,41.463686,42.652805,23.876431,23.378785,92.683747,91.190031,43.631804,38.235842,0.058842
STILL,aom,av2,0,F2,Cecret_Lake_Panorama.y4m,1586x752,24,8,135,0, KEY ,1,135,130743,32.405146,38.981488,40.447583,18.690749,18.375689,84.692061,82.939540,37.010201,34.067862,0.101499
STILL,aom,av2,0,F2,Cecret_Lake_Panorama.y4m,1586x752,24,8,160,0, KEY ,1,160,44885,27.234801,37.020746,38.640743,13.641004,13.310271,66.600326,64.782906,30.092103,30.115244,0.111177
STILL,aom,av2,0,F2,Cecret_Lake_Panorama.y4m,1586x752,24,8,185,0, KEY ,1,185,12189,24.206910,35.238419,36.737229,8.981612,9.074811,37.003140,35.607134,24.101171,27.386593,0.152493
STILL,aom,av2,0,F2,Claudette.y4m,900x1100,24,8,60,0, KEY ,1,60,416723,49.172199,50.472508,50.759584,36.880352,32.659836,96.739169,95.777822,53.113325,46.010797,0.023876
STILL,aom,av2,0,F2,Claudette.y4m,900x1100,24,8,85,0, KEY ,1,85,279885,43.491967,48.570537,49.055365,30.928127,27.125805,95.295543,94.037745,48.937040,42.670308,0.111644
STILL,aom,av2,0,F2,Claudette.y4m,900x1100,24,8,110,0, KEY ,1,110,170367,37.909122,46.987687,47.579060,25.038498,21.639853,91.591947,90.029667,43.004064,39.005111,0.150639
STILL,aom,av2,0,F2,Claudette.y4m,900x1100,24,8,135,0, KEY ,1,135,87099,32.608059,45.310018,46.109434,19.173394,16.573341,82.015951,80.273158,36.154095,34.987237,0.133178
STILL,aom,av2,0,F2,Claudette.y4m,900x1100,24,8,160,0, KEY ,1,160,28689,27.802278,43.236037,44.299725,14.084746,11.966653,61.172397,59.560904,29.739452,31.026930,0.217131
STILL,aom,av2,0,F2,Claudette.y4m,900x1100,24,8,185,0, KEY ,1,185,7468,25.019206,41.002396,42.134579,9.416424,8.151154,30.364713,29.384854,24.340201,28.342687,0.656046
STILL,aom,av2,0,F2,Collage_Oppeln.y4m,904x1280,24,8,60,0, KEY ,1,60,337116,49.456279,50.031103,50.626110,36.169433,31.834368,97.032630,96.283962,51.737261,47.071117,0.028472
STILL,aom,av2,0,F2,Collage_Oppeln.y4m,904x1280,24,8,85,0, KEY ,1,85,204195,44.587357,46.610052,47.402178,31.311932,27.683638,96.175720,95.100075,48.329159,43.295171,0.076445
STILL,aom,av2,0,F2,Collage_Oppeln.y4m,904x1280,24,8,110,0, KEY ,1,110,115877,39.700277,43.587304,44.477190,26.558262,23.411493,93.801412,92.398495,43.481380,39.893389,0.146711
STILL,aom,av2,0,F2,Collage_Oppeln.y4m,904x1280,24,8,135,0, KEY ,1,135,58460,35.019464,40.728367,41.522773,21.735712,19.152390,88.183478,86.227295,37.562200,36.531786,0.181829
STILL,aom,av2,0,F2,Collage_Oppeln.y4m,904x1280,24,8,160,0, KEY ,1,160,25925,30.852390,38.083734,38.849906,17.089957,15.128405,74.885215,72.660887,31.636588,33.291331,0.142846
STILL,aom,av2,0,F2,Collage_Oppeln.y4m,904x1280,24,8,185,0, KEY ,1,185,10069,27.277811,35.572869,36.272426,12.491048,11.275224,53.506240,51.288866,26.135557,30.268154,0.166168
STILL,aom,av2,0,F2,Corona_Arch.y4m,1272x922,24,8,60,0, KEY ,1,60,375452,49.084070,49.408665,49.764443,33.826726,29.834853,96.752576,95.817481,50.881242,50.425504,0.000393
STILL,aom,av2,0,F2,Corona_Arch.y4m,1272x922,24,8,85,0, KEY ,1,85,197751,43.702251,46.894746,45.803036,27.452742,24.213615,95.574729,94.302319,46.417692,45.632679,1.786353
STILL,aom,av2,0,F2,Corona_Arch.y4m,1272x922,24,8,110,0, KEY ,1,110,100088,39.102407,44.983904,42.568958,23.613851,20.879821,92.616238,90.837581,42.633282,42.081780,5.367240
STILL,aom,av2,0,F2,Corona_Arch.y4m,1272x922,24,8,135,0, KEY ,1,135,41002,34.828606,42.954519,39.781654,19.796813,17.150392,84.316888,82.320350,37.126476,38.841461,5.396956
STILL,aom,av2,0,F2,Corona_Arch.y4m,1272x922,24,8,160,0, KEY ,1,160,14872,31.534798,40.735588,37.263053,15.440047,13.405615,66.957431,64.854553,31.518567,36.180984,5.751422
STILL,aom,av2,0,F2,Corona_Arch.y4m,1272x922,24,8,185,0, KEY ,1,185,4816,28.884597,37.852332,34.707680,11.225587,10.132618,38.850786,37.335555,26.894098,33.810368,5.788088
STILL,aom,av2,0,F2,Correfocs_Festa_Major_del_Clot.y4m,1306x870,24,8,60,0, KEY ,1,60,241855,49.206960,50.346591,50.010777,30.932937,29.454019,96.647080,95.662502,50.540432,49.378763,0.298270
STILL,aom,av2,0,F2,Correfocs_Festa_Major_del_Clot.y4m,1306x870,24,8,85,0, KEY ,1,85,121861,45.024272,47.692987,46.660000,25.638734,24.893955,94.983596,93.701621,46.537315,45.835344,1.420360
STILL,aom,av2,0,F2,Correfocs_Festa_Major_del_Clot.y4m,1306x870,24,8,110,0, KEY ,1,110,66158,41.392685,45.357611,43.510202,21.551221,21.386535,91.043562,89.382528,42.409684,43.004038,1.766888
STILL,aom,av2,0,F2,Correfocs_Festa_Major_del_Clot.y4m,1306x870,24,8,135,0, KEY ,1,135,34084,37.427612,43.116713,40.438865,17.403546,17.665356,81.977995,79.951484,37.575209,40.054346,1.796090
STILL,aom,av2,0,F2,Correfocs_Festa_Major_del_Clot.y4m,1306x870,24,8,160,0, KEY ,1,160,15271,33.316781,40.866671,37.176662,13.229451,13.819086,64.359083,62.092894,32.464770,36.922224,1.661084
STILL,aom,av2,0,F2,Correfocs_Festa_Major_del_Clot.y4m,1306x870,24,8,185,0, KEY ,1,185,4649,29.361109,38.547476,33.935048,8.776021,9.634958,35.983875,34.548635,27.321945,33.760522,2.119887
STILL,aom,av2,0,F2,Crepuscular_rays_at_Sunset_near_Waterberg_Plateau.y4m,1402x934,24,8,60,0, KEY ,1,60,401786,49.350325,50.023288,50.019331,34.557860,30.481286,96.122225,94.879247,51.960023,47.692163,0.191823
STILL,aom,av2,0,F2,Crepuscular_rays_at_Sunset_near_Waterberg_Plateau.y4m,1402x934,24,8,85,0, KEY ,1,85,235135,44.362944,46.762415,46.451070,29.011584,25.742356,93.827762,92.294496,47.821924,43.630986,0.508648
STILL,aom,av2,0,F2,Crepuscular_rays_at_Sunset_near_Waterberg_Plateau.y4m,1402x934,24,8,110,0, KEY ,1,110,118926,39.035010,44.141605,43.640452,23.531761,20.672126,88.222597,86.479340,42.255113,39.917508,0.541234
STILL,aom,av2,0,F2,Crepuscular_rays_at_Sunset_near_Waterberg_Plateau.y4m,1402x934,24,8,135,0, KEY ,1,135,40378,34.249752,41.723697,41.273939,17.791468,15.324601,74.471936,72.650823,35.824912,36.376919,0.547858
STILL,aom,av2,0,F2,Crepuscular_rays_at_Sunset_near_Waterberg_Plateau.y4m,1402x934,24,8,160,0, KEY ,1,160,10596,31.287328,39.504201,39.008269,12.622113,11.118521,48.306597,46.840434,30.618905,33.775375,0.743896
STILL,aom,av2,0,F2,Crepuscular_rays_at_Sunset_near_Waterberg_Plateau.y4m,1402x934,24,8,185,0, KEY ,1,185,2999,29.496892,37.070290,36.691148,8.833162,8.340655,17.608295,16.981005,27.195657,31.761370,1.099778
STILL,aom,av2,0,F2,Esquibien_Jean_Perrot.y4m,818x1228,24,8,60,0, KEY ,1,60,385146,49.194206,50.624182,50.626301,32.485534,31.323926,96.911821,96.081024,51.893388,47.042788,0.545656
STILL,aom,av2,0,F2,Esquibien_Jean_Perrot.y4m,818x1228,24,8,85,0, KEY ,1,85,243278,43.653849,48.099700,47.869279,26.902369,26.058582,95.881695,94.737690,47.999221,43.340173,0.772203
STILL,aom,av2,0,F2,Esquibien_Jean_Perrot.y4m,818x1228,24,8,110,0, KEY ,1,110,136116,37.945322,46.605740,46.306689,21.994017,21.174551,93.521802,91.913967,43.020095,39.645242,0.701437
STILL,aom,av2,0,F2,Esquibien_Jean_Perrot.y4m,818x1228,24,8,135,0, KEY ,1,135,51106,32.644951,45.180888,44.820074,16.429738,15.603863,86.764332,84.811318,36.301855,35.650686,0.451619
STILL,aom,av2,0,F2,Esquibien_Jean_Perrot.y4m,818x1228,24,8,160,0, KEY ,1,160,14652,29.422430,43.292958,42.940243,11.816682,11.501510,72.175001,69.701274,30.368203,32.854263,0.656892
STILL,aom,av2,0,F2,Esquibien_Jean_Perrot.y4m,818x1228,24,8,185,0, KEY ,1,185,5418,27.426507,40.917199,40.658679,9.335232,9.495411,51.170540,48.595124,26.552175,31.004786,1.118205
STILL,aom,av2,0,F2,Florac-Le_Vibron-Source_du_Pecher.y4m,1080x874,24,8,60,0, KEY ,1,60,475127,49.245571,49.028715,48.924781,34.138156,32.888356,96.917996,96.159184,53.603915,45.709834,0.021749
STILL,aom,av2,0,F2,Florac-Le_Vibron-Source_du_Pecher.y4m,1080x874,24,8,85,0, KEY ,1,85,296140,43.287137,44.362965,44.246112,28.287124,27.146775,95.965861,94.844773,48.807144,40.829081,0.247456
STILL,aom,av2,0,F2,Florac-Le_Vibron-Source_du_Pecher.y4m,1080x874,24,8,110,0, KEY ,1,110,166939,37.516058,41.477759,41.827584,22.456862,21.403513,93.432089,91.920774,42.766548,37.292832,0.362005
STILL,aom,av2,0,F2,Florac-Le_Vibron-Source_du_Pecher.y4m,1080x874,24,8,135,0, KEY ,1,135,81739,32.473245,39.452820,39.998772,17.059704,16.448512,86.352139,84.361988,36.106211,33.893078,0.511292
STILL,aom,av2,0,F2,Florac-Le_Vibron-Source_du_Pecher.y4m,1080x874,24,8,160,0, KEY ,1,160,30842,28.106666,37.554993,38.332938,12.022416,11.934677,70.179524,68.082529,29.749026,30.641433,0.638161
STILL,aom,av2,0,F2,Florac-Le_Vibron-Source_du_Pecher.y4m,1080x874,24,8,185,0, KEY ,1,185,8855,24.856355,35.622767,36.450901,7.858941,8.234767,44.650487,43.068594,24.418262,28.109391,0.876829
STILL,aom,av2,0,F2,Fontaine_Place_Stanislas.y4m,1390x820,24,8,60,0, KEY ,1,60,284190,49.546052,49.377723,50.781398,31.208820,30.145845,96.965079,96.183430,50.479128,46.133985,5.525141
STILL,aom,av2,0,F2,Fontaine_Place_Stanislas.y4m,1390x820,24,8,85,0, KEY ,1,85,166536,44.975605,46.293538,48.002261,27.100261,26.202690,95.928881,94.796885,47.564060,43.132063,6.556466
STILL,aom,av2,0,F2,Fontaine_Place_Stanislas.y4m,1390x820,24,8,110,0, KEY ,1,110,94835,40.450014,43.350395,45.810689,22.562276,22.138709,93.165301,91.625933,43.105041,40.426878,6.764812
STILL,aom,av2,0,F2,Fontaine_Place_Stanislas.y4m,1390x820,24,8,135,0, KEY ,1,135,49887,35.912426,40.914093,43.916491,18.132349,18.200883,86.314992,84.209821,37.926256,37.660702,7.161719
STILL,aom,av2,0,F2,Fontaine_Place_Stanislas.y4m,1390x820,24,8,160,0, KEY ,1,160,21678,31.476581,38.521762,42.098609,14.482570,14.758173,71.525850,69.221242,32.625037,34.669682,7.188938
STILL,aom,av2,0,F2,Fontaine_Place_Stanislas.y4m,1390x820,24,8,185,0, KEY ,1,185,7367,27.807248,36.302528,40.232268,10.806921,11.276687,45.782557,44.214614,27.100333,31.844491,7.039746
STILL,aom,av2,0,F2,Genmaicha_Tea.y4m,1260x840,24,8,60,0, KEY ,1,60,99585,50.537495,52.083328,51.852556,31.533903,30.844831,97.015343,96.267700,48.456285,49.614315,0.000530
STILL,aom,av2,0,F2,Genmaicha_Tea.y4m,1260x840,24,8,85,0, KEY ,1,85,57041,47.861818,50.204902,49.941262,29.325303,28.932107,96.205856,95.179787,47.261749,47.819348,0.003039
STILL,aom,av2,0,F2,Genmaicha_Tea.y4m,1260x840,24,8,110,0, KEY ,1,110,33300,44.274101,48.254229,48.078240,27.064692,26.908784,94.402667,92.936785,45.622611,45.972285,0.002129
STILL,aom,av2,0,F2,Genmaicha_Tea.y4m,1260x840,24,8,135,0, KEY ,1,135,17759,39.999191,46.230304,45.712069,24.191511,24.134101,89.670792,87.614974,41.934993,43.828872,0.000903
STILL,aom,av2,0,F2,Genmaicha_Tea.y4m,1260x840,24,8,160,0, KEY ,1,160,8412,35.769718,43.905238,42.856102,20.743688,20.867002,79.217603,76.737604,36.552285,40.763918,0.000503
STILL,aom,av2,0,F2,Genmaicha_Tea.y4m,1260x840,24,8,185,0, KEY ,1,185,3593,32.057427,42.086886,40.242407,16.912771,17.073147,60.406705,57.869798,30.985294,38.471356,0.001131
STILL,aom,av2,0,F2,Homestead_in_Montana.y4m,1326x826,24,8,60,0, KEY ,1,60,210471,49.322202,50.062074,50.542489,31.627023,30.228377,96.768329,95.828321,51.013334,49.139642,0.172098
STILL,aom,av2,0,F2,Homestead_in_Montana.y4m,1326x826,24,8,85,0, KEY ,1,85,112274,45.723591,46.886642,46.934857,28.151587,27.160713,95.649384,94.248909,48.129741,45.849377,0.534192
STILL,aom,av2,0,F2,Homestead_in_Montana.y4m,1326x826,24,8,110,0, KEY ,1,110,59612,41.852840,43.923196,43.539957,24.194366,23.682938,92.520439,90.781253,43.509910,42.793126,0.568923
STILL,aom,av2,0,F2,Homestead_in_Montana.y4m,1326x826,24,8,135,0, KEY ,1,135,29592,37.835689,40.844269,40.296629,19.579145,19.640805,85.162095,82.879881,37.651813,39.632705,0.499581
STILL,aom,av2,0,F2,Homestead_in_Montana.y4m,1326x826,24,8,160,0, KEY ,1,160,13831,34.087440,37.929740,37.075458,15.175663,15.680564,68.419803,66.274731,32.092731,36.500290,0.572947
STILL,aom,av2,0,F2,Homestead_in_Montana.y4m,1326x826,24,8,185,0, KEY ,1,185,5710,30.488636,35.231320,34.009695,10.923689,11.730600,43.067184,40.977548,27.077547,33.333661,0.744470
STILL,aom,av2,0,F2,Madeira_151_Funchal_Mercado_dos_Lavradores.y4m,1228x816,24,8,60,0, KEY ,1,60,327330,49.102160,49.164782,49.208155,35.055544,32.493104,96.901522,96.194416,53.875662,48.066004,0.337105
STILL,aom,av2,0,F2,Madeira_151_Funchal_Mercado_dos_Lavradores.y4m,1228x816,24,8,85,0, KEY ,1,85,178031,44.090022,44.923133,45.316369,29.326190,27.370706,95.881098,94.776744,48.900241,43.586736,0.348418
STILL,aom,av2,0,F2,Madeira_151_Funchal_Mercado_dos_Lavradores.y4m,1228x816,24,8,110,0, KEY ,1,110,92782,39.788039,41.237884,42.050729,24.138559,22.862591,93.221425,91.756255,42.747527,39.940738,0.368913
STILL,aom,av2,0,F2,Madeira_151_Funchal_Mercado_dos_Lavradores.y4m,1228x816,24,8,135,0, KEY ,1,135,44867,35.699651,37.794235,38.933556,19.055055,18.476393,86.428940,84.560216,36.228074,36.466342,0.424726
STILL,aom,av2,0,F2,Madeira_151_Funchal_Mercado_dos_Lavradores.y4m,1228x816,24,8,160,0, KEY ,1,160,21031,32.036194,34.660533,35.933044,14.434544,14.545110,71.040704,69.142680,30.449953,33.296804,0.668594
STILL,aom,av2,0,F2,Madeira_151_Funchal_Mercado_dos_Lavradores.y4m,1228x816,24,8,185,0, KEY ,1,185,8811,28.466511,31.739362,32.951035,10.180883,10.777491,45.677249,44.073049,25.345212,30.111871,0.990456
STILL,aom,av2,0,F2,Madeira_159_Funchal_Mercado_dos_Lavradores.y4m,1228x816,24,8,60,0, KEY ,1,60,495773,49.166982,49.222419,49.035430,36.424292,34.180639,97.101423,96.429170,54.193915,46.125993,0.004430
STILL,aom,av2,0,F2,Madeira_159_Funchal_Mercado_dos_Lavradores.y4m,1228x816,24,8,85,0, KEY ,1,85,318667,43.423566,44.882932,44.271818,30.627533,28.672437,96.336102,95.322433,49.656355,41.546773,0.048651
STILL,aom,av2,0,F2,Madeira_159_Funchal_Mercado_dos_Lavradores.y4m,1228x816,24,8,110,0, KEY ,1,110,184166,37.826017,41.066774,40.575446,24.795045,23.100220,94.071777,92.713837,43.472785,37.491629,0.107780
STILL,aom,av2,0,F2,Madeira_159_Funchal_Mercado_dos_Lavradores.y4m,1228x816,24,8,135,0, KEY ,1,135,90366,32.791970,37.436202,37.429290,19.182670,18.045290,88.288449,86.459222,36.574483,33.683600,0.140771
STILL,aom,av2,0,F2,Madeira_159_Funchal_Mercado_dos_Lavradores.y4m,1228x816,24,8,160,0, KEY ,1,160,38898,28.586134,34.433702,34.629603,14.995575,14.397631,74.721062,72.817157,30.555415,30.397390,0.521452
STILL,aom,av2,0,F2,Madeira_159_Funchal_Mercado_dos_Lavradores.y4m,1228x816,24,8,185,0, KEY ,1,185,14585,25.046163,32.015069,32.059207,11.096718,10.975872,52.730089,50.795961,24.823614,27.471885,0.502556
STILL,aom,av2,0,F2,MagicKindom.y4m,1000x1000,24,8,60,0, KEY ,1,60,567557,49.173557,48.790225,48.894903,39.012615,34.746953,96.961236,96.167570,54.934085,48.558614,0.000003
STILL,aom,av2,0,F2,MagicKindom.y4m,1000x1000,24,8,85,0, KEY ,1,85,365780,43.069916,43.936772,43.843315,32.676876,28.478274,95.956835,94.827227,49.652165,42.951054,0.000013
STILL,aom,av2,0,F2,MagicKindom.y4m,1000x1000,24,8,110,0, KEY ,1,110,217446,37.218186,41.313584,41.109750,26.170076,22.621252,93.201261,91.677435,43.333623,38.465040,0.607265
STILL,aom,av2,0,F2,MagicKindom.y4m,1000x1000,24,8,135,0, KEY ,1,135,108163,31.706092,39.294678,38.940762,20.820364,17.725820,86.457737,84.317428,36.589851,34.102782,0.888976
STILL,aom,av2,0,F2,MagicKindom.y4m,1000x1000,24,8,160,0, KEY ,1,160,39726,27.194944,37.303753,37.059487,15.725161,12.929284,69.843613,68.006653,29.633280,30.325402,0.732886
STILL,aom,av2,0,F2,MagicKindom.y4m,1000x1000,24,8,185,0, KEY ,1,185,12119,24.010687,35.268978,35.595027,10.552759,8.735246,42.492920,41.033041,23.566997,27.432660,0.980546
STILL,aom,av2,0,F2,Michigan_Stadium.y4m,1400x934,24,8,60,0, KEY ,1,60,674281,49.258751,49.485362,49.730641,38.166496,33.387615,97.096786,96.394637,53.484593,47.760551,0.029040
STILL,aom,av2,0,F2,Michigan_Stadium.y4m,1400x934,24,8,85,0, KEY ,1,85,468186,43.986696,44.592724,44.920996,33.177925,29.113850,96.285034,95.285993,49.709910,42.880245,0.063484
STILL,aom,av2,0,F2,Michigan_Stadium.y4m,1400x934,24,8,110,0, KEY ,1,110,308199,38.638248,39.547679,40.319475,28.218569,25.074616,94.159455,92.768318,44.497222,38.340566,0.127853
STILL,aom,av2,0,F2,Michigan_Stadium.y4m,1400x934,24,8,135,0, KEY ,1,135,181454,33.123204,34.599363,36.751574,23.116110,20.733782,88.676549,86.664836,37.961076,33.957084,0.124374
STILL,aom,av2,0,F2,Michigan_Stadium.y4m,1400x934,24,8,160,0, KEY ,1,160,86810,27.605223,30.806658,34.246910,18.020611,16.218597,74.299725,72.322715,30.982015,29.821039,0.229414
STILL,aom,av2,0,F2,Michigan_Stadium.y4m,1400x934,24,8,185,0, KEY ,1,185,29100,23.016488,28.405535,32.152281,12.698361,11.245375,48.638173,46.767027,23.949490,26.155872,0.189354
STILL,aom,av2,0,F2,OperaLamps.y4m,1296x864,24,8,60,0, KEY ,1,60,455287,49.244115,49.286835,49.287645,36.077196,33.993086,96.903348,96.097158,54.319323,46.074077,0.662504
STILL,aom,av2,0,F2,OperaLamps.y4m,1296x864,24,8,85,0, KEY ,1,85,280325,44.199566,44.107154,44.423788,31.104426,29.451384,95.767313,94.619571,50.080880,41.221723,1.153665
STILL,aom,av2,0,F2,OperaLamps.y4m,1296x864,24,8,110,0, KEY ,1,110,158641,39.330723,39.668082,40.400841,26.030659,24.884924,93.007154,91.399776,44.004823,37.166693,1.200912
STILL,aom,av2,0,F2,OperaLamps.y4m,1296x864,24,8,135,0, KEY ,1,135,80366,34.515387,35.839297,36.936967,20.741845,20.037852,85.703658,83.731816,36.803891,33.480291,1.042275
STILL,aom,av2,0,F2,OperaLamps.y4m,1296x864,24,8,160,0, KEY ,1,160,36499,30.143047,32.775247,34.346587,15.623985,15.329829,69.136013,67.319950,30.104250,30.156063,0.773716
STILL,aom,av2,0,F2,OperaLamps.y4m,1296x864,24,8,185,0, KEY ,1,185,14078,26.187302,30.269246,32.388617,10.446029,10.675813,41.512972,39.734840,24.091662,27.086170,0.602523
STILL,aom,av2,0,F2,Orion_Nebula.y4m,1200x840,24,8,60,0, KEY ,1,60,145177,49.236964,50.271520,50.848748,30.420200,28.669583,96.130281,94.872147,50.510323,48.070210,0.000036
STILL,aom,av2,0,F2,Orion_Nebula.y4m,1200x840,24,8,85,0, KEY ,1,85,53244,45.347857,47.890005,48.290176,24.215565,23.401434,93.992423,92.374529,45.522469,44.920844,0.010367
STILL,aom,av2,0,F2,Orion_Nebula.y4m,1200x840,24,8,110,0, KEY ,1,110,22153,42.668901,45.892405,45.895916,19.404110,19.585249,88.588284,86.759329,40.830202,42.647120,0.072634
STILL,aom,av2,0,F2,Orion_Nebula.y4m,1200x840,24,8,135,0, KEY ,1,135,9435,40.057665,43.879558,43.415267,15.456238,16.256099,76.729574,74.364835,36.795233,40.423389,0.284608
STILL,aom,av2,0,F2,Orion_Nebula.y4m,1200x840,24,8,160,0, KEY ,1,160,3931,37.383781,41.970886,40.966427,12.218043,13.323343,54.051510,52.475213,33.394914,38.204023,0.981495
STILL,aom,av2,0,F2,Orion_Nebula.y4m,1200x840,24,8,185,0, KEY ,1,185,1562,34.728178,39.702973,38.574302,9.732440,10.824668,28.071351,27.204109,30.460080,35.845776,1.632906
STILL,aom,av2,0,F2,Saint_Catherine-Caravaggio.y4m,876x1140,24,8,60,0, KEY ,1,60,301655,49.204966,49.967124,50.522810,31.376842,29.896103,96.977684,96.319518,51.248248,46.676087,0.000019
STILL,aom,av2,0,F2,Saint_Catherine-Caravaggio.y4m,876x1140,24,8,85,0, KEY ,1,85,142179,42.970609,48.103630,48.267522,24.526624,23.259890,96.163171,95.140791,46.054462,43.409009,1.626721
STILL,aom,av2,0,F2,Saint_Catherine-Caravaggio.y4m,876x1140,24,8,110,0, KEY ,1,110,52596,38.661159,46.428784,46.248603,19.576538,18.745889,93.720068,92.355684,41.060730,40.649036,4.233010
STILL,aom,av2,0,F2,Saint_Catherine-Caravaggio.y4m,876x1140,24,8,135,0, KEY ,1,135,20316,35.858383,44.438380,44.081024,16.060517,15.813265,87.344088,85.554259,36.749798,38.544211,5.319306
STILL,aom,av2,0,F2,Saint_Catherine-Caravaggio.y4m,876x1140,24,8,160,0, KEY ,1,160,8963,33.456241,42.338396,41.720488,13.242665,13.522065,73.981317,71.969318,32.884890,36.573519,6.485380
STILL,aom,av2,0,F2,Saint_Catherine-Caravaggio.y4m,876x1140,24,8,185,0, KEY ,1,185,3686,30.744125,39.890730,39.152833,10.561859,11.166972,53.541615,51.504626,28.930941,34.265260,6.566758
STILL,aom,av2,0,F2,Streptopelia_orientalis.y4m,1404x936,24,8,60,0, KEY ,1,60,246735,48.754876,50.126055,50.926049,37.277902,30.863595,96.896247,96.138416,52.275844,47.775329,0.004782
STILL,aom,av2,0,F2,Streptopelia_orientalis.y4m,1404x936,24,8,85,0, KEY ,1,85,119666,45.321944,46.744106,47.998238,31.609363,27.069934,95.718139,94.620206,47.920074,44.540454,0.018852
STILL,aom,av2,0,F2,Streptopelia_orientalis.y4m,1404x936,24,8,110,0, KEY ,1,110,62551,42.120532,43.316840,45.086099,26.759866,23.642774,93.051496,91.453076,42.888742,41.635907,0.024982
STILL,aom,av2,0,F2,Streptopelia_orientalis.y4m,1404x936,24,8,135,0, KEY ,1,135,32107,38.656947,39.801439,41.887466,21.822074,19.935264,85.946553,83.917841,37.386665,38.427318,0.022589
STILL,aom,av2,0,F2,Streptopelia_orientalis.y4m,1404x936,24,8,160,0, KEY ,1,160,16281,35.073324,36.403248,38.951720,17.115316,16.158234,70.436361,68.299743,32.250729,35.085154,0.018500
STILL,aom,av2,0,F2,Streptopelia_orientalis.y4m,1404x936,24,8,185,0, KEY ,1,185,7595,31.257658,33.287384,36.284933,12.472702,12.237419,45.468439,43.745828,27.413171,31.643398,0.023427
STILL,aom,av2,0,F2,Swallowtail.y4m,1300x900,24,8,60,0, KEY ,1,60,307872,49.001973,50.265813,51.035640,35.758722,30.302554,96.997284,96.269709,51.515551,49.786250,0.009123
STILL,aom,av2,0,F2,Swallowtail.y4m,1300x900,24,8,85,0, KEY ,1,85,128222,43.456763,47.295128,48.165732,29.099471,24.200597,96.111268,95.031395,46.503292,45.194062,0.112816
STILL,aom,av2,0,F2,Swallowtail.y4m,1300x900,24,8,110,0, KEY ,1,110,64562,40.624191,44.378743,45.251646,25.283897,21.752983,93.710481,92.156522,42.791652,42.662680,0.227155
STILL,aom,av2,0,F2,Swallowtail.y4m,1300x900,24,8,135,0, KEY ,1,135,33097,37.413177,41.385028,42.029704,21.345606,18.985380,87.579065,85.377320,37.875256,39.908506,0.298181
STILL,aom,av2,0,F2,Swallowtail.y4m,1300x900,24,8,160,0, KEY ,1,160,16615,33.983232,38.215061,38.822321,17.531964,16.103154,74.173277,71.915647,32.669368,36.890263,0.331592
STILL,aom,av2,0,F2,Swallowtail.y4m,1300x900,24,8,185,0, KEY ,1,185,7669,30.384124,35.236629,35.558129,13.671191,13.004619,53.129576,50.916161,27.590207,33.753937,0.444070
STILL,aom,av2,0,F2,Washington_Monument.y4m,1204x904,24,8,60,0, KEY ,1,60,286570,49.529838,50.806812,50.747048,34.633936,30.548910,96.805787,95.725555,51.519230,47.617395,0.387562
STILL,aom,av2,0,F2,Washington_Monument.y4m,1204x904,24,8,85,0, KEY ,1,85,176562,44.779880,48.789336,48.515671,28.783474,25.738020,95.468933,94.104806,47.499221,44.550987,0.540431
STILL,aom,av2,0,F2,Washington_Monument.y4m,1204x904,24,8,110,0, KEY ,1,110,103169,39.859754,46.828925,46.842654,23.335394,21.108920,92.063290,90.310704,42.416556,41.523694,0.524856
STILL,aom,av2,0,F2,Washington_Monument.y4m,1204x904,24,8,135,0, KEY ,1,135,49995,34.900115,44.592743,45.156444,18.257770,16.547486,82.789984,80.882048,36.827839,38.149419,0.562553
STILL,aom,av2,0,F2,Washington_Monument.y4m,1204x904,24,8,160,0, KEY ,1,160,18035,30.620644,42.305778,43.410112,14.077902,12.906468,64.272346,62.586476,31.733748,34.896386,0.511715
STILL,aom,av2,0,F2,Washington_Monument.y4m,1204x904,24,8,185,0, KEY ,1,185,4900,27.606727,39.975952,41.348442,10.412149,9.794786,36.408034,35.205062,27.141507,32.186382,0.548922
STILL,aom,av2,0,F2,Wasserfassstelle_von_1898_im_Schanerloch.y4m,816x1150,24,8,60,0, KEY ,1,60,388206,49.188237,50.094795,50.275594,34.838048,32.933584,96.967759,96.142390,53.140390,47.605206,0.001332
STILL,aom,av2,0,F2,Wasserfassstelle_von_1898_im_Schanerloch.y4m,816x1150,24,8,85,0, KEY ,1,85,252282,43.553183,47.759631,48.230706,28.952813,27.322412,95.919928,94.774490,48.970456,43.741275,0.012493
STILL,aom,av2,0,F2,Wasserfassstelle_von_1898_im_Schanerloch.y4m,816x1150,24,8,110,0, KEY ,1,110,154701,38.176322,46.204176,46.989761,23.256713,22.189894,92.897494,91.480324,43.338574,39.994119,0.025935
STILL,aom,av2,0,F2,Wasserfassstelle_von_1898_im_Schanerloch.y4m,816x1150,24,8,135,0, KEY ,1,135,81352,32.997466,44.799278,45.608773,17.854441,17.431130,85.818038,83.913109,36.817364,36.006158,0.057995
STILL,aom,av2,0,F2,Wasserfassstelle_von_1898_im_Schanerloch.y4m,816x1150,24,8,160,0, KEY ,1,160,32577,28.353355,43.094998,43.548232,13.072391,13.114683,68.098317,66.289034,30.379521,32.179357,0.206559
STILL,aom,av2,0,F2,Wasserfassstelle_von_1898_im_Schanerloch.y4m,816x1150,24,8,185,0, KEY ,1,185,10239,24.912313,40.933193,40.776646,8.890272,9.308257,40.855612,39.331076,24.524207,28.981356,0.368764
STILL,aom,av2,0,F2,Zoo_de_la_Barben.y4m,1296x864,24,8,60,0, KEY ,1,60,144049,48.715335,50.317259,50.401592,29.587706,28.081333,96.687808,95.822386,48.747326,44.987140,0.401183
STILL,aom,av2,0,F2,Zoo_de_la_Barben.y4m,1296x864,24,8,85,0, KEY ,1,85,57787,45.759376,48.432757,48.418627,26.093065,25.128760,95.615968,94.273624,46.595711,43.339173,9.563950
STILL,aom,av2,0,F2,Zoo_de_la_Barben.y4m,1296x864,24,8,110,0, KEY ,1,110,27630,43.018529,46.398011,46.293341,23.500004,22.871781,92.810561,91.009289,43.986660,41.959276,9.019402
STILL,aom,av2,0,F2,Zoo_de_la_Barben.y4m,1296x864,24,8,135,0, KEY ,1,135,11823,39.846802,43.980238,43.859723,19.796763,19.671612,86.090588,83.794419,39.621358,40.329596,8.862630
STILL,aom,av2,0,F2,Zoo_de_la_Barben.y4m,1296x864,24,8,160,0, KEY ,1,160,4688,36.881647,41.565026,41.339944,15.842047,16.277035,71.836061,69.285484,34.898522,38.321287,8.424608
STILL,aom,av2,0,F2,Zoo_de_la_Barben.y4m,1296x864,24,8,185,0, KEY ,1,185,1992,34.193750,39.297152,38.836178,12.427075,13.159615,50.622798,48.169758,30.944004,36.119845,7.949986
