TestCfg,EncodeMethod,CodecName,EncodePreset,Class,Name,Res,FPS,BitDepth,QP,POC,FrameType,Level,qindex,FrameSize,PSNR_Y,PSNR_U,PSNR_V,SSIM_Y(dB),MS-SSIM_Y(dB),VMAF_Y,VMAF_Y-NEG,PSNR-HVS,CIEDE2000,CAMBI
STILL,aom,av2,0,F1,animals_00.y4m,4032x3024,25,8,60,0, KEY ,1,60,5819325,48.913797,49.958127,51.209718,50.574026,34.577238,97.020579,96.390634,54.513601,48.140942,0.000002
STILL,aom,av2,0,F1,animals_00.y4m,4032x3024,25,8,85,0, KEY ,1,85,3819452,42.874224,46.105077,48.497941,44.773081,28.470800,96.231897,95.285758,49.763070,43.488773,0.000015
STILL,aom,av2,0,F1,animals_00.y4m,4032x3024,25,8,110,0, KEY ,1,110,2075642,36.837163,42.973803,46.121601,38.534673,22.233459,94.103336,92.720705,43.261661,38.894991,0.000403
STILL,aom,av2,0,F1,animals_00.y4m,4032x3024,25,8,135,0, KEY ,1,135,927179,32.212757,40.350544,43.831248,32.282520,17.614003,88.528219,86.476926,36.428727,35.054587,0.001821
STILL,aom,av2,0,F1,animals_00.y4m,4032x3024,25,8,160,0, KEY ,1,160,430129,28.798682,37.841843,41.660107,26.104873,14.262520,73.836839,71.664674,30.250519,32.041336,0.008258
STILL,aom,av2,0,F1,animals_00.y4m,4032x3024,25,8,185,0, KEY ,1,185,190066,25.409872,35.167783,39.417768,20.240253,10.709852,49.748006,47.897511,24.479268,28.924068,0.019122
STILL,aom,av2,0,F1,animals_03.y4m,4032x3024,25,8,60,0, KEY ,1,60,4030843,48.877182,50.854424,51.211128,46.140597,31.466595,96.636957,95.891261,52.813637,48.309254,0.000011
STILL,aom,av2,0,F1,animals_03.y4m,4032x3024,25,8,85,0, KEY ,1,85,2239111,42.981176,48.526117,48.887971,40.651527,25.395554,95.214553,94.209252,47.903197,44.283807,0.002347
STILL,aom,av2,0,F1,animals_03.y4m,4032x3024,25,8,110,0, KEY ,1,110,952149,37.911634,46.411646,46.908372,34.545309,19.816159,92.255984,90.633067,41.581464,40.619575,0.210753
STILL,aom,av2,0,F1,animals_03.y4m,4032x3024,25,8,135,0, KEY ,1,135,349200,34.344071,44.349531,45.033307,28.534303,15.363216,84.273995,82.090313,35.184475,37.735709,1.028066
STILL,aom,av2,0,F1,animals_03.y4m,4032x3024,25,8,160,0, KEY ,1,160,147115,31.849743,42.545097,42.897880,23.335673,12.322961,67.276046,65.265001,30.260502,35.447975,1.829303
STILL,aom,av2,0,F1,animals_03.y4m,4032x3024,25,8,185,0, KEY ,1,185,65493,29.298087,40.648006,40.649344,18.203121,9.735643,42.645063,41.228974,26.186572,33.029419,1.756754
STILL,aom,av2,0,F1,animals_09.y4m,4032x3024,25,8,60,0, KEY ,1,60,1107503,51.356018,55.791777,56.352239,44.045184,29.469276,96.561837,95.387111,50.895188,54.365055,0.015990
STILL,aom,av2,0,F1,animals_09.y4m,4032x3024,25,8,85,0, KEY ,1,85,556180,47.634858,53.369379,54.081321,38.203994,24.828000,95.425573,93.791468,46.472553,50.160535,0.044738
STILL,aom,av2,0,F1,animals_09.y4m,4032x3024,25,8,110,0, KEY ,1,110,268784,43.912222,51.129638,52.086528,32.353146,20.477979,91.920257,89.864770,41.571225,46.688729,0.179668
STILL,aom,av2,0,F1,animals_09.y4m,4032x3024,25,8,135,0, KEY ,1,135,115367,40.244641,48.608764,49.838356,26.185536,16.390070,82.768589,80.545083,36.804029,43.321420,0.570181
STILL,aom,av2,0,F1,animals_09.y4m,4032x3024,25,8,160,0, KEY ,1,160,46288,37.159945,45.668036,46.914238,20.529759,13.398256,65.472671,63.578678,33.176796,40.294758,0.867851
STILL,aom,av2,0,F1,animals_09.y4m,4032x3024,25,8,185,0, KEY ,1,185,20070,34.520090,41.965867,43.409640,15.878661,11.261749,46.847057,45.462688,30.290048,37.477041,1.129734
STILL,aom,av2,0,F1,buildings_02.y4m,4032x3024,25,8,60,0, KEY ,1,60,2924130,49.112444,53.004985,53.765090,41.888901,29.635962,97.220262,96.646019,50.308732,50.328072,0.853891
STILL,aom,av2,0,F1,buildings_02.y4m,4032x3024,25,8,85,0, KEY ,1,85,1525729,43.937184,50.743227,51.448389,35.971492,24.721444,96.848417,95.919432,46.635234,46.254397,5.789752
STILL,aom,av2,0,F1,buildings_02.y4m,4032x3024,25,8,110,0, KEY ,1,110,797336,40.021738,48.600502,49.354347,31.962707,22.243710,95.531476,94.120604,43.752230,43.367737,11.080701
STILL,aom,av2,0,F1,buildings_02.y4m,4032x3024,25,8,135,0, KEY ,1,135,422282,36.348920,46.486348,47.319575,29.496390,20.585855,91.784791,89.680793,40.385736,40.838068,11.046518
STILL,aom,av2,0,F1,buildings_02.y4m,4032x3024,25,8,160,0, KEY ,1,160,206614,32.532482,44.018969,44.955397,26.071954,18.332587,82.542102,79.858951,35.521102,38.048485,10.560930
STILL,aom,av2,0,F1,buildings_02.y4m,4032x3024,25,8,185,0, KEY ,1,185,89464,28.674691,41.371501,42.067962,21.766823,15.086215,66.591649,63.490554,29.661195,34.970497,8.831000
STILL,aom,av2,0,F1,buildings_03.y4m,4032x3024,25,8,60,0, KEY ,1,60,6256090,48.848492,51.089195,50.927577,49.841706,37.976174,97.099975,96.435018,55.461813,47.424126,0.001448
STILL,aom,av2,0,F1,buildings_03.y4m,4032x3024,25,8,85,0, KEY ,1,85,4324545,42.888956,48.144056,47.839999,43.973506,31.835933,96.375958,95.350784,51.057148,43.138931,0.004780
STILL,aom,av2,0,F1,buildings_03.y4m,4032x3024,25,8,110,0, KEY ,1,110,2694684,37.077074,45.628467,45.291058,37.893534,25.968132,94.458087,92.910510,45.243379,38.936012,0.005063
STILL,aom,av2,0,F1,buildings_03.y4m,4032x3024,25,8,135,0, KEY ,1,135,1439920,31.822953,43.265360,42.789810,31.706817,20.758512,89.053966,86.917608,38.044847,34.838361,0.011586
STILL,aom,av2,0,F1,buildings_03.y4m,4032x3024,25,8,160,0, KEY ,1,160,676225,27.420659,40.912490,40.231427,25.530103,16.069067,74.844195,72.450417,30.445207,31.090399,0.028847
STILL,aom,av2,0,F1,buildings_03.y4m,4032x3024,25,8,185,0, KEY ,1,185,283033,23.603587,38.486651,37.856654,19.382859,11.688978,49.892448,47.918565,23.622519,27.520518,0.058060
STILL,aom,av2,0,F1,church.y4m,6000x4000,25,8,60,0, KEY ,1,60,1966556,51.537299,52.320878,52.369209,45.070494,29.143309,96.451322,95.534593,49.441302,52.104242,0.515232
STILL,aom,av2,0,F1,church.y4m,6000x4000,25,8,85,0, KEY ,1,85,764247,47.969529,49.897784,50.061568,38.820999,25.030708,94.681073,93.427320,45.931511,48.720743,1.579851
STILL,aom,av2,0,F1,church.y4m,6000x4000,25,8,110,0, KEY ,1,110,353902,45.309838,47.650284,48.097112,33.497165,22.060375,90.799775,89.176449,42.791540,46.335804,2.048872
STILL,aom,av2,0,F1,church.y4m,6000x4000,25,8,135,0, KEY ,1,135,167572,42.333181,45.027763,45.867201,28.143139,18.867425,82.497946,80.383506,39.033634,43.757546,2.444172
STILL,aom,av2,0,F1,church.y4m,6000x4000,25,8,160,0, KEY ,1,160,75168,39.118766,42.104118,43.342519,22.897571,15.575158,66.329266,64.137737,35.145801,40.965423,3.143557
STILL,aom,av2,0,F1,church.y4m,6000x4000,25,8,185,0, KEY ,1,185,30835,35.871610,38.836845,40.481624,17.840674,12.451926,43.528736,41.634177,31.456043,37.991668,3.736169
STILL,aom,av2,0,F1,fireworks_01.y4m,4032x3024,25,8,60,0, KEY ,1,60,4340442,49.051113,55.086276,53.309096,41.747270,30.171427,96.423921,95.772039,53.173243,52.132152,0.000008
STILL,aom,av2,0,F1,fireworks_01.y4m,4032x3024,25,8,85,0, KEY ,1,85,2602164,43.053673,52.926418,51.725764,36.166219,24.062898,95.022165,94.042167,48.289758,47.685654,0.000134
STILL,aom,av2,0,F1,fireworks_01.y4m,4032x3024,25,8,110,0, KEY ,1,110,1064439,37.095630,50.576378,49.945424,29.809380,17.485821,91.590805,90.197675,40.973902,42.884233,0.000969
STILL,aom,av2,0,F1,fireworks_01.y4m,4032x3024,25,8,135,0, KEY ,1,135,229104,33.106113,47.944517,47.827128,23.413083,11.552641,83.330449,81.713874,33.975973,39.214242,0.258966
STILL,aom,av2,0,F1,fireworks_01.y4m,4032x3024,25,8,160,0, KEY ,1,160,49400,31.517280,44.801444,44.910598,17.234442,8.670511,67.277818,65.920228,30.383283,37.456515,9.672548
STILL,aom,av2,0,F1,fireworks_01.y4m,4032x3024,25,8,185,0, KEY ,1,185,21659,30.680177,41.216984,41.245194,14.742840,8.075463,52.562445,51.500239,28.781296,36.125010,14.215988
STILL,aom,av2,0,F1,flowerfield.y4m,3696x2448,25,8,60,0, KEY ,1,60,1284986,51.605050,51.594680,51.996079,48.463220,32.452109,96.848732,96.091831,52.930158,53.679226,0.002542
STILL,aom,av2,0,F1,flowerfield.y4m,3696x2448,25,8,85,0, KEY ,1,85,677886,47.498696,47.271311,47.819441,42.076866,27.586076,95.719391,94.609186,47.802546,48.911657,0.005650
STILL,aom,av2,0,F1,flowerfield.y4m,3696x2448,25,8,110,0, KEY ,1,110,352539,43.845316,43.468886,44.313451,36.144857,23.857025,92.673642,91.194611,42.675436,45.349063,0.005872
STILL,aom,av2,0,F1,flowerfield.y4m,3696x2448,25,8,135,0, KEY ,1,135,184739,40.218471,39.870416,40.892387,30.262003,20.203433,85.482632,83.607026,37.460526,41.896123,0.006976
STILL,aom,av2,0,F1,flowerfield.y4m,3696x2448,25,8,160,0, KEY ,1,160,95041,36.436414,36.408362,37.561179,24.379685,16.511563,69.825894,67.918156,32.534406,38.327980,0.008007
STILL,aom,av2,0,F1,flowerfield.y4m,3696x2448,25,8,185,0, KEY ,1,185,46757,32.624014,33.070840,34.053087,19.063790,13.035187,47.125497,45.382806,28.042744,34.702504,0.020948
STILL,aom,av2,0,F1,flowers_08.y4m,4032x3024,25,8,60,0, KEY ,1,60,5321259,48.846263,50.206820,51.514680,50.515336,33.415706,97.092399,96.495868,54.109913,49.024784,0.009281
STILL,aom,av2,0,F1,flowers_08.y4m,4032x3024,25,8,85,0, KEY ,1,85,3329143,42.945787,45.851570,47.982383,44.605438,27.418188,96.388730,95.464481,49.113955,44.053089,0.016165
STILL,aom,av2,0,F1,flowers_08.y4m,4032x3024,25,8,110,0, KEY ,1,110,1865432,37.748444,42.168838,44.662356,38.477781,22.481874,94.428435,93.044555,42.954089,39.772237,0.030552
STILL,aom,av2,0,F1,flowers_08.y4m,4032x3024,25,8,135,0, KEY ,1,135,969691,33.294867,39.073571,41.678645,32.390240,18.527504,89.206445,87.084072,36.657256,36.064371,0.052083
STILL,aom,av2,0,F1,flowers_08.y4m,4032x3024,25,8,160,0, KEY ,1,160,465345,29.295580,36.044545,38.804789,26.515233,14.687080,75.275820,73.002364,30.433925,32.634708,0.088186
STILL,aom,av2,0,F1,flowers_08.y4m,4032x3024,25,8,185,0, KEY ,1,185,210116,25.640776,32.843627,35.865848,20.597963,10.836762,52.073197,50.189402,24.532713,29.269296,0.160568
STILL,aom,av2,0,F1,flowers_12.y4m,4032x3024,25,8,60,0, KEY ,1,60,4149290,48.701288,52.064958,53.283498,51.528379,33.773063,97.112625,96.602926,54.262147,49.250639,0.000198
STILL,aom,av2,0,F1,flowers_12.y4m,4032x3024,25,8,85,0, KEY ,1,85,2386100,43.005163,49.287958,50.894261,45.705434,27.887023,96.446856,95.670556,49.341057,44.571524,0.000179
STILL,aom,av2,0,F1,flowers_12.y4m,4032x3024,25,8,110,0, KEY ,1,110,1191921,38.221199,46.632591,48.354023,39.610838,22.932229,94.564559,93.446899,42.904831,40.569389,0.000932
STILL,aom,av2,0,F1,flowers_12.y4m,4032x3024,25,8,135,0, KEY ,1,135,561150,34.384101,43.839543,45.679668,33.402077,18.952560,89.537614,87.925203,36.387457,37.186323,0.014807
STILL,aom,av2,0,F1,flowers_12.y4m,4032x3024,25,8,160,0, KEY ,1,160,277749,31.108112,41.010310,42.928757,27.366206,15.408595,77.890671,75.797476,30.563785,34.145763,0.041118
STILL,aom,av2,0,F1,flowers_12.y4m,4032x3024,25,8,185,0, KEY ,1,185,135314,27.698048,38.180134,40.176219,21.398685,11.714719,57.570871,55.727740,25.274302,30.975013,0.068742
STILL,aom,av2,0,F1,food_02.y4m,4032x3024,25,8,60,0, KEY ,1,60,3132025,48.674460,53.415869,54.421909,45.600779,29.986989,97.042737,96.341411,52.394901,50.864490,0.000497
STILL,aom,av2,0,F1,food_02.y4m,4032x3024,25,8,85,0, KEY ,1,85,1491520,43.304819,50.756644,52.255032,39.311364,23.881685,96.393556,95.310009,47.052479,46.072888,0.003755
STILL,aom,av2,0,F1,food_02.y4m,4032x3024,25,8,110,0, KEY ,1,110,638727,39.257152,48.169540,50.074321,33.008544,18.717626,94.017866,92.628061,40.729511,42.446686,0.018774
STILL,aom,av2,0,F1,food_02.y4m,4032x3024,25,8,135,0, KEY ,1,135,252526,36.068745,45.463458,47.725350,27.796608,15.349718,87.642253,85.819747,35.687756,39.527582,0.130250
STILL,aom,av2,0,F1,food_02.y4m,4032x3024,25,8,160,0, KEY ,1,160,109422,33.457491,42.478926,44.994336,22.822108,12.889585,74.400359,72.281559,31.714075,37.072622,0.268710
STILL,aom,av2,0,F1,food_02.y4m,4032x3024,25,8,185,0, KEY ,1,185,45407,30.629847,38.985165,41.784854,17.595840,10.231083,55.276514,53.303566,27.717949,34.379246,1.015923
STILL,aom,av2,0,F1,fountain.y4m,6406x4270,25,8,60,0, KEY ,1,60,7471709,48.978823,52.184697,52.674474,49.108527,30.215891,96.672479,95.753535,52.119780,51.499772,0.000088
STILL,aom,av2,0,F1,fountain.y4m,6406x4270,25,8,85,0, KEY ,1,85,3962503,43.432212,49.461421,50.116455,43.387936,24.333728,95.227902,94.063815,47.313008,46.531356,0.000520
STILL,aom,av2,0,F1,fountain.y4m,6406x4270,25,8,110,0, KEY ,1,110,1519272,38.544959,46.757932,47.440043,37.387147,18.825146,92.096939,90.543596,41.328106,42.074196,0.001437
STILL,aom,av2,0,F1,fountain.y4m,6406x4270,25,8,135,0, KEY ,1,135,468211,35.390370,43.832826,44.526932,31.513682,15.315780,84.937401,82.883740,36.341312,39.023986,0.386298
STILL,aom,av2,0,F1,fountain.y4m,6406x4270,25,8,160,0, KEY ,1,160,209887,33.501549,40.648274,41.287123,26.275075,13.419524,70.690073,68.422503,32.429991,36.998413,0.612158
STILL,aom,av2,0,F1,fountain.y4m,6406x4270,25,8,185,0, KEY ,1,185,91597,31.081481,37.154942,37.797927,21.153472,11.027418,48.551990,46.404391,28.292829,34.537685,0.497650
STILL,aom,av2,0,F1,lady.y4m,4480x6720,25,8,60,0, KEY ,1,60,5626800,48.901657,55.981154,55.697730,45.676640,27.877114,96.379353,95.549535,50.067827,50.412080,0.097008
STILL,aom,av2,0,F1,lady.y4m,4480x6720,25,8,85,0, KEY ,1,85,1960120,43.455696,54.088294,53.594222,39.041582,21.646471,94.996796,93.928243,45.048715,45.421933,0.873134
STILL,aom,av2,0,F1,lady.y4m,4480x6720,25,8,110,0, KEY ,1,110,400359,40.537304,52.139830,51.450210,33.332940,18.048848,92.094369,90.665586,41.203969,42.638086,5.597744
STILL,aom,av2,0,F1,lady.y4m,4480x6720,25,8,135,0, KEY ,1,135,160663,39.199056,49.886994,49.189091,28.996560,16.428092,84.563822,82.737827,38.545311,41.327390,5.664741
STILL,aom,av2,0,F1,lady.y4m,4480x6720,25,8,160,0, KEY ,1,160,64890,37.559928,47.256665,46.771267,24.155711,14.574278,68.973447,67.393915,35.613171,39.733655,5.724494
STILL,aom,av2,0,F1,lady.y4m,4480x6720,25,8,185,0, KEY ,1,185,25238,35.599401,44.007671,43.524032,19.096232,12.525863,47.119397,45.812875,32.638004,37.783705,5.515438
STILL,aom,av2,0,F1,landscape_05.y4m,4032x3024,25,8,60,0, KEY ,1,60,4384759,48.879060,51.293500,52.095191,48.181797,32.103714,96.953166,96.343107,53.523704,49.881149,0.000002
STILL,aom,av2,0,F1,landscape_05.y4m,4032x3024,25,8,85,0, KEY ,1,85,2628105,43.193822,47.782029,48.976056,42.317248,26.233987,96.090850,95.179860,48.510999,44.859797,0.000074
STILL,aom,av2,0,F1,landscape_05.y4m,4032x3024,25,8,110,0, KEY ,1,110,1336993,38.110442,44.548176,45.940590,36.466540,20.774672,93.887238,92.533031,42.156222,40.458273,0.012651
STILL,aom,av2,0,F1,landscape_05.y4m,4032x3024,25,8,135,0, KEY ,1,135,638465,34.239186,41.568693,42.942436,30.724010,17.006746,87.527916,85.714100,36.129196,37.031763,0.052610
STILL,aom,av2,0,F1,landscape_05.y4m,4032x3024,25,8,160,0, KEY ,1,160,311130,30.826132,38.662092,40.124393,24.904963,13.776433,72.668238,70.762106,30.609197,34.032244,0.110998
STILL,aom,av2,0,F1,landscape_05.y4m,4032x3024,25,8,185,0, KEY ,1,185,139915,27.279559,35.550297,36.991210,19.128114,10.413775,49.740804,48.014013,25.244862,30.880069,0.253687
STILL,aom,av2,0,F1,landscape_15.y4m,4032x3024,25,8,60,0, KEY ,1,60,2901419,49.600937,53.495851,54.102210,44.302318,30.498942,97.019817,96.302760,51.298902,50.691735,0.936129
STILL,aom,av2,0,F1,landscape_15.y4m,4032x3024,25,8,85,0, KEY ,1,85,1683972,44.428369,51.184317,51.776124,38.355538,25.442575,96.252467,95.199797,47.228109,46.443322,2.808879
STILL,aom,av2,0,F1,landscape_15.y4m,4032x3024,25,8,110,0, KEY ,1,110,868789,39.713010,48.932910,49.602599,33.943237,21.248081,93.923702,92.490797,42.608982,42.822176,3.412589
STILL,aom,av2,0,F1,landscape_15.y4m,4032x3024,25,8,135,0, KEY ,1,135,408101,35.693581,46.629819,47.588647,29.182734,17.636850,87.924615,85.951646,37.366371,39.615701,3.380214
STILL,aom,av2,0,F1,landscape_15.y4m,4032x3024,25,8,160,0, KEY ,1,160,189103,32.229581,44.009488,45.331092,24.290414,14.441549,74.428169,72.153355,32.075765,36.651184,3.493698
STILL,aom,av2,0,F1,landscape_15.y4m,4032x3024,25,8,185,0, KEY ,1,185,80097,28.837962,41.135818,42.528759,19.382657,11.368751,52.930619,50.894290,26.955443,33.679890,3.424061
STILL,aom,av2,0,F1,landscape_16.y4m,4032x3024,25,8,60,0, KEY ,1,60,1593534,50.551740,57.110622,57.966598,42.685515,29.734260,96.921330,96.102100,51.459286,53.007839,0.000002
STILL,aom,av2,0,F1,landscape_16.y4m,4032x3024,25,8,85,0, KEY ,1,85,892039,46.455567,54.854632,55.664155,36.674534,24.829524,96.036231,94.848522,46.866654,48.749405,0.000057
STILL,aom,av2,0,F1,landscape_16.y4m,4032x3024,25,8,110,0, KEY ,1,110,480501,42.320382,52.869190,53.612896,30.886655,20.278095,93.800260,91.959890,41.646770,45.144017,0.000524
STILL,aom,av2,0,F1,landscape_16.y4m,4032x3024,25,8,135,0, KEY ,1,135,238316,38.307407,50.679607,51.346951,25.518281,16.286280,86.904060,84.613439,36.556733,41.734806,0.021224
STILL,aom,av2,0,F1,landscape_16.y4m,4032x3024,25,8,160,0, KEY ,1,160,114411,34.669768,48.309322,49.224445,21.308571,13.262754,71.014018,68.904423,32.051014,38.402805,0.184586
STILL,aom,av2,0,F1,landscape_16.y4m,4032x3024,25,8,185,0, KEY ,1,185,49272,31.159157,45.441588,46.726074,16.620512,10.294788,48.540815,47.093825,27.698198,34.915618,0.699972
STILL,aom,av2,0,F1,landscape_18.y4m,4032x3024,25,8,60,0, KEY ,1,60,2639647,49.689925,54.419798,55.969340,41.044751,29.967935,96.967994,96.191811,50.373756,51.192473,1.143277
STILL,aom,av2,0,F1,landscape_18.y4m,4032x3024,25,8,85,0, KEY ,1,85,1519290,44.657527,52.341171,54.143990,35.781201,25.680379,95.978910,94.902146,47.368891,47.256215,1.296220
STILL,aom,av2,0,F1,landscape_18.y4m,4032x3024,25,8,110,0, KEY ,1,110,677423,39.559134,50.378940,52.416503,31.762392,21.111816,93.442698,91.950122,43.232261,43.502068,1.280972
STILL,aom,av2,0,F1,landscape_18.y4m,4032x3024,25,8,135,0, KEY ,1,135,262617,35.970749,48.428640,50.519168,27.619626,17.174344,86.926102,84.848900,37.858209,40.582518,1.322380
STILL,aom,av2,0,F1,landscape_18.y4m,4032x3024,25,8,160,0, KEY ,1,160,109965,33.199093,46.241661,48.238598,22.664476,14.073664,71.381201,69.125337,33.017717,38.094408,1.446639
STILL,aom,av2,0,F1,landscape_18.y4m,4032x3024,25,8,185,0, KEY ,1,185,42208,30.372462,43.724176,45.407622,17.673149,11.260970,49.524361,47.496631,28.668892,35.527571,1.669379
STILL,aom,av2,0,F1,landscape_25.y4m,4032x3024,25,8,60,0, KEY ,1,60,5143247,48.945429,49.414722,51.090048,42.268968,31.382168,96.524979,95.659847,53.203528,47.202132,0.005842
STILL,aom,av2,0,F1,landscape_25.y4m,4032x3024,25,8,85,0, KEY ,1,85,3186043,42.998728,45.838498,48.965120,36.564008,25.253763,94.923737,93.782319,48.461744,42.924568,0.007339
STILL,aom,av2,0,F1,landscape_25.y4m,4032x3024,25,8,110,0, KEY ,1,110,1591156,37.131084,44.152336,47.628470,30.538131,19.107675,91.792540,90.013580,41.900554,39.351593,0.014309
STILL,aom,av2,0,F1,landscape_25.y4m,4032x3024,25,8,135,0, KEY ,1,135,545145,32.378753,42.960210,46.443566,24.535809,13.124120,82.427507,80.204735,34.478803,36.003015,0.404716
STILL,aom,av2,0,F1,landscape_25.y4m,4032x3024,25,8,160,0, KEY ,1,160,115062,29.191579,41.751757,45.164509,18.662292,8.301601,63.714194,61.898095,28.539584,33.418725,3.645640
STILL,aom,av2,0,F1,landscape_25.y4m,4032x3024,25,8,185,0, KEY ,1,185,30437,27.827985,40.125067,43.075158,14.600022,6.534233,44.463837,43.273044,25.960521,32.023069,6.947469
STILL,aom,av2,0,F1,landscape_26.y4m,4032x3024,25,8,60,0, KEY ,1,60,3090995,49.258477,53.282038,53.403278,43.537311,29.962914,96.913500,96.003551,51.005636,50.244765,0.512650
STILL,aom,av2,0,F1,landscape_26.y4m,4032x3024,25,8,85,0, KEY ,1,85,1681127,43.822693,51.469313,51.707159,37.814569,24.711409,95.858240,94.603230,47.058432,46.056270,0.661769
STILL,aom,av2,0,F1,landscape_26.y4m,4032x3024,25,8,110,0, KEY ,1,110,748940,39.074820,49.794769,50.103138,32.728483,20.336319,93.127622,91.354779,42.388769,42.371707,0.704517
STILL,aom,av2,0,F1,landscape_26.y4m,4032x3024,25,8,135,0, KEY ,1,135,306933,35.628326,47.890587,48.317694,27.854662,16.854084,85.361589,83.228540,37.267951,39.566830,0.742081
STILL,aom,av2,0,F1,landscape_26.y4m,4032x3024,25,8,160,0, KEY ,1,160,132656,32.732952,45.755642,46.230948,22.743745,13.771516,69.589493,67.208314,32.446353,37.080922,0.809903
STILL,aom,av2,0,F1,landscape_26.y4m,4032x3024,25,8,185,0, KEY ,1,185,51940,29.677865,42.998761,43.682519,17.529120,10.539025,45.690058,43.755998,27.762258,34.364059,0.870162
STILL,aom,av2,0,F1,landscape_28.y4m,4032x3024,25,8,60,0, KEY ,1,60,3374511,49.110566,51.432603,53.167125,40.249647,29.689190,97.079537,96.491537,51.175879,50.506623,0.329195
STILL,aom,av2,0,F1,landscape_28.y4m,4032x3024,25,8,85,0, KEY ,1,85,1837829,43.730994,48.351393,50.270670,34.209897,24.069777,96.372219,95.484471,46.849169,46.515377,1.690319
STILL,aom,av2,0,F1,landscape_28.y4m,4032x3024,25,8,110,0, KEY ,1,110,916249,39.270378,45.665808,47.547245,30.306776,19.324770,94.435286,93.168061,41.466026,43.092364,4.602608
STILL,aom,av2,0,F1,landscape_28.y4m,4032x3024,25,8,135,0, KEY ,1,135,425138,35.461764,43.130365,45.009843,27.271407,16.573585,89.243974,87.421779,37.007459,40.052664,9.909158
STILL,aom,av2,0,F1,landscape_28.y4m,4032x3024,25,8,160,0, KEY ,1,160,194016,32.121831,40.666878,42.534300,23.861038,14.514881,77.064469,74.788257,32.359700,37.191796,10.151797
STILL,aom,av2,0,F1,landscape_28.y4m,4032x3024,25,8,185,0, KEY ,1,185,84806,28.883886,38.133759,39.823602,18.658090,11.955474,55.995196,53.923768,27.334239,34.179931,9.310870
STILL,aom,av2,0,F1,lodge.y4m,6000x4000,25,8,60,0, KEY ,1,60,6898033,48.855362,51.386079,51.764220,45.715074,29.960506,96.591015,95.622837,51.459305,49.709958,0.000008
STILL,aom,av2,0,F1,lodge.y4m,6000x4000,25,8,85,0, KEY ,1,85,3708833,43.695995,47.766888,48.538362,39.721096,24.525618,95.010043,93.739558,47.037381,44.967939,0.010501
STILL,aom,av2,0,F1,lodge.y4m,6000x4000,25,8,110,0, KEY ,1,110,1750290,39.290950,44.592244,45.695880,34.436830,19.869619,91.508809,89.829246,41.897585,41.095642,0.412670
STILL,aom,av2,0,F1,lodge.y4m,6000x4000,25,8,135,0, KEY ,1,135,835678,35.665242,41.494404,43.027127,29.058639,16.538064,82.755667,80.727173,36.589687,37.962198,0.782526
STILL,aom,av2,0,F1,lodge.y4m,6000x4000,25,8,160,0, KEY ,1,160,362373,31.983008,38.607194,40.643230,23.493750,13.096123,63.276549,61.352730,30.973440,34.860649,1.089786
STILL,aom,av2,0,F1,lodge.y4m,6000x4000,25,8,185,0, KEY ,1,185,124552,28.504207,36.087814,38.529834,17.980964,9.640328,33.665412,32.457775,25.857093,31.864690,1.397457
STILL,aom,av2,0,F1,party.y4m,6720x4480,25,8,60,0, KEY ,1,60,5103888,48.766416,56.980589,57.254222,44.947456,27.470263,96.783408,96.135682,49.714846,50.725952,0.000010
STILL,aom,av2,0,F1,party.y4m,6720x4480,25,8,85,0, KEY ,1,85,1409132,43.413439,55.303366,55.616489,38.334318,21.183447,96.375818,95.473137,44.592746,45.527440,0.409985
STILL,aom,av2,0,F1,party.y4m,6720x4480,25,8,110,0, KEY ,1,110,233598,41.118516,53.421427,53.769632,32.133609,17.968519,95.022580,93.720477,41.088337,43.232024,7.251472
STILL,aom,av2,0,F1,party.y4m,6720x4480,25,8,135,0, KEY ,1,135,88709,40.234628,51.149032,51.573798,27.403204,16.836130,91.066816,89.396563,39.453655,42.331491,9.579907
STILL,aom,av2,0,F1,party.y4m,6720x4480,25,8,160,0, KEY ,1,160,41948,39.167089,47.859998,48.301644,23.508415,16.002910,83.008056,80.935115,37.668201,41.006463,10.258331
STILL,aom,av2,0,F1,party.y4m,6720x4480,25,8,185,0, KEY ,1,185,19590,37.483206,43.793059,44.334801,20.113350,14.951186,68.739359,66.498890,34.987155,38.903621,10.266126
STILL,aom,av2,0,F1,river.y4m,5184x3456,25,8,60,0, KEY ,1,60,2592383,48.821232,53.184488,53.903572,46.415211,28.218689,95.827705,94.827584,50.057131,48.578444,0.000079
STILL,aom,av2,0,F1,river.y4m,5184x3456,25,8,85,0, KEY ,1,85,703539,44.356969,50.477066,51.669270,40.135994,22.556376,93.999473,92.505883,45.199148,44.694913,0.174268
STILL,aom,av2,0,F1,river.y4m,5184x3456,25,8,110,0, KEY ,1,110,282565,42.737052,47.807781,49.744302,33.977386,20.182637,90.179194,88.180223,41.850763,42.939058,0.466539
STILL,aom,av2,0,F1,river.y4m,5184x3456,25,8,135,0, KEY ,1,135,138432,40.874986,44.959191,47.837753,28.264499,17.971710,81.056741,79.023619,38.425274,41.104350,0.729898
STILL,aom,av2,0,F1,river.y4m,5184x3456,25,8,160,0, KEY ,1,160,66915,38.299891,42.115189,45.874363,23.252824,15.446022,64.964731,62.939453,34.724151,38.826991,0.923557
STILL,aom,av2,0,F1,river.y4m,5184x3456,25,8,185,0, KEY ,1,185,29852,35.164335,39.372691,43.801178,18.537537,12.620145,40.556115,39.260888,30.979171,36.129328,1.302595
STILL,aom,av2,0,F1,santa.y4m,5616x3744,25,8,60,0, KEY ,1,60,2675285,48.950040,54.168848,53.592711,45.638544,27.855226,96.301069,95.432826,49.550547,51.293538,0.301992
STILL,aom,av2,0,F1,santa.y4m,5616x3744,25,8,85,0, KEY ,1,85,684149,44.671180,52.014764,51.389737,38.994095,22.545748,94.747295,93.521392,45.095808,47.242145,2.401041
STILL,aom,av2,0,F1,santa.y4m,5616x3744,25,8,110,0, KEY ,1,110,257623,43.102698,49.983390,49.128897,34.281456,20.581623,90.894426,89.407495,42.509762,45.522197,3.051062
STILL,aom,av2,0,F1,santa.y4m,5616x3744,25,8,135,0, KEY ,1,135,123330,41.438201,47.525250,46.333823,29.446654,18.638788,83.157060,81.273512,39.557636,43.706104,3.113245
STILL,aom,av2,0,F1,santa.y4m,5616x3744,25,8,160,0, KEY ,1,160,58329,39.183815,44.565170,43.178201,24.384016,16.259887,67.990107,65.812625,36.131670,41.341937,3.207214
STILL,aom,av2,0,F1,santa.y4m,5616x3744,25,8,185,0, KEY ,1,185,26768,36.548924,41.038950,39.756470,19.519897,13.804273,45.069351,42.806570,32.685336,38.431642,3.488171
STILL,aom,av2,0,F1,seafood.y4m,5184x3456,25,8,60,0, KEY ,1,60,4638999,48.751425,52.660316,52.815843,47.885572,29.824024,96.646313,95.811049,51.721570,49.154287,0.000000
STILL,aom,av2,0,F1,seafood.y4m,5184x3456,25,8,85,0, KEY ,1,85,2123324,43.136796,49.677977,50.016802,41.587669,23.547698,95.282333,94.097154,46.494366,44.474057,0.084486
STILL,aom,av2,0,F1,seafood.y4m,5184x3456,25,8,110,0, KEY ,1,110,742247,39.292363,46.850652,47.327416,35.418531,19.031674,92.094987,90.508893,41.156594,41.114917,1.152062
STILL,aom,av2,0,F1,seafood.y4m,5184x3456,25,8,135,0, KEY ,1,135,343255,36.870943,44.025908,44.693450,30.278255,16.853649,84.678937,82.680630,36.981688,38.867629,1.327629
STILL,aom,av2,0,F1,seafood.y4m,5184x3456,25,8,160,0, KEY ,1,160,156452,34.087269,41.254419,42.077027,25.120954,14.201048,69.434987,67.136025,32.290624,36.472994,1.504578
STILL,aom,av2,0,F1,seafood.y4m,5184x3456,25,8,185,0, KEY ,1,185,65005,31.058960,38.392178,38.888795,19.919626,11.205006,44.660963,42.732266,27.825500,33.660816,1.635908
STILL,aom,av2,0,F1,snow_00.y4m,4032x3024,25,8,60,0, KEY ,1,60,3780287,48.789891,53.789371,54.372941,43.915728,29.349109,96.875675,96.114127,52.000950,50.740556,0.000000
STILL,aom,av2,0,F1,snow_00.y4m,4032x3024,25,8,85,0, KEY ,1,85,2037519,42.843721,50.945088,51.737399,37.554872,22.991849,96.048587,94.996148,46.602369,45.786395,0.000012
STILL,aom,av2,0,F1,snow_00.y4m,4032x3024,25,8,110,0, KEY ,1,110,731632,37.666828,48.862419,49.826203,31.392153,16.880514,94.028919,92.514570,40.152297,41.611891,0.000248
STILL,aom,av2,0,F1,snow_00.y4m,4032x3024,25,8,135,0, KEY ,1,135,225097,34.881734,47.041000,48.199720,26.792149,13.987859,87.649351,85.814782,36.101566,39.260267,0.032415
STILL,aom,av2,0,F1,snow_00.y4m,4032x3024,25,8,160,0, KEY ,1,160,102236,33.017407,44.955782,46.170057,22.413959,12.580598,73.855413,71.975160,32.754216,37.566342,0.047986
STILL,aom,av2,0,F1,snow_00.y4m,4032x3024,25,8,185,0, KEY ,1,185,45709,30.675532,42.548116,44.380528,17.810564,10.858804,53.119088,51.591015,28.820247,35.610054,0.066643
STILL,aom,av2,0,F1,trees.y4m,4928x3264,25,8,60,0, KEY ,1,60,3444214,49.175337,52.650238,52.628207,47.062060,31.394983,96.865010,96.087710,52.743860,48.219305,0.000281
STILL,aom,av2,0,F1,trees.y4m,4928x3264,25,8,85,0, KEY ,1,85,1817168,44.713514,49.526190,49.539449,41.178494,26.295741,95.985385,94.686539,47.936745,44.379642,0.001347
STILL,aom,av2,0,F1,trees.y4m,4928x3264,25,8,110,0, KEY ,1,110,954720,40.875940,46.417760,46.660639,35.196263,21.646324,93.321496,91.442300,42.185744,41.152494,0.006053
STILL,aom,av2,0,F1,trees.y4m,4928x3264,25,8,135,0, KEY ,1,135,492432,37.036135,43.315311,44.095917,28.989990,17.138647,85.910813,83.639098,36.252887,37.938042,0.025953
STILL,aom,av2,0,F1,trees.y4m,4928x3264,25,8,160,0, KEY ,1,160,237869,33.189918,40.534192,42.068083,22.845522,13.007704,69.288129,67.161196,30.847607,34.750879,0.109455
STILL,aom,av2,0,F1,trees.y4m,4928x3264,25,8,185,0, KEY ,1,185,100386,29.416020,38.111549,40.249383,16.889158,9.432982,45.330987,43.861017,26.056880,31.699421,0.551623
STILL,aom,av2,0,F1,underwater_01.y4m,4032x3024,25,8,60,0, KEY ,1,60,3577668,48.780924,50.889012,51.586163,48.320229,31.290794,96.569817,95.701965,53.317905,48.981802,0.000696
STILL,aom,av2,0,F1,underwater_01.y4m,4032x3024,25,8,85,0, KEY ,1,85,1759279,43.010857,48.062701,48.924297,42.173989,25.227877,94.820955,93.753736,47.825760,44.436519,0.012505
STILL,aom,av2,0,F1,underwater_01.y4m,4032x3024,25,8,110,0, KEY ,1,110,698170,38.761575,45.150180,46.261072,35.909485,20.389371,91.076664,89.537985,41.371302,40.808442,0.027432
STILL,aom,av2,0,F1,underwater_01.y4m,4032x3024,25,8,135,0, KEY ,1,135,301301,35.992048,42.003543,43.470910,29.738366,17.042169,81.758797,79.886733,35.864496,38.126116,0.047367
STILL,aom,av2,0,F1,underwater_01.y4m,4032x3024,25,8,160,0, KEY ,1,160,143748,33.406890,38.633476,40.712117,23.720265,13.780688,62.459160,60.762421,31.060089,35.490601,0.066370
STILL,aom,av2,0,F1,underwater_01.y4m,4032x3024,25,8,185,0, KEY ,1,185,62924,30.318427,35.350609,37.937061,17.755579,10.274444,34.549033,33.580941,26.607802,32.532936,0.204000
STILL,aom,av2,0,F2,Adventure_with_the_Windmills.y4m,896x1110,24,8,60,0, KEY ,1,60,580961,49.000459,52.134287,53.317929,39.789605,36.984900,97.081893,96.224372,54.042320,48.013975,0.003930
STILL,aom,av2,0,F2,Adventure_with_the_Windmills.y4m,896x1110,24,8,85,0, KEY ,1,85,440037,43.223905,51.658357,52.601161,33.687769,31.211035,96.214431,94.969991,51.714501,44.586046,0.005173
STILL,aom,av2,0,F2,Adventure_with_the_Windmills.y4m,896x1110,24,8,110,0, KEY ,1,110,313206,37.277685,50.196470,51.407403,27.329521,25.046640,93.827926,92.214042,46.551417,39.953816,0.011160
STILL,aom,av2,0,F2,Adventure_with_the_Windmills.y4m,896x1110,24,8,135,0, KEY ,1,135,198653,31.455337,48.240596,50.339666,21.052924,19.015671,87.058501,85.238065,38.427093,34.868748,0.001907
STILL,aom,av2,0,F2,Adventure_with_the_Windmills.y4m,896x1110,24,8,160,0, KEY ,1,160,102524,25.850122,48.143153,50.148675,15.103298,13.526771,70.778215,68.804214,30.344997,29.872569,0.013745
STILL,aom,av2,0,F2,Adventure_with_the_Windmills.y4m,896x1110,24,8,185,0, KEY ,1,185,31158,20.779534,43.714741,47.268119,10.178641,8.647936,41.807296,40.302759,23.297035,24.695317,0.000630
STILL,aom,av2,0,F2,Agapanthus_Postbloom2.y4m,1208x948,24,8,60,0, KEY ,1,60,142491,49.511277,50.574017,50.280753,34.222198,30.007953,96.958835,96.292036,50.194873,48.478174,2.708107
STILL,aom,av2,0,F2,Agapanthus_Postbloom2.y4m,1208x948,24,8,85,0, KEY ,1,85,74631,46.768697,47.754071,48.532651,30.570777,27.577699,95.895296,94.901004,47.639186,45.893308,3.569528
STILL,aom,av2,0,F2,Agapanthus_Postbloom2.y4m,1208x948,24,8,110,0, KEY ,1,110,42752,43.702135,44.549120,46.799795,27.043805,25.074333,93.290689,91.965528,44.176297,43.308138,3.228042
STILL,aom,av2,0,F2,Agapanthus_Postbloom2.y4m,1208x948,24,8,135,0, KEY ,1,135,23976,39.971473,41.085151,44.579180,22.988408,21.806790,87.717253,85.552641,39.322922,40.229978,2.977367
STILL,aom,av2,0,F2,Agapanthus_Postbloom2.y4m,1208x948,24,8,160,0, KEY ,1,160,12939,35.955144,37.545394,42.177444,18.681606,18.129593,74.839511,72.477909,34.069097,36.773681,2.931139
STILL,aom,av2,0,F2,Agapanthus_Postbloom2.y4m,1208x948,24,8,185,0, KEY ,1,185,6380,31.703834,33.632675,39.702075,14.199176,14.100387,52.521410,49.958693,28.599511,32.928218,2.421072
STILL,aom,av2,0,F2,Baruch.y4m,968x1188,24,8,60,0, KEY ,1,60,637518,49.002305,51.921475,53.266525,37.849137,37.213364,97.015618,95.944668,53.364557,47.335346,0.000017
STILL,aom,av2,0,F2,Baruch.y4m,968x1188,24,8,85,0, KEY ,1,85,480125,43.339457,51.241873,52.710612,31.972887,32.010378,95.859580,94.413289,51.562767,44.085822,0.000067
STILL,aom,av2,0,F2,Baruch.y4m,968x1188,24,8,110,0, KEY ,1,110,339368,37.423868,50.750994,52.118951,26.057936,26.245256,93.197260,91.192547,47.998366,40.013863,0.000074
STILL,aom,av2,0,F2,Baruch.y4m,968x1188,24,8,135,0, KEY ,1,135,214044,31.679459,50.081637,51.175987,20.047636,20.244817,85.843954,83.262322,40.052052,35.253227,0.000036
STILL,aom,av2,0,F2,Baruch.y4m,968x1188,24,8,160,0, KEY ,1,160,109695,26.111058,49.589955,51.425026,14.116055,14.382888,68.310824,65.594381,31.256812,30.243847,0.000007
STILL,aom,av2,0,F2,Baruch.y4m,968x1188,24,8,185,0, KEY ,1,185,34744,21.164618,47.797583,49.444473,8.576304,8.841285,41.824753,39.939231,23.689035,25.394376,0.000001
STILL,aom,av2,0,F2,Berlin-Fernsehturm.y4m,1290x856,24,8,60,0, KEY ,1,60,113037,50.027164,51.304804,50.924104,29.306727,28.454336,96.882087,95.996806,48.706895,46.674485,1.884941
STILL,aom,av2,0,F2,Berlin-Fernsehturm.y4m,1290x856,24,8,85,0, KEY ,1,85,53914,46.937413,49.746793,48.808812,24.869311,24.860423,95.577996,94.466816,45.917931,44.736560,7.217110
STILL,aom,av2,0,F2,Berlin-Fernsehturm.y4m,1290x856,24,8,110,0, KEY ,1,110,26918,43.754175,48.064700,46.813179,21.476210,21.784705,92.508030,90.957678,42.934570,43.040192,8.483390
STILL,aom,av2,0,F2,Berlin-Fernsehturm.y4m,1290x856,24,8,135,0, KEY ,1,135,12629,40.299614,45.772092,44.455468,18.375348,18.814510,85.661912,83.573357,39.237828,41.033646,8.865276
STILL,aom,av2,0,F2,Berlin-Fernsehturm.y4m,1290x856,24,8,160,0, KEY ,1,160,5481,36.840893,43.474563,42.175508,15.235406,15.772324,70.946133,69.018261,35.194241,38.883325,9.271794
STILL,aom,av2,0,F2,Berlin-Fernsehturm.y4m,1290x856,24,8,185,0, KEY ,1,185,2128,33.561918,40.658939,39.712860,12.168318,12.767354,49.412004,47.269274,31.003739,36.147042,7.626028
STILL,aom,av2,0,F2,Big_Easy_chair.y4m,1196x1008,24,8,60,0, KEY ,1,60,123831,49.134972,48.764477,49.123013,32.167589,28.002528,96.941154,96.105806,48.788809,47.483116,0.005349
STILL,aom,av2,0,F2,Big_Easy_chair.y4m,1196x1008,24,8,85,0, KEY ,1,85,25638,46.153608,46.369392,47.513748,26.050319,23.492924,96.095527,94.856246,44.842980,44.918812,2.279648
STILL,aom,av2,0,F2,Big_Easy_chair.y4m,1196x1008,24,8,110,0, KEY ,1,110,10294,44.713383,45.619936,46.783090,22.620286,21.337016,93.882482,92.197084,42.520161,43.898953,4.691739
STILL,aom,av2,0,F2,Big_Easy_chair.y4m,1196x1008,24,8,135,0, KEY ,1,135,5214,43.100419,44.566363,45.729272,20.143158,19.630648,88.644074,86.495428,40.349648,42.752357,5.691925
STILL,aom,av2,0,F2,Big_Easy_chair.y4m,1196x1008,24,8,160,0, KEY ,1,160,2789,40.818097,42.783548,43.892796,17.700945,17.706020,79.886619,76.909619,37.524967,41.068596,6.004511
STILL,aom,av2,0,F2,Big_Easy_chair.y4m,1196x1008,24,8,185,0, KEY ,1,185,1503,37.773610,40.170067,41.348641,14.975057,15.320951,63.585206,60.747791,33.951236,38.520449,5.780130
STILL,aom,av2,0,F2,Butterfly.y4m,1420x918,24,8,60,0, KEY ,1,60,225297,49.127007,49.289033,50.675883,31.935539,28.123296,96.916959,96.164953,48.910827,45.972308,0.811083
STILL,aom,av2,0,F2,Butterfly.y4m,1420x918,24,8,85,0, KEY ,1,85,74429,44.520941,46.349894,48.205945,26.746628,23.426207,96.174592,95.020882,45.541735,43.051366,11.404724
STILL,aom,av2,0,F2,Butterfly.y4m,1420x918,24,8,110,0, KEY ,1,110,24977,41.962155,44.895146,46.464120,23.189240,20.472840,93.748652,92.194906,42.280557,41.548506,11.642938
STILL,aom,av2,0,F2,Butterfly.y4m,1420x918,24,8,135,0, KEY ,1,135,11268,40.131198,43.216177,44.462697,20.894918,19.016864,87.850887,85.916209,39.693315,40.409859,11.525674
STILL,aom,av2,0,F2,Butterfly.y4m,1420x918,24,8,160,0, KEY ,1,160,5623,38.002174,41.215331,42.390937,18.724409,17.532817,77.395427,75.198699,36.436253,38.784719,10.734423
STILL,aom,av2,0,F2,Butterfly.y4m,1420x918,24,8,185,0, KEY ,1,185,2863,35.118078,38.874458,39.628334,16.011894,15.423965,57.997157,55.801491,32.131956,36.821899,9.654772
STILL,aom,av2,0,F2,Cecret_Lake_Panorama.y4m,1586x752,24,8,60,0, KEY ,1,60,573501,49.582040,49.792139,49.685999,34.065600,32.842242,96.894284,96.006130,52.946898,47.198100,0.013042
STILL,aom,av2,0,F2,Cecret_Lake_Panorama.y4m,1586x752,24,8,85,0, KEY ,1,85,388559,44.060632,45.034693,45.172506,28.758117,28.021440,95.816514,94.578818,48.865884,42.347922,0.041215
STILL,aom,av2,0,F2,Cecret_Lake_Panorama.y4m,1586x752,24,8,110,0, KEY ,1,110,246241,38.306603,41.373842,42.459087,23.808085,23.326423,92.791794,91.218496,43.539958,38.186329,0.065234
STILL,aom,av2,0,F2,Cecret_Lake_Panorama.y4m,1586x752,24,8,135,0, KEY ,1,135,131914,32.393985,38.888432,40.497650,18.686692,18.337954,84.904610,83.059188,36.968153,34.017277,0.075866
STILL,aom,av2,0,F2,Cecret_Lake_Panorama.y4m,1586x752,24,8,160,0, KEY ,1,160,45359,27.209847,36.931495,38.395468,13.561613,13.248779,66.747540,64.755251,29.999993,30.035290,0.105787
STILL,aom,av2,0,F2,Cecret_Lake_Panorama.y4m,1586x752,24,8,185,0, KEY ,1,185,12093,24.139665,34.745893,36.186306,8.801404,8.940212,36.498844,34.999845,23.940995,27.150531,0.205776
STILL,aom,av2,0,F2,Claudette.y4m,900x1100,24,8,60,0, KEY ,1,60,419402,49.307232,50.328635,50.629227,37.042364,32.775071,96.761822,95.831815,53.148751,45.927038,0.026364
STILL,aom,av2,0,F2,Claudette.y4m,900x1100,24,8,85,0, KEY ,1,85,282200,43.549827,48.343347,48.840352,30.956103,27.144229,95.298412,94.035868,48.916179,42.568938,0.098275
STILL,aom,av2,0,F2,Claudette.y4m,900x1100,24,8,110,0, KEY ,1,110,171701,37.908203,46.772355,47.472239,24.990614,21.604585,91.469565,89.935750,42.937122,38.933387,0.140437
STILL,aom,av2,0,F2,Claudette.y4m,900x1100,24,8,135,0, KEY ,1,135,87757,32.585095,44.795773,45.598099,19.096442,16.500760,82.005594,80.224436,36.065668,34.797007,0.182231
STILL,aom,av2,0,F2,Claudette.y4m,900x1100,24,8,160,0, KEY ,1,160,28561,27.732162,42.413504,43.502626,13.869421,11.834976,60.255724,58.595947,29.538871,30.760195,0.259928
STILL,aom,av2,0,F2,Claudette.y4m,900x1100,24,8,185,0, KEY ,1,185,7381,24.947649,40.448152,41.586805,9.212864,8.007752,29.606707,28.472500,24.164747,28.123540,0.802537
STILL,aom,av2,0,F2,Collage_Oppeln.y4m,904x1280,24,8,60,0, KEY ,1,60,341002,49.539414,49.965788,50.587374,36.180162,31.862585,97.033091,96.303207,51.756506,47.060345,0.028137
STILL,aom,av2,0,F2,Collage_Oppeln.y4m,904x1280,24,8,85,0, KEY ,1,85,206893,44.632885,46.488291,47.304945,31.343560,27.686414,96.160301,95.105051,48.296916,43.238048,0.086561
STILL,aom,av2,0,F2,Collage_Oppeln.y4m,904x1280,24,8,110,0, KEY ,1,110,117799,39.701770,43.331244,44.302174,26.478144,23.370803,93.790743,92.381439,43.420205,39.788059,0.161117
STILL,aom,av2,0,F2,Collage_Oppeln.y4m,904x1280,24,8,135,0, KEY ,1,135,59692,35.000934,40.541165,41.427047,21.658992,19.081638,87.770250,85.959523,37.485569,36.431647,0.190192
STILL,aom,av2,0,F2,Collage_Oppeln.y4m,904x1280,24,8,160,0, KEY ,1,160,26466,30.791280,37.945723,38.795186,16.929741,15.051945,74.511549,72.424792,31.520125,33.217138,0.175677
STILL,aom,av2,0,F2,Collage_Oppeln.y4m,904x1280,24,8,185,0, KEY ,1,185,10120,27.152633,35.195091,36.038259,12.422682,11.226308,52.158341,50.059120,25.980595,29.986092,0.125436
STILL,aom,av2,0,F2,Corona_Arch.y4m,1272x922,24,8,60,0, KEY ,1,60,380429,49.176730,49.350471,49.697809,33.808645,29.834135,96.779697,95.847543,50.909939,50.445725,0.000082
STILL,aom,av2,0,F2,Corona_Arch.y4m,1272x922,24,8,85,0, KEY ,1,85,201399,43.723088,46.820423,45.751688,27.458649,24.207799,95.646539,94.377732,46.383906,45.623859,1.776210
STILL,aom,av2,0,F2,Corona_Arch.y4m,1272x922,24,8,110,0, KEY ,1,110,101977,39.083388,44.895726,42.302688,23.590120,20.834851,92.427097,90.777694,42.591453,42.036161,4.995595
STILL,aom,av2,0,F2,Corona_Arch.y4m,1272x922,24,8,135,0, KEY ,1,135,41805,34.786345,42.790033,39.499752,19.738244,17.058881,84.351239,82.359118,37.016567,38.782593,5.013323
STILL,aom,av2,0,F2,Corona_Arch.y4m,1272x922,24,8,160,0, KEY ,1,160,14822,31.427466,40.253248,36.990373,15.264053,13.298668,65.894772,63.868758,31.317522,36.051714,5.410446
STILL,aom,av2,0,F2,Corona_Arch.y4m,1272x922,24,8,185,0, KEY ,1,185,4765,28.782284,37.446543,33.948028,11.127641,10.057520,37.623702,36.196207,26.687000,33.606845,5.820988
STILL,aom,av2,0,F2,Correfocs_Festa_Major_del_Clot.y4m,1306x870,24,8,60,0, KEY ,1,60,243775,49.226933,50.275615,49.968181,30.924602,29.436111,96.640453,95.667951,50.495053,49.354543,0.300525
STILL,aom,av2,0,F2,Correfocs_Festa_Major_del_Clot.y4m,1306x870,24,8,85,0, KEY ,1,85,123689,45.020377,47.530960,46.571019,25.577342,24.841747,94.743073,93.508612,46.470720,45.794711,1.361116
STILL,aom,av2,0,F2,Correfocs_Festa_Major_del_Clot.y4m,1306x870,24,8,110,0, KEY ,1,110,67173,41.347349,45.161665,43.468630,21.407660,21.268012,90.725459,89.076552,42.282376,42.934945,1.852051
STILL,aom,av2,0,F2,Correfocs_Festa_Major_del_Clot.y4m,1306x870,24,8,135,0, KEY ,1,135,34924,37.398960,42.886541,40.240761,17.322892,17.608412,81.679730,79.576097,37.487406,39.935340,2.035975
STILL,aom,av2,0,F2,Correfocs_Festa_Major_del_Clot.y4m,1306x870,24,8,160,0, KEY ,1,160,15637,33.261381,40.407740,36.993816,13.106969,13.712053,63.571003,61.411228,32.343906,36.728902,1.815844
STILL,aom,av2,0,F2,Correfocs_Festa_Major_del_Clot.y4m,1306x870,24,8,185,0, KEY ,1,185,4601,29.219488,37.737329,33.628692,8.653747,9.504097,33.919788,32.560298,27.087783,33.481027,2.001032
STILL,aom,av2,0,F2,Crepuscular_rays_at_Sunset_near_Waterberg_Plateau.y4m,1402x934,24,8,60,0, KEY ,1,60,404984,49.437887,49.911375,49.904404,34.627921,30.553352,96.132075,94.910655,52.001074,47.670627,0.182627
STILL,aom,av2,0,F2,Crepuscular_rays_at_Sunset_near_Waterberg_Plateau.y4m,1402x934,24,8,85,0, KEY ,1,85,237101,44.378759,46.577868,46.328578,29.019839,25.756502,93.806451,92.318109,47.770404,43.578879,0.455092
STILL,aom,av2,0,F2,Crepuscular_rays_at_Sunset_near_Waterberg_Plateau.y4m,1402x934,24,8,110,0, KEY ,1,110,120186,39.016094,44.025067,43.609920,23.503367,20.651180,88.077531,86.343729,42.198120,39.871983,0.593212
STILL,aom,av2,0,F2,Crepuscular_rays_at_Sunset_near_Waterberg_Plateau.y4m,1402x934,24,8,135,0, KEY ,1,135,40727,34.202107,41.645812,41.162267,17.650214,15.223890,74.222263,72.347829,35.699853,36.311267,0.623315
STILL,aom,av2,0,F2,Crepuscular_rays_at_Sunset_near_Waterberg_Plateau.y4m,1402x934,24,8,160,0, KEY ,1,160,10503,31.207774,39.245682,38.841498,12.457820,10.997094,47.632475,45.989182,30.457271,33.664118,0.883183
STILL,aom,av2,0,F2,Crepuscular_rays_at_Sunset_near_Waterberg_Plateau.y4m,1402x934,24,8,185,0, KEY ,1,185,3013,29.442745,36.592579,36.271959,8.709594,8.258540,16.549731,15.914503,27.069368,31.607287,1.308997
STILL,aom,av2,0,F2,Esquibien_Jean_Perrot.y4m,818x1228,24,8,60,0, KEY ,1,60,388656,49.331876,50.403195,50.478405,32.623032,31.417744,96.945727,96.110333,51.863757,46.926832,0.516949
STILL,aom,av2,0,F2,Esquibien_Jean_Perrot.y4m,818x1228,24,8,85,0, KEY ,1,85,244951,43.686561,47.837028,47.753420,26.893751,26.049050,96.005838,94.825319,47.969213,43.230067,0.788100
STILL,aom,av2,0,F2,Esquibien_Jean_Perrot.y4m,818x1228,24,8,110,0, KEY ,1,110,137607,37.949876,46.349406,46.093720,21.995452,21.170282,93.554959,91.971075,43.028168,39.565958,0.692032
STILL,aom,av2,0,F2,Esquibien_Jean_Perrot.y4m,818x1228,24,8,135,0, KEY ,1,135,51638,32.597159,44.778100,44.561527,16.268602,15.497963,87.147397,85.050500,36.214793,35.538189,0.508770
STILL,aom,av2,0,F2,Esquibien_Jean_Perrot.y4m,818x1228,24,8,160,0, KEY ,1,160,15506,29.401063,42.843596,42.811202,11.766142,11.453733,71.724129,69.376364,30.313049,32.766568,0.691898
STILL,aom,av2,0,F2,Esquibien_Jean_Perrot.y4m,818x1228,24,8,185,0, KEY ,1,185,5847,27.393743,40.215599,40.229756,9.298504,9.463196,50.831353,48.809568,26.483086,30.847777,1.094428
STILL,aom,av2,0,F2,Florac-Le_Vibron-Source_du_Pecher.y4m,1080x874,24,8,60,0, KEY ,1,60,478670,49.339890,48.927809,48.850255,34.216043,32.958083,96.974340,96.206289,53.648271,45.664721,0.012444
STILL,aom,av2,0,F2,Florac-Le_Vibron-Source_du_Pecher.y4m,1080x874,24,8,85,0, KEY ,1,85,299820,43.333801,44.287198,44.066593,28.356425,27.184579,96.007451,94.893909,48.813384,40.784946,0.203303
STILL,aom,av2,0,F2,Florac-Le_Vibron-Source_du_Pecher.y4m,1080x874,24,8,110,0, KEY ,1,110,168622,37.517198,41.388233,41.516982,22.409764,21.366946,93.311832,91.820880,42.689847,37.233935,0.403946
STILL,aom,av2,0,F2,Florac-Le_Vibron-Source_du_Pecher.y4m,1080x874,24,8,135,0, KEY ,1,135,82285,32.439938,39.363713,39.734169,16.977981,16.374498,86.411106,84.384758,36.018543,33.821988,0.602594
STILL,aom,av2,0,F2,Florac-Le_Vibron-Source_du_Pecher.y4m,1080x874,24,8,160,0, KEY ,1,160,31240,28.082404,37.441053,38.169038,11.950590,11.865364,69.576598,67.477806,29.669270,30.597599,0.828969
STILL,aom,av2,0,F2,Florac-Le_Vibron-Source_du_Pecher.y4m,1080x874,24,8,185,0, KEY ,1,185,8833,24.816906,35.125382,36.383085,7.783003,8.167615,44.485643,42.731728,24.352722,27.966236,0.928666
STILL,aom,av2,0,F2,Fontaine_Place_Stanislas.y4m,1390x820,24,8,60,0, KEY ,1,60,287056,49.612541,49.315274,50.672748,31.191757,30.145669,96.971362,96.209652,50.507520,46.115692,5.535227
STILL,aom,av2,0,F2,Fontaine_Place_Stanislas.y4m,1390x820,24,8,85,0, KEY ,1,85,169605,45.020017,46.232834,47.870088,27.033595,26.193667,95.916860,94.793840,47.530530,43.106612,6.586363
STILL,aom,av2,0,F2,Fontaine_Place_Stanislas.y4m,1390x820,24,8,110,0, KEY ,1,110,96782,40.455723,43.244154,45.639509,22.511072,22.097708,93.006662,91.565852,43.100111,40.362276,6.782672
STILL,aom,av2,0,F2,Fontaine_Place_Stanislas.y4m,1390x820,24,8,135,0, KEY ,1,135,50968,35.879442,40.697913,43.657841,18.064717,18.130802,86.316710,84.314684,37.802546,37.506789,6.959817
STILL,aom,av2,0,F2,Fontaine_Place_Stanislas.y4m,1390x820,24,8,160,0, KEY ,1,160,22342,31.428648,38.430167,41.694241,14.308032,14.597978,70.709516,68.658691,32.487682,34.496129,7.881231
STILL,aom,av2,0,F2,Fontaine_Place_Stanislas.y4m,1390x820,24,8,185,0, KEY ,1,185,7339,27.671073,35.896830,38.971692,10.636983,11.125794,45.727436,43.634848,26.877065,31.469337,7.081498
STILL,aom,av2,0,F2,Genmaicha_Tea.y4m,1260x840,24,8,60,0, KEY ,1,60,102773,50.513486,52.045689,51.848923,31.427249,30.758186,97.011350,96.274581,48.400164,49.589978,0.000130
STILL,aom,av2,0,F2,Genmaicha_Tea.y4m,1260x840,24,8,85,0, KEY ,1,85,59367,47.812515,50.091399,49.805497,29.255396,28.886404,96.265564,95.212244,47.206750,47.758275,0.003304
STILL,aom,av2,0,F2,Genmaicha_Tea.y4m,1260x840,24,8,110,0, KEY ,1,110,34931,44.169427,48.178333,47.867769,27.001291,26.803962,94.167789,92.777035,45.552770,45.916992,0.003392
STILL,aom,av2,0,F2,Genmaicha_Tea.y4m,1260x840,24,8,135,0, KEY ,1,135,18586,39.862795,46.077823,45.540708,24.022053,24.023933,89.187606,87.339225,41.827158,43.645921,0.000362
STILL,aom,av2,0,F2,Genmaicha_Tea.y4m,1260x840,24,8,160,0, KEY ,1,160,8654,35.665332,43.692198,42.793490,20.626994,20.735104,78.417862,76.104180,36.256414,41.011929,0.000254
STILL,aom,av2,0,F2,Genmaicha_Tea.y4m,1260x840,24,8,185,0, KEY ,1,185,3563,31.870919,40.700324,39.765811,16.752544,16.934820,58.596671,55.854897,30.624699,37.432970,0.002345
STILL,aom,av2,0,F2,Homestead_in_Montana.y4m,1326x826,24,8,60,0, KEY ,1,60,212702,49.384952,50.033074,50.481346,31.637955,30.238198,96.787398,95.848410,51.005735,49.141415,0.217328
STILL,aom,av2,0,F2,Homestead_in_Montana.y4m,1326x826,24,8,85,0, KEY ,1,85,113444,45.685619,46.834505,46.729683,28.064683,27.071492,95.669491,94.264215,48.061036,45.778151,0.515692
STILL,aom,av2,0,F2,Homestead_in_Montana.y4m,1326x826,24,8,110,0, KEY ,1,110,60373,41.778672,43.859854,43.275446,24.050510,23.554701,92.440993,90.636062,43.359892,42.690857,0.524681
STILL,aom,av2,0,F2,Homestead_in_Montana.y4m,1326x826,24,8,135,0, KEY ,1,135,29944,37.724072,40.832473,40.169613,19.464374,19.527678,84.930457,82.642788,37.469355,39.509423,0.506000
STILL,aom,av2,0,F2,Homestead_in_Montana.y4m,1326x826,24,8,160,0, KEY ,1,160,13854,33.916419,37.846915,37.007368,14.990965,15.493311,68.016981,65.554514,31.835895,36.309840,0.571980
STILL,aom,av2,0,F2,Homestead_in_Montana.y4m,1326x826,24,8,185,0, KEY ,1,185,5673,30.293517,34.993706,33.842045,10.741827,11.571847,40.948661,39.513522,26.831607,33.123913,0.864916
STILL,aom,av2,0,F2,Madeira_151_Funchal_Mercado_dos_Lavradores.y4m,1228x816,24,8,60,0, KEY ,1,60,329289,49.202815,49.119899,49.126719,35.044779,32.550455,96.914942,96.202636,53.889018,48.068629,0.281608
STILL,aom,av2,0,F2,Madeira_151_Funchal_Mercado_dos_Lavradores.y4m,1228x816,24,8,85,0, KEY ,1,85,180106,44.112166,44.856839,45.228657,29.346185,27.368777,95.933915,94.830848,48.902311,43.558744,0.357467
STILL,aom,av2,0,F2,Madeira_151_Funchal_Mercado_dos_Lavradores.y4m,1228x816,24,8,110,0, KEY ,1,110,94020,39.716834,41.172240,41.995091,24.006331,22.741359,93.085385,91.690085,42.635394,39.860752,0.417033
STILL,aom,av2,0,F2,Madeira_151_Funchal_Mercado_dos_Lavradores.y4m,1228x816,24,8,135,0, KEY ,1,135,45631,35.611237,37.742993,38.873273,18.875622,18.331609,85.949911,84.282885,36.079969,36.376184,0.364330
STILL,aom,av2,0,F2,Madeira_151_Funchal_Mercado_dos_Lavradores.y4m,1228x816,24,8,160,0, KEY ,1,160,21198,31.905909,34.596029,35.855857,14.274454,14.404892,70.169125,68.449453,30.305906,33.110788,0.624920
STILL,aom,av2,0,F2,Madeira_151_Funchal_Mercado_dos_Lavradores.y4m,1228x816,24,8,185,0, KEY ,1,185,8833,28.327242,31.506935,32.688237,10.073399,10.676979,45.374126,43.849349,25.167010,29.846750,0.851292
STILL,aom,av2,0,F2,Madeira_159_Funchal_Mercado_dos_Lavradores.y4m,1228x816,24,8,60,0, KEY ,1,60,503116,49.289573,49.197016,49.028965,36.473430,34.253211,97.113291,96.451762,54.237180,46.147780,0.005825
STILL,aom,av2,0,F2,Madeira_159_Funchal_Mercado_dos_Lavradores.y4m,1228x816,24,8,85,0, KEY ,1,85,323899,43.445109,44.794741,44.069705,30.650324,28.657662,96.340931,95.347162,49.634969,41.473710,0.061496
STILL,aom,av2,0,F2,Madeira_159_Funchal_Mercado_dos_Lavradores.y4m,1228x816,24,8,110,0, KEY ,1,110,187844,37.822656,41.006662,40.252099,24.721260,23.038565,94.147369,92.750483,43.419007,37.418252,0.084811
STILL,aom,av2,0,F2,Madeira_159_Funchal_Mercado_dos_Lavradores.y4m,1228x816,24,8,135,0, KEY ,1,135,92231,32.778798,37.403244,37.173436,19.185266,18.026866,88.423498,86.552092,36.547455,33.563264,0.226162
STILL,aom,av2,0,F2,Madeira_159_Funchal_Mercado_dos_Lavradores.y4m,1228x816,24,8,160,0, KEY ,1,160,39658,28.547785,34.397819,34.446400,14.889023,14.332741,74.713279,72.634410,30.489646,30.311305,0.601105
STILL,aom,av2,0,F2,Madeira_159_Funchal_Mercado_dos_Lavradores.y4m,1228x816,24,8,185,0, KEY ,1,185,14625,24.924343,31.716714,32.022274,10.926409,10.857266,51.495482,49.620588,24.614065,27.239430,0.393885
STILL,aom,av2,0,F2,MagicKindom.y4m,1000x1000,24,8,60,0, KEY ,1,60,571720,49.335653,48.675251,48.756588,39.217400,34.879056,96.976525,96.201429,55.004557,48.579343,0.000002
STILL,aom,av2,0,F2,MagicKindom.y4m,1000x1000,24,8,85,0, KEY ,1,85,368926,43.121443,43.792926,43.783154,32.698987,28.463208,96.038948,94.875269,49.686381,42.927017,0.000018
STILL,aom,av2,0,F2,MagicKindom.y4m,1000x1000,24,8,110,0, KEY ,1,110,220365,37.241705,41.122777,41.041087,26.276722,22.713750,93.354685,91.749776,43.405958,38.422643,0.573346
STILL,aom,av2,0,F2,MagicKindom.y4m,1000x1000,24,8,135,0, KEY ,1,135,110090,31.705112,39.035194,38.894586,20.924698,17.760802,86.369275,84.364469,36.564235,34.062554,0.758743
STILL,aom,av2,0,F2,MagicKindom.y4m,1000x1000,24,8,160,0, KEY ,1,160,39995,27.121795,36.922822,37.106173,15.660313,12.856857,69.424663,67.384513,29.504087,30.215819,0.640986
STILL,aom,av2,0,F2,MagicKindom.y4m,1000x1000,24,8,185,0, KEY ,1,185,12184,23.941785,34.797175,35.312724,10.477780,8.674288,41.695012,40.201064,23.447769,27.306856,0.854637
STILL,aom,av2,0,F2,Michigan_Stadium.y4m,1400x934,24,8,60,0, KEY ,1,60,677666,49.340258,49.450802,49.684989,38.293935,33.421165,97.117907,96.431227,53.546009,47.766377,0.033200
STILL,aom,av2,0,F2,Michigan_Stadium.y4m,1400x934,24,8,85,0, KEY ,1,85,472023,44.059059,44.535229,44.790192,33.197340,29.121617,96.360291,95.323244,49.730648,42.876615,0.071573
STILL,aom,av2,0,F2,Michigan_Stadium.y4m,1400x934,24,8,110,0, KEY ,1,110,310879,38.691606,39.420792,40.122517,28.228371,25.044498,94.236983,92.807806,44.424517,38.287832,0.118874
STILL,aom,av2,0,F2,Michigan_Stadium.y4m,1400x934,24,8,135,0, KEY ,1,135,183370,33.149253,34.390393,36.630921,23.082238,20.703891,88.716311,86.728104,37.900062,33.879573,0.133028
STILL,aom,av2,0,F2,Michigan_Stadium.y4m,1400x934,24,8,160,0, KEY ,1,160,87811,27.582380,30.718043,34.163693,17.984625,16.174247,74.368100,72.247659,30.966317,29.748925,0.217813
STILL,aom,av2,0,F2,Michigan_Stadium.y4m,1400x934,24,8,185,0, KEY ,1,185,28958,22.923413,28.320304,32.030524,12.550263,11.133920,47.413748,45.684487,23.801577,26.022346,0.152733
STILL,aom,av2,0,F2,OperaLamps.y4m,1296x864,24,8,60,0, KEY ,1,60,458931,49.373990,49.247153,49.247615,36.088750,34.023343,96.929657,96.140446,54.267372,46.085859,0.687498
STILL,aom,av2,0,F2,OperaLamps.y4m,1296x864,24,8,85,0, KEY ,1,85,283499,44.223061,44.063485,44.204826,31.075812,29.432546,95.790560,94.660219,50.053144,41.143276,1.166646
STILL,aom,av2,0,F2,OperaLamps.y4m,1296x864,24,8,110,0, KEY ,1,110,161345,39.327720,39.563081,40.208321,25.964127,24.830802,92.827140,91.343489,43.919042,37.075233,1.158895
STILL,aom,av2,0,F2,OperaLamps.y4m,1296x864,24,8,135,0, KEY ,1,135,81881,34.460293,35.727196,36.910370,20.706186,19.976949,85.696028,83.742138,36.763849,33.389183,1.013322
STILL,aom,av2,0,F2,OperaLamps.y4m,1296x864,24,8,160,0, KEY ,1,160,37201,30.036028,32.768081,34.240980,15.547795,15.246218,69.637887,67.367811,29.978334,30.057584,0.964084
STILL,aom,av2,0,F2,OperaLamps.y4m,1296x864,24,8,185,0, KEY ,1,185,13963,25.980777,30.066440,32.176438,10.269003,10.476367,40.606039,38.856097,23.846797,26.837196,0.701842
STILL,aom,av2,0,F2,Orion_Nebula.y4m,1200x840,24,8,60,0, KEY ,1,60,146185,49.254742,50.205525,50.799245,30.440207,28.692789,96.114270,94.883327,50.515519,48.038068,0.000153
STILL,aom,av2,0,F2,Orion_Nebula.y4m,1200x840,24,8,85,0, KEY ,1,85,53624,45.304542,47.875973,48.261825,24.118800,23.328682,93.836251,92.317684,45.438761,44.876443,0.015778
STILL,aom,av2,0,F2,Orion_Nebula.y4m,1200x840,24,8,110,0, KEY ,1,110,22171,42.598030,45.854181,45.875475,19.322246,19.514341,87.853956,86.174694,40.764738,42.588962,0.066743
STILL,aom,av2,0,F2,Orion_Nebula.y4m,1200x840,24,8,135,0, KEY ,1,135,9398,39.975271,43.781770,43.373683,15.333926,16.157012,74.961382,73.371981,36.677560,40.307677,0.427995
STILL,aom,av2,0,F2,Orion_Nebula.y4m,1200x840,24,8,160,0, KEY ,1,160,3915,37.300243,41.562208,40.474928,12.107541,13.224490,53.541929,52.181920,33.237697,37.913899,1.056835
STILL,aom,av2,0,F2,Orion_Nebula.y4m,1200x840,24,8,185,0, KEY ,1,185,1492,34.519897,39.447719,38.254568,9.521926,10.603071,25.936422,25.407629,30.189592,35.603359,2.103958
STILL,aom,av2,0,F2,Saint_Catherine-Caravaggio.y4m,876x1140,24,8,60,0, KEY ,1,60,304480,49.277517,49.915133,50.448467,31.431206,29.952937,96.989079,96.334787,51.259785,46.655716,0.000007
STILL,aom,av2,0,F2,Saint_Catherine-Caravaggio.y4m,876x1140,24,8,85,0, KEY ,1,85,144938,43.010438,47.957684,48.185860,24.670506,23.345027,96.187818,95.154035,46.162458,43.395549,1.068750
STILL,aom,av2,0,F2,Saint_Catherine-Caravaggio.y4m,876x1140,24,8,110,0, KEY ,1,110,53758,38.648395,46.230686,46.130710,19.532547,18.702676,93.724762,92.371427,41.018200,40.616354,4.098595
STILL,aom,av2,0,F2,Saint_Catherine-Caravaggio.y4m,876x1140,24,8,135,0, KEY ,1,135,20916,35.827759,43.996278,43.893634,15.975046,15.743640,87.055170,85.311793,36.668321,38.429430,5.464723
STILL,aom,av2,0,F2,Saint_Catherine-Caravaggio.y4m,876x1140,24,8,160,0, KEY ,1,160,9173,33.368651,41.757981,41.347948,13.185891,13.458350,73.568284,71.472750,32.738620,36.375866,6.325943
STILL,aom,av2,0,F2,Saint_Catherine-Caravaggio.y4m,876x1140,24,8,185,0, KEY ,1,185,3741,30.587998,38.513736,38.642206,10.462204,11.085808,52.636268,50.544718,28.686438,34.026369,6.809310
STILL,aom,av2,0,F2,Streptopelia_orientalis.y4m,1404x936,24,8,60,0, KEY ,1,60,248312,48.794731,50.069872,50.861491,37.242090,30.867003,96.873952,96.139502,52.261689,47.759090,0.009510
STILL,aom,av2,0,F2,Streptopelia_orientalis.y4m,1404x936,24,8,85,0, KEY ,1,85,120391,45.286696,46.620386,47.966594,31.553849,26.993916,95.771779,94.611956,47.823423,44.475069,0.013506
STILL,aom,av2,0,F2,Streptopelia_orientalis.y4m,1404x936,24,8,110,0, KEY ,1,110,63058,42.001356,43.314847,45.013148,26.576347,23.511974,92.779302,91.165170,42.730440,41.567391,0.021598
STILL,aom,av2,0,F2,Streptopelia_orientalis.y4m,1404x936,24,8,135,0, KEY ,1,135,32343,38.538586,39.773062,41.900093,21.665255,19.802660,85.126214,83.293151,37.254045,38.363345,0.027883
STILL,aom,av2,0,F2,Streptopelia_orientalis.y4m,1404x936,24,8,160,0, KEY ,1,160,16302,34.922437,36.384454,38.933225,16.946112,16.009640,70.045700,67.754884,32.073552,34.967770,0.025785
STILL,aom,av2,0,F2,Streptopelia_orientalis.y4m,1404x936,24,8,185,0, KEY ,1,185,7594,31.131880,33.115061,35.970023,12.365624,12.140924,44.624347,42.985623,27.250140,31.492486,0.022695
STILL,aom,av2,0,F2,Swallowtail.y4m,1300x900,24,8,60,0, KEY ,1,60,308521,49.023374,50.224500,50.969229,35.670905,30.263876,96.997420,96.282436,51.521976,49.767432,0.007788
STILL,aom,av2,0,F2,Swallowtail.y4m,1300x900,24,8,85,0, KEY ,1,85,130269,43.457592,47.157038,47.984679,29.059264,24.178135,96.203961,95.072721,46.455378,45.153284,0.088393
STILL,aom,av2,0,F2,Swallowtail.y4m,1300x900,24,8,110,0, KEY ,1,110,65871,40.572410,44.170951,45.030944,25.196777,21.693491,93.606233,92.090308,42.676374,42.562627,0.245533
STILL,aom,av2,0,F2,Swallowtail.y4m,1300x900,24,8,135,0, KEY ,1,135,33831,37.340386,41.034414,41.937287,21.268347,18.933031,87.118156,85.118699,37.753649,39.789298,0.268782
STILL,aom,av2,0,F2,Swallowtail.y4m,1300x900,24,8,160,0, KEY ,1,160,16889,33.863979,37.870976,38.784119,17.427587,16.003065,73.970971,71.637781,32.496160,36.738516,0.260125
STILL,aom,av2,0,F2,Swallowtail.y4m,1300x900,24,8,185,0, KEY ,1,185,7779,30.261561,34.419773,35.330499,13.562153,12.922063,51.684746,49.848990,27.367308,33.319143,0.366809
STILL,aom,av2,0,F2,Washington_Monument.y4m,1204x904,24,8,60,0, KEY ,1,60,290182,49.642015,50.733252,50.621797,34.713667,30.629165,96.813940,95.757450,51.546785,47.590191,0.385913
STILL,aom,av2,0,F2,Washington_Monument.y4m,1204x904,24,8,85,0, KEY ,1,85,178757,44.834673,48.671844,48.358490,28.767073,25.731667,95.608039,94.180182,47.466762,44.493885,0.544708
STILL,aom,av2,0,F2,Washington_Monument.y4m,1204x904,24,8,110,0, KEY ,1,110,104710,39.900319,46.681917,46.800528,23.365741,21.154581,92.241896,90.467626,42.446897,41.513091,0.548826
STILL,aom,av2,0,F2,Washington_Monument.y4m,1204x904,24,8,135,0, KEY ,1,135,50727,34.891644,44.306897,44.874132,18.241042,16.531657,83.104467,81.235419,36.782150,38.030895,0.543873
STILL,aom,av2,0,F2,Washington_Monument.y4m,1204x904,24,8,160,0, KEY ,1,160,18226,30.572002,41.719079,42.998447,13.921324,12.774664,63.639906,61.965784,31.607119,34.647181,0.455864
STILL,aom,av2,0,F2,Washington_Monument.y4m,1204x904,24,8,185,0, KEY ,1,185,4899,27.520172,39.225979,40.973041,10.278159,9.673278,35.798173,34.461987,26.971230,31.820496,0.398568
STILL,aom,av2,0,F2,Wasserfassstelle_von_1898_im_Schanerloch.y4m,816x1150,24,8,60,0, KEY ,1,60,391788,49.298214,49.940837,50.122145,34.975855,33.004212,96.976432,96.163681,53.108391,47.544418,0.001330
STILL,aom,av2,0,F2,Wasserfassstelle_von_1898_im_Schanerloch.y4m,816x1150,24,8,85,0, KEY ,1,85,255438,43.622633,47.382340,47.976055,28.964626,27.362227,95.994263,94.818620,48.919538,43.612820,0.011504
STILL,aom,av2,0,F2,Wasserfassstelle_von_1898_im_Schanerloch.y4m,816x1150,24,8,110,0, KEY ,1,110,156417,38.191638,45.822994,46.650221,23.173515,22.118071,93.049401,91.606356,43.238365,39.896188,0.021850
STILL,aom,av2,0,F2,Wasserfassstelle_von_1898_im_Schanerloch.y4m,816x1150,24,8,135,0, KEY ,1,135,82747,33.003740,44.407610,45.041041,17.787625,17.370376,85.480095,83.630887,36.751327,35.935928,0.062747
STILL,aom,av2,0,F2,Wasserfassstelle_von_1898_im_Schanerloch.y4m,816x1150,24,8,160,0, KEY ,1,160,33106,28.328480,42.483694,42.728544,13.016184,13.065428,68.010764,66.354845,30.297054,32.047062,0.119788
STILL,aom,av2,0,F2,Wasserfassstelle_von_1898_im_Schanerloch.y4m,816x1150,24,8,185,0, KEY ,1,185,10278,24.833831,39.175036,39.726961,8.767909,9.213115,40.490340,38.862874,24.359896,28.575914,0.368502
STILL,aom,av2,0,F2,Zoo_de_la_Barben.y4m,1296x864,24,8,60,0, KEY ,1,60,146666,48.770804,50.253612,50.364563,29.569148,28.085964,96.749525,95.872825,48.748477,44.964463,0.380866
STILL,aom,av2,0,F2,Zoo_de_la_Barben.y4m,1296x864,24,8,85,0, KEY ,1,85,58676,45.741373,48.362464,48.387919,26.042091,25.095914,95.601907,94.286848,46.551706,43.294661,9.571126
STILL,aom,av2,0,F2,Zoo_de_la_Barben.y4m,1296x864,24,8,110,0, KEY ,1,110,28128,42.982294,46.270263,46.231811,23.449590,22.826244,92.849141,91.028023,43.912401,41.918439,9.029204
STILL,aom,av2,0,F2,Zoo_de_la_Barben.y4m,1296x864,24,8,135,0, KEY ,1,135,11956,39.764619,43.937348,43.750726,19.632334,19.534052,85.882058,83.614257,39.469139,40.227949,8.837109
STILL,aom,av2,0,F2,Zoo_de_la_Barben.y4m,1296x864,24,8,160,0, KEY ,1,160,4789,36.784771,41.418043,41.325976,15.694124,16.164552,71.210175,68.859426,34.742550,38.283422,8.263483
STILL,aom,av2,0,F2,Zoo_de_la_Barben.y4m,1296x864,24,8,185,0, KEY ,1,185,1927,33.989798,38.867050,38.389832,12.281001,13.022595,48.879295,46.741696,30.660403,35.698547,8.106082
